{"data":[{"id":"unit-000019","title":{"ar":"شقة 175 متر - الشيخ زايد","en":"Apartment 175 sqm - Sheikh Zayed"},"type":"apartment","price":2300000,"area":175,"bedrooms":5,"bathrooms":6,"location":{"ar":"الشيخ زايد","en":"Sheikh Zayed"},"projectId":"project-0008","unitStatus":"available","status":"active","featured":false,"images":["/uploads/1766644392683-f80be205-732f-4692-b953-5db73e48a436.jpg"],"createdAt":"2025-12-27T03:44:49.893Z"},{"id":"unit-000017","title":{"ar":"استوديو 225 متر - مدينتي","en":"Studio 225 sqm - Madinaty"},"type":"studio","price":7900000,"area":225,"bedrooms":4,"bathrooms":4,"location":{"ar":"مدينتي","en":"Madinaty"},"projectId":"project-0047","unitStatus":"available","status":"active","featured":false,"images":["/uploads/1766797522158-3deae7a4-55db-4429-a74d-f12ab9c2a324.jpg"],"createdAt":"2025-12-27T03:44:49.889Z"},{"id":"unit-000012","title":{"ar":"تاون هاوس 435 متر - المعادي","en":"Townhouse 435 sqm - Maadi"},"type":"townhouse","price":4900000,"area":435,"bedrooms":3,"bathrooms":1,"location":{"ar":"المعادي","en":"Maadi"},"projectId":"project-0049","unitStatus":"available","status":"active","featured":false,"images":["/uploads/1766591416272-7fe0dc19-e41e-4e0a-8f71-03f2430ee559.jpg"],"createdAt":"2025-12-27T03:44:49.883Z"},{"id":"unit-000011","title":{"ar":"شاليه 478 متر - الساحل الشمالي","en":"Chalet 478 sqm - North Coast"},"type":"chalet","price":8900000,"area":478,"bedrooms":3,"bathrooms":4,"location":{"ar":"الساحل الشمالي","en":"North Coast"},"projectId":"project-0033","unitStatus":"available","status":"active","featured":false,"images":["/uploads/1766590847252-c1151886-0163-48e7-abe1-4dea0f2f3b68.jpg"],"createdAt":"2025-12-27T03:44:49.882Z"},{"id":"unit-000007","title":{"ar":"تاون هاوس 280 متر - مدينتي","en":"Townhouse 280 sqm - Madinaty"},"type":"townhouse","price":9500000,"area":280,"bedrooms":4,"bathrooms":3,"location":{"ar":"مدينتي","en":"Madinaty"},"projectId":"project-0027","unitStatus":"available","status":"active","featured":false,"images":["/uploads/1766591419114-f09f133e-69aa-4e30-8fcd-8211d1567dd1.jpg"],"createdAt":"2025-12-27T03:44:49.878Z"},{"id":"unit-000001","title":{"ar":"دوبلكس 482 متر - العين السخنة","en":"Duplex 482 sqm - Ain Sokhna"},"type":"duplex","price":2200000,"area":482,"bedrooms":6,"bathrooms":7,"location":{"ar":"العين السخنة","en":"Ain Sokhna"},"projectId":"project-0050","unitStatus":"available","status":"active","featured":false,"images":["/uploads/1766797503773-92c16a72-4bf7-4a70-88f6-21abc9415855.jpg"],"createdAt":"2025-12-27T03:44:49.872Z"},{"id":"chalet-30-m-building-200-unit-1236-building-13","title":{"ar":"شاليه 60 متر عمارة 13  (نسخة) (نسخة)","en":"  Chalet 30 m  Building  200"},"type":"chalet","price":1430000,"area":90,"bedrooms":2,"bathrooms":1,"location":{"ar":"جولف بورتو مارينا","en":"Golf Porto Marina"},"projectId":"project-002","unitStatus":"available","status":"active","featured":true,"images":[],"createdAt":"2025-12-26T21:57:47.218Z"},{"id":"3a70f5e6-fb3f-4a09-b7be-def69347a832","title":{"ar":"شاليه 60 متر عمارة 13  (نسخة)","en":"Chalet 30 m  Building 13 (Copy)"},"type":"chalet","price":1430000,"area":90,"bedrooms":2,"bathrooms":1,"location":{"ar":"جولف بورتو مارينا","en":"Golf Porto Marina"},"projectId":"project-002","unitStatus":"available","status":"active","featured":true,"images":[],"createdAt":"2025-12-26T20:29:31.595Z"},{"id":"5348f566-1218-4907-8303-205fb16550be","title":{"ar":"شاليه 60 متر عمارة 13 ","en":"Chalet 30 m  Building 13"},"type":"chalet","price":1430000,"area":90,"bedrooms":2,"bathrooms":1,"location":{"ar":"جولف بورتو مارينا","en":"Golf Porto Marina"},"projectId":"project-002","unitStatus":"available","status":"active","featured":true,"images":[],"createdAt":"2025-12-26T19:34:12.031Z"}],"fullData":[{"id":"unit-000019","title":{"ar":"شقة 175 متر - الشيخ زايد","en":"Apartment 175 sqm - Sheikh Zayed"},"location":{"ar":"الشيخ زايد","en":"Sheikh Zayed"},"locationId":"sheikh-zayed","description":{"ar":"<p>شقة فاخرة بمساحة 175 متر مربع في الشيخ زايد. تتميز بتشطيبات عالية الجودة وموقع متميز.</p>","en":"<p>Luxury apartment with 175 sqm in Sheikh Zayed. Features high-quality finishes and prime location.</p>"},"price":2300000,"area":175,"bedrooms":5,"bathrooms":6,"type":"apartment","status":"active","unitStatus":"available","featured":false,"finishing":"core-shell","paymentPlans":["6-years"],"features":{"ar":["تكييف مركزي","حديقة خاصة","حمام سباحة خاص","أمن 24 ساعة"],"en":["Premium Finish","Sea View","Private Pool","Near Transportation","Maid Room","24/7 Security"]},"images":["/uploads/1766644392683-f80be205-732f-4692-b953-5db73e48a436.jpg"],"buildingNumber":"6","floor":"السادس","unitNumber":"7141","usableSpace":149,"gardenShare":0,"view":"street","projectId":"project-0008","createdAt":"2025-12-27T03:44:49.893Z","createdBy":"admin-001","updatedAt":"2025-12-27T03:44:49.893Z"},{"id":"unit-000017","title":{"ar":"استوديو 225 متر - مدينتي","en":"Studio 225 sqm - Madinaty"},"location":{"ar":"مدينتي","en":"Madinaty"},"locationId":"madinaty","description":{"ar":"<p>استوديو فاخرة بمساحة 225 متر مربع في مدينتي. تتميز بتشطيبات عالية الجودة وموقع متميز.</p>","en":"<p>Luxury studio with 225 sqm in Madinaty. Features high-quality finishes and prime location.</p>"},"price":7900000,"area":225,"bedrooms":4,"bathrooms":4,"type":"studio","status":"active","unitStatus":"available","featured":false,"finishing":"semi-finished","paymentPlans":["6-years"],"features":{"ar":["حمام سباحة خاص","تراس واسع","تشطيب سوبر لوكس","موقف سيارات"],"en":["Near Transportation","Premium Finish","Large Terrace"]},"images":["/uploads/1766797522158-3deae7a4-55db-4429-a74d-f12ab9c2a324.jpg"],"buildingNumber":"14","floor":"الثالث","unitNumber":"2208","usableSpace":191,"gardenShare":0,"view":"sea","projectId":"project-0047","createdAt":"2025-12-27T03:44:49.889Z","createdBy":"admin-001","updatedAt":"2025-12-27T03:44:49.889Z"},{"id":"unit-000012","title":{"ar":"تاون هاوس 435 متر - المعادي","en":"Townhouse 435 sqm - Maadi"},"location":{"ar":"المعادي","en":"Maadi"},"locationId":"maadi","description":{"ar":"<p>تاون هاوس فاخرة بمساحة 435 متر مربع في المعادي. تتميز بتشطيبات عالية الجودة وموقع متميز.</p>","en":"<p>Luxury townhouse with 435 sqm in Maadi. Features high-quality finishes and prime location.</p>"},"price":4900000,"area":435,"bedrooms":3,"bathrooms":1,"type":"townhouse","status":"active","unitStatus":"available","featured":false,"finishing":"semi-finished","paymentPlans":["10-years","cash"],"features":{"ar":["تشطيب سوبر لوكس","غرفة خادمة","مصعد خاص","حمام سباحة خاص","تراس واسع","حديقة خاصة"],"en":["24/7 Security","Premium Finish","Large Terrace","Sea View","Private Pool"]},"images":["/uploads/1766591416272-7fe0dc19-e41e-4e0a-8f71-03f2430ee559.jpg","/uploads/1766644120510-25bcff8c-5212-43a2-b5e2-12fc8a3cf794.jpg","/uploads/1766797522158-3deae7a4-55db-4429-a74d-f12ab9c2a324.jpg","/uploads/1766591419114-f09f133e-69aa-4e30-8fcd-8211d1567dd1.jpg"],"buildingNumber":"12","floor":"السادس","unitNumber":"9694","usableSpace":370,"gardenShare":86,"view":"landscape","projectId":"project-0049","createdAt":"2025-12-27T03:44:49.883Z","createdBy":"admin-001","updatedAt":"2025-12-27T03:44:49.883Z"},{"id":"unit-000011","title":{"ar":"شاليه 478 متر - الساحل الشمالي","en":"Chalet 478 sqm - North Coast"},"location":{"ar":"الساحل الشمالي","en":"North Coast"},"locationId":"north-coast","description":{"ar":"<p>شاليه فاخرة بمساحة 478 متر مربع في الساحل الشمالي. تتميز بتشطيبات عالية الجودة وموقع متميز.</p>","en":"<p>Luxury chalet with 478 sqm in North Coast. Features high-quality finishes and prime location.</p>"},"price":8900000,"area":478,"bedrooms":3,"bathrooms":4,"type":"chalet","status":"active","unitStatus":"available","featured":false,"finishing":"core-shell","paymentPlans":["8-years"],"features":{"ar":["تشطيب سوبر لوكس","قريب من المواصلات","حمام سباحة خاص","مصعد خاص","نادي رياضي"],"en":["Premium Finish","Parking","Private Pool","Private Garden","Maid Room"]},"images":["/uploads/1766590847252-c1151886-0163-48e7-abe1-4dea0f2f3b68.jpg","/uploads/1766635934210-e6c031d1-fd60-4894-9a7d-083aa9b76af3.jpg","/uploads/1766644392682-47488809-ee00-4602-a91f-846ed94e7627.jpg"],"buildingNumber":"15","floor":"الخامس","unitNumber":"2479","usableSpace":406,"gardenShare":0,"view":"pool","projectId":"project-0033","createdAt":"2025-12-27T03:44:49.882Z","createdBy":"admin-001","updatedAt":"2025-12-27T03:44:49.882Z"},{"id":"unit-000007","title":{"ar":"تاون هاوس 280 متر - مدينتي","en":"Townhouse 280 sqm - Madinaty"},"location":{"ar":"مدينتي","en":"Madinaty"},"locationId":"madinaty","description":{"ar":"<p>تاون هاوس فاخرة بمساحة 280 متر مربع في مدينتي. تتميز بتشطيبات عالية الجودة وموقع متميز.</p>","en":"<p>Luxury townhouse with 280 sqm in Madinaty. Features high-quality finishes and prime location.</p>"},"price":9500000,"area":280,"bedrooms":4,"bathrooms":3,"type":"townhouse","status":"active","unitStatus":"available","featured":false,"finishing":"semi-finished","paymentPlans":["cash","3-years"],"features":{"ar":["تراس واسع","حديقة خاصة","غرفة خادمة","تشطيب سوبر لوكس"],"en":["Parking","Sea View","Premium Finish","Large Terrace","Gym"]},"images":["/uploads/1766591419114-f09f133e-69aa-4e30-8fcd-8211d1567dd1.jpg","/uploads/1766644120510-25bcff8c-5212-43a2-b5e2-12fc8a3cf794.jpg"],"buildingNumber":"19","floor":"الرابع","unitNumber":"7524","usableSpace":238,"gardenShare":130,"view":"","projectId":"project-0027","createdAt":"2025-12-27T03:44:49.878Z","createdBy":"admin-001","updatedAt":"2025-12-27T03:44:49.878Z"},{"id":"unit-000001","title":{"ar":"دوبلكس 482 متر - العين السخنة","en":"Duplex 482 sqm - Ain Sokhna"},"location":{"ar":"العين السخنة","en":"Ain Sokhna"},"locationId":"ain-sokhna","description":{"ar":"<p>دوبلكس فاخرة بمساحة 482 متر مربع في العين السخنة. تتميز بتشطيبات عالية الجودة وموقع متميز.</p>","en":"<p>Luxury duplex with 482 sqm in Ain Sokhna. Features high-quality finishes and prime location.</p>"},"price":2200000,"area":482,"bedrooms":6,"bathrooms":7,"type":"duplex","status":"active","unitStatus":"available","featured":false,"finishing":"semi-finished","paymentPlans":["8-years","10-years"],"features":{"ar":["نادي رياضي","مصعد خاص","حمام سباحة خاص"],"en":["Sea View","24/7 Security","Near Transportation"]},"images":["/uploads/1766797503773-92c16a72-4bf7-4a70-88f6-21abc9415855.jpg","/uploads/1766590847252-c1151886-0163-48e7-abe1-4dea0f2f3b68.jpg"],"buildingNumber":"37","floor":"السادس","unitNumber":"4007","usableSpace":410,"gardenShare":0,"view":"golf","projectId":"project-0050","createdAt":"2025-12-27T03:44:49.872Z","createdBy":"admin-001","updatedAt":"2025-12-27T03:44:49.872Z"},{"id":"chalet-30-m-building-200-unit-1236-building-13","title":{"ar":"شاليه 60 متر عمارة 13  (نسخة) (نسخة)","en":"  Chalet 30 m  Building  200"},"projectId":"project-002","location":{"ar":"جولف بورتو مارينا","en":"Golf Porto Marina"},"locationId":"golf-porto-marina","unitStatus":"available","description":{"ar":"<p>شاليه علي الريقر سايد</p>","en":"<p>Porto Golf</p>"},"price":1430000,"area":90,"bedrooms":2,"bathrooms":1,"type":"chalet","status":"active","featured":true,"finishing":"finished","paymentPlans":["6-years"],"features":{"ar":["تشطيب سوبر لوكس"],"en":["Premium Finish"]},"images":[],"buildingNumber":"13","floor":"الارضي","unitNumber":"1236","usableSpace":60,"gardenShare":0,"view":"","createdAt":"2025-12-26T21:57:47.218Z","createdBy":"admin-001","updatedAt":"2025-12-27T02:04:09.562Z"},{"id":"3a70f5e6-fb3f-4a09-b7be-def69347a832","title":{"ar":"شاليه 60 متر عمارة 13  (نسخة)","en":"Chalet 30 m  Building 13 (Copy)"},"projectId":"project-002","location":{"ar":"جولف بورتو مارينا","en":"Golf Porto Marina"},"locationId":"golf-porto-marina","unitStatus":"available","description":{"ar":"<p>شاليه علي الريقر سايد</p>","en":"<p>Porto Golf</p>"},"price":1430000,"area":90,"bedrooms":2,"bathrooms":1,"type":"chalet","status":"active","featured":true,"finishing":"finished","paymentPlans":["6-years"],"features":{"ar":["تشطيب سوبر لوكس"],"en":["Premium Finish"]},"images":[],"buildingNumber":"13","floor":"الارضي","unitNumber":"1236","usableSpace":60,"gardenShare":0,"view":"riverside","createdAt":"2025-12-26T20:29:31.595Z","createdBy":"admin-001","updatedAt":"2025-12-27T02:04:09.557Z"},{"id":"5348f566-1218-4907-8303-205fb16550be","title":{"ar":"شاليه 60 متر عمارة 13 ","en":"Chalet 30 m  Building 13"},"projectId":"project-002","location":{"ar":"جولف بورتو مارينا","en":"Golf Porto Marina"},"locationId":"golf-porto-marina","unitStatus":"available","description":{"ar":"<p>شاليه علي الريقر سايد</p>","en":"<p>Porto Golf</p>"},"price":1430000,"area":90,"bedrooms":2,"bathrooms":1,"type":"chalet","status":"active","featured":true,"finishing":"finished","paymentPlans":["6-years"],"features":{"ar":["تشطيب سوبر لوكس"],"en":["Premium Finish"]},"images":[],"buildingNumber":"13","floor":"الارضي","unitNumber":"1236","usableSpace":60,"gardenShare":0,"view":"riverside","createdAt":"2025-12-26T19:34:12.031Z","createdBy":"admin-001","updatedAt":"2025-12-27T02:04:09.554Z"}],"total":169,"page":9,"limit":20,"totalPages":9,"hasNext":false,"hasPrev":true,"filter":{"status":"active","unitStatus":"available"},"generatedAt":"2025-12-27T03:44:54.403Z"}