{
  "data": [
    {
      "id": "project-0040",
      "title": {
        "ar": "مشروع ماونتن فيو - الساحل الشمالي 40",
        "en": "Mountain View Project - North Coast 40"
      },
      "description": {
        "ar": "<p>مجتمع سكني متكامل في الساحل الشمالي، يجمع بين الفخامة والراحة مع تصاميم معمارية فريدة. يضم المشروع 590 وحدة سكنية متنوعة.</p>",
        "en": "<p>An integrated residential community in North Coast, combining luxury and comfort with unique architectural designs. The project includes 590 diverse residential units.</p>"
      },
      "developer": {
        "ar": "ماونتن فيو",
        "en": "Mountain View"
      },
      "location": {
        "ar": "الساحل الشمالي",
        "en": "North Coast"
      },
      "locationId": "north-coast",
      "totalUnits": 590,
      "availableUnits": 280,
      "priceRange": {
        "min": 10000000,
        "max": 23000000
      },
      "amenities": {
        "ar": [
          "نادي صحي",
          "أمن 24 ساعة",
          "مطاعم راقية",
          "مناطق ترفيهية للأطفال",
          "مدارس دولية",
          "كلوب هاوس",
          "مراكز تسوق",
          "ملاعب جولف"
        ],
        "en": [
          "Spa",
          "Shopping Centers",
          "Kids Play Areas",
          "Jogging Tracks"
        ]
      },
      "images": [
        "/uploads/1766644120503-b8a5285f-a6a2-47a5-832e-6c2ea840abef.jpg",
        "/uploads/1766635937611-ba380479-d149-4335-a299-bb48282ccfd5.jpg",
        "/uploads/1766797522158-3deae7a4-55db-4429-a74d-f12ab9c2a324.jpg"
      ],
      "status": "active",
      "featured": true,
      "createdAt": "2025-12-27T03:44:49.844Z",
      "createdBy": "admin-001",
      "updatedAt": "2025-12-27T03:44:49.844Z"
    },
    {
      "id": "project-0041",
      "title": {
        "ar": "مشروع ماونتن فيو - الشيخ زايد 41",
        "en": "Mountain View Project - Sheikh Zayed 41"
      },
      "description": {
        "ar": "<p>مجتمع سكني متكامل في الشيخ زايد، يجمع بين الفخامة والراحة مع تصاميم معمارية فريدة. يضم المشروع 494 وحدة سكنية متنوعة.</p>",
        "en": "<p>An integrated residential community in Sheikh Zayed, combining luxury and comfort with unique architectural designs. The project includes 494 diverse residential units.</p>"
      },
      "developer": {
        "ar": "ماونتن فيو",
        "en": "Mountain View"
      },
      "location": {
        "ar": "الشيخ زايد",
        "en": "Sheikh Zayed"
      },
      "locationId": "sheikh-zayed",
      "totalUnits": 494,
      "availableUnits": 181,
      "priceRange": {
        "min": 7000000,
        "max": 24000000
      },
      "amenities": {
        "ar": [
          "مطاعم راقية",
          "نادي صحي",
          "سبا",
          "حدائق طبيعية",
          "مدارس دولية",
          "مسارات للجري",
          "مراكز تسوق",
          "حمامات سباحة"
        ],
        "en": [
          "Spa",
          "International Schools",
          "Landscaped Gardens",
          "Golf Courses"
        ]
      },
      "images": [
        "/uploads/1766635937611-ba380479-d149-4335-a299-bb48282ccfd5.jpg",
        "/uploads/1766635934210-e6c031d1-fd60-4894-9a7d-083aa9b76af3.jpg"
      ],
      "status": "active",
      "featured": false,
      "createdAt": "2025-12-27T03:44:49.847Z",
      "createdBy": "admin-001",
      "updatedAt": "2025-12-27T03:44:49.847Z"
    },
    {
      "id": "project-0042",
      "title": {
        "ar": "مشروع هايد بارك - الرحاب 42",
        "en": "Hyde Park Project - Rehab City 42"
      },
      "description": {
        "ar": "<p>مجتمع سكني متكامل في الرحاب، يجمع بين الفخامة والراحة مع تصاميم معمارية فريدة. يضم المشروع 1308 وحدة سكنية متنوعة.</p>",
        "en": "<p>An integrated residential community in Rehab City, combining luxury and comfort with unique architectural designs. The project includes 1308 diverse residential units.</p>"
      },
      "developer": {
        "ar": "هايد بارك",
        "en": "Hyde Park"
      },
      "location": {
        "ar": "الرحاب",
        "en": "Rehab City"
      },
      "locationId": "rehab",
      "totalUnits": 1308,
      "availableUnits": 848,
      "priceRange": {
        "min": 9000000,
        "max": 21000000
      },
      "amenities": {
        "ar": [
          "ملاعب جولف",
          "سبا",
          "مطاعم راقية",
          "ملاعب تنس",
          "أمن 24 ساعة",
          "حمامات سباحة",
          "نادي صحي"
        ],
        "en": [
          "24/7 Security",
          "Fine Dining",
          "Club House",
          "Spa"
        ]
      },
      "images": [
        "/uploads/1766644120510-25bcff8c-5212-43a2-b5e2-12fc8a3cf794.jpg",
        "/uploads/1766591419114-f09f133e-69aa-4e30-8fcd-8211d1567dd1.jpg",
        "/uploads/1766635934210-e6c031d1-fd60-4894-9a7d-083aa9b76af3.jpg",
        "/uploads/1766635937611-ba380479-d149-4335-a299-bb48282ccfd5.jpg"
      ],
      "status": "active",
      "featured": false,
      "createdAt": "2025-12-27T03:44:49.849Z",
      "createdBy": "admin-001",
      "updatedAt": "2025-12-27T03:44:49.849Z"
    },
    {
      "id": "project-0043",
      "title": {
        "ar": "مشروع طلعت مصطفى - الساحل الشمالي 43",
        "en": "Talaat Moustafa Project - North Coast 43"
      },
      "description": {
        "ar": "<p>مجتمع سكني متكامل في الساحل الشمالي، يجمع بين الفخامة والراحة مع تصاميم معمارية فريدة. يضم المشروع 214 وحدة سكنية متنوعة.</p>",
        "en": "<p>An integrated residential community in North Coast, combining luxury and comfort with unique architectural designs. The project includes 214 diverse residential units.</p>"
      },
      "developer": {
        "ar": "طلعت مصطفى",
        "en": "Talaat Moustafa"
      },
      "location": {
        "ar": "الساحل الشمالي",
        "en": "North Coast"
      },
      "locationId": "north-coast",
      "totalUnits": 214,
      "availableUnits": 103,
      "priceRange": {
        "min": 1000000,
        "max": 7000000
      },
      "amenities": {
        "ar": [
          "ملاعب جولف",
          "كلوب هاوس",
          "مدارس دولية",
          "مسجد",
          "مراكز تسوق",
          "مناطق ترفيهية للأطفال",
          "نادي صحي"
        ],
        "en": [
          "Golf Courses",
          "Spa",
          "Kids Play Areas",
          "24/7 Security",
          "Jogging Tracks",
          "Club House"
        ]
      },
      "images": [
        "/uploads/1766797522158-3deae7a4-55db-4429-a74d-f12ab9c2a324.jpg",
        "/uploads/1766590847252-c1151886-0163-48e7-abe1-4dea0f2f3b68.jpg",
        "/uploads/1766797503773-92c16a72-4bf7-4a70-88f6-21abc9415855.jpg"
      ],
      "status": "active",
      "featured": false,
      "createdAt": "2025-12-27T03:44:49.851Z",
      "createdBy": "admin-001",
      "updatedAt": "2025-12-27T03:44:49.851Z"
    },
    {
      "id": "project-0044",
      "title": {
        "ar": "مشروع لافيستا - 6 أكتوبر 44",
        "en": "La Vista Project - 6th of October 44"
      },
      "description": {
        "ar": "<p>مجتمع سكني متكامل في 6 أكتوبر، يجمع بين الفخامة والراحة مع تصاميم معمارية فريدة. يضم المشروع 356 وحدة سكنية متنوعة.</p>",
        "en": "<p>An integrated residential community in 6th of October, combining luxury and comfort with unique architectural designs. The project includes 356 diverse residential units.</p>"
      },
      "developer": {
        "ar": "لافيستا",
        "en": "La Vista"
      },
      "location": {
        "ar": "6 أكتوبر",
        "en": "6th of October"
      },
      "locationId": "october-6",
      "totalUnits": 356,
      "availableUnits": 325,
      "priceRange": {
        "min": 2000000,
        "max": 14000000
      },
      "amenities": {
        "ar": [
          "أمن 24 ساعة",
          "ملاعب تنس",
          "حدائق طبيعية",
          "مراكز تسوق",
          "مناطق ترفيهية للأطفال",
          "مسجد",
          "حمامات سباحة",
          "مطاعم راقية"
        ],
        "en": [
          "Health Club",
          "Jogging Tracks",
          "Spa",
          "Kids Play Areas",
          "24/7 Security",
          "Landscaped Gardens",
          "Club House",
          "Golf Courses"
        ]
      },
      "images": [
        "/uploads/1766644120512-c9feca98-1331-4f41-bf53-a3825cddbb50.jpg",
        "/uploads/1766644392682-47488809-ee00-4602-a91f-846ed94e7627.jpg",
        "/uploads/1766644120510-25bcff8c-5212-43a2-b5e2-12fc8a3cf794.jpg"
      ],
      "status": "active",
      "featured": true,
      "createdAt": "2025-12-27T03:44:49.854Z",
      "createdBy": "admin-001",
      "updatedAt": "2025-12-27T03:44:49.854Z"
    },
    {
      "id": "project-0045",
      "title": {
        "ar": "مشروع إعمار مصر - 6 أكتوبر 45",
        "en": "Emaar Misr Project - 6th of October 45"
      },
      "description": {
        "ar": "<p>مجتمع سكني متكامل في 6 أكتوبر، يجمع بين الفخامة والراحة مع تصاميم معمارية فريدة. يضم المشروع 918 وحدة سكنية متنوعة.</p>",
        "en": "<p>An integrated residential community in 6th of October, combining luxury and comfort with unique architectural designs. The project includes 918 diverse residential units.</p>"
      },
      "developer": {
        "ar": "إعمار مصر",
        "en": "Emaar Misr"
      },
      "location": {
        "ar": "6 أكتوبر",
        "en": "6th of October"
      },
      "locationId": "october-6",
      "totalUnits": 918,
      "availableUnits": 253,
      "priceRange": {
        "min": 6000000,
        "max": 18000000
      },
      "amenities": {
        "ar": [
          "حدائق طبيعية",
          "ملاعب جولف",
          "سبا",
          "مناطق ترفيهية للأطفال"
        ],
        "en": [
          "Health Club",
          "International Schools",
          "Fine Dining",
          "Mosque",
          "Tennis Courts",
          "24/7 Security",
          "Jogging Tracks",
          "Spa"
        ]
      },
      "images": [
        "/uploads/1766797503773-92c16a72-4bf7-4a70-88f6-21abc9415855.jpg",
        "/uploads/1766644120503-b8a5285f-a6a2-47a5-832e-6c2ea840abef.jpg",
        "/uploads/1766644120510-25bcff8c-5212-43a2-b5e2-12fc8a3cf794.jpg",
        "/uploads/1766590847252-c1151886-0163-48e7-abe1-4dea0f2f3b68.jpg"
      ],
      "status": "active",
      "featured": false,
      "createdAt": "2025-12-27T03:44:49.857Z",
      "createdBy": "admin-001",
      "updatedAt": "2025-12-27T03:44:49.857Z"
    },
    {
      "id": "project-0046",
      "title": {
        "ar": "مشروع إعمار مصر - العاصمة الإدارية 46",
        "en": "Emaar Misr Project - New Capital 46"
      },
      "description": {
        "ar": "<p>مجتمع سكني متكامل في العاصمة الإدارية، يجمع بين الفخامة والراحة مع تصاميم معمارية فريدة. يضم المشروع 867 وحدة سكنية متنوعة.</p>",
        "en": "<p>An integrated residential community in New Capital, combining luxury and comfort with unique architectural designs. The project includes 867 diverse residential units.</p>"
      },
      "developer": {
        "ar": "إعمار مصر",
        "en": "Emaar Misr"
      },
      "location": {
        "ar": "العاصمة الإدارية",
        "en": "New Capital"
      },
      "locationId": "new-capital",
      "totalUnits": 867,
      "availableUnits": 709,
      "priceRange": {
        "min": 5000000,
        "max": 10000000
      },
      "amenities": {
        "ar": [
          "سبا",
          "حدائق طبيعية",
          "مدارس دولية",
          "مطاعم راقية",
          "أمن 24 ساعة",
          "مراكز تسوق"
        ],
        "en": [
          "Jogging Tracks",
          "Shopping Centers",
          "Golf Courses",
          "Health Club",
          "Spa",
          "Kids Play Areas"
        ]
      },
      "images": [
        "/uploads/1766644120503-b8a5285f-a6a2-47a5-832e-6c2ea840abef.jpg",
        "/uploads/1766635937611-ba380479-d149-4335-a299-bb48282ccfd5.jpg"
      ],
      "status": "active",
      "featured": true,
      "createdAt": "2025-12-27T03:44:49.859Z",
      "createdBy": "admin-001",
      "updatedAt": "2025-12-27T03:44:49.859Z"
    },
    {
      "id": "project-0047",
      "title": {
        "ar": "مشروع هايد بارك - التجمع الخامس 47",
        "en": "Hyde Park Project - Fifth Settlement 47"
      },
      "description": {
        "ar": "<p>مجتمع سكني متكامل في التجمع الخامس، يجمع بين الفخامة والراحة مع تصاميم معمارية فريدة. يضم المشروع 1216 وحدة سكنية متنوعة.</p>",
        "en": "<p>An integrated residential community in Fifth Settlement, combining luxury and comfort with unique architectural designs. The project includes 1216 diverse residential units.</p>"
      },
      "developer": {
        "ar": "هايد بارك",
        "en": "Hyde Park"
      },
      "location": {
        "ar": "التجمع الخامس",
        "en": "Fifth Settlement"
      },
      "locationId": "fifth-settlement",
      "totalUnits": 1216,
      "availableUnits": 143,
      "priceRange": {
        "min": 5000000,
        "max": 24000000
      },
      "amenities": {
        "ar": [
          "نادي صحي",
          "مطاعم راقية",
          "مناطق ترفيهية للأطفال",
          "سبا",
          "مسارات للجري"
        ],
        "en": [
          "International Schools",
          "Kids Play Areas",
          "Spa",
          "Golf Courses",
          "Landscaped Gardens",
          "Shopping Centers",
          "Club House"
        ]
      },
      "images": [
        "/uploads/1766644392682-47488809-ee00-4602-a91f-846ed94e7627.jpg",
        "/uploads/1766635937611-ba380479-d149-4335-a299-bb48282ccfd5.jpg"
      ],
      "status": "active",
      "featured": false,
      "createdAt": "2025-12-27T03:44:49.861Z",
      "createdBy": "admin-001",
      "updatedAt": "2025-12-27T03:44:49.861Z"
    },
    {
      "id": "project-0048",
      "title": {
        "ar": "مشروع سوديك - مدينتي 48",
        "en": "SODIC Project - Madinaty 48"
      },
      "description": {
        "ar": "<p>مجتمع سكني متكامل في مدينتي، يجمع بين الفخامة والراحة مع تصاميم معمارية فريدة. يضم المشروع 656 وحدة سكنية متنوعة.</p>",
        "en": "<p>An integrated residential community in Madinaty, combining luxury and comfort with unique architectural designs. The project includes 656 diverse residential units.</p>"
      },
      "developer": {
        "ar": "سوديك",
        "en": "SODIC"
      },
      "location": {
        "ar": "مدينتي",
        "en": "Madinaty"
      },
      "locationId": "madinaty",
      "totalUnits": 656,
      "availableUnits": 382,
      "priceRange": {
        "min": 8000000,
        "max": 13000000
      },
      "amenities": {
        "ar": [
          "مسجد",
          "مناطق ترفيهية للأطفال",
          "مراكز تسوق",
          "حمامات سباحة"
        ],
        "en": [
          "Golf Courses",
          "Health Club",
          "Landscaped Gardens",
          "Spa",
          "Tennis Courts"
        ]
      },
      "images": [
        "/uploads/1766644120503-b8a5285f-a6a2-47a5-832e-6c2ea840abef.jpg",
        "/uploads/1766590847252-c1151886-0163-48e7-abe1-4dea0f2f3b68.jpg",
        "/uploads/1766591419114-f09f133e-69aa-4e30-8fcd-8211d1567dd1.jpg"
      ],
      "status": "active",
      "featured": true,
      "createdAt": "2025-12-27T03:44:49.863Z",
      "createdBy": "admin-001",
      "updatedAt": "2025-12-27T03:44:49.863Z"
    },
    {
      "id": "project-0049",
      "title": {
        "ar": "مشروع إعمار مصر - الشيخ زايد 49",
        "en": "Emaar Misr Project - Sheikh Zayed 49"
      },
      "description": {
        "ar": "<p>مجتمع سكني متكامل في الشيخ زايد، يجمع بين الفخامة والراحة مع تصاميم معمارية فريدة. يضم المشروع 736 وحدة سكنية متنوعة.</p>",
        "en": "<p>An integrated residential community in Sheikh Zayed, combining luxury and comfort with unique architectural designs. The project includes 736 diverse residential units.</p>"
      },
      "developer": {
        "ar": "إعمار مصر",
        "en": "Emaar Misr"
      },
      "location": {
        "ar": "الشيخ زايد",
        "en": "Sheikh Zayed"
      },
      "locationId": "sheikh-zayed",
      "totalUnits": 736,
      "availableUnits": 679,
      "priceRange": {
        "min": 2000000,
        "max": 7000000
      },
      "amenities": {
        "ar": [
          "نادي صحي",
          "مطاعم راقية",
          "حمامات سباحة",
          "سبا",
          "مدارس دولية"
        ],
        "en": [
          "24/7 Security",
          "Golf Courses",
          "Spa",
          "International Schools",
          "Landscaped Gardens",
          "Kids Play Areas"
        ]
      },
      "images": [
        "/uploads/1766635937611-ba380479-d149-4335-a299-bb48282ccfd5.jpg",
        "/uploads/1766591416272-7fe0dc19-e41e-4e0a-8f71-03f2430ee559.jpg",
        "/uploads/1766644392683-f80be205-732f-4692-b953-5db73e48a436.jpg",
        "/uploads/1766644120510-25bcff8c-5212-43a2-b5e2-12fc8a3cf794.jpg"
      ],
      "status": "active",
      "featured": true,
      "createdAt": "2025-12-27T03:44:49.866Z",
      "createdBy": "admin-001",
      "updatedAt": "2025-12-27T03:44:49.866Z"
    },
    {
      "id": "project-0050",
      "title": {
        "ar": "مشروع ماونتن فيو - مدينتي 50",
        "en": "Mountain View Project - Madinaty 50"
      },
      "description": {
        "ar": "<p>مجتمع سكني متكامل في مدينتي، يجمع بين الفخامة والراحة مع تصاميم معمارية فريدة. يضم المشروع 1927 وحدة سكنية متنوعة.</p>",
        "en": "<p>An integrated residential community in Madinaty, combining luxury and comfort with unique architectural designs. The project includes 1927 diverse residential units.</p>"
      },
      "developer": {
        "ar": "ماونتن فيو",
        "en": "Mountain View"
      },
      "location": {
        "ar": "مدينتي",
        "en": "Madinaty"
      },
      "locationId": "madinaty",
      "totalUnits": 1927,
      "availableUnits": 1061,
      "priceRange": {
        "min": 10000000,
        "max": 19000000
      },
      "amenities": {
        "ar": [
          "حمامات سباحة",
          "ملاعب تنس",
          "مسجد",
          "سبا",
          "ملاعب جولف",
          "مطاعم راقية"
        ],
        "en": [
          "24/7 Security",
          "International Schools",
          "Jogging Tracks",
          "Fine Dining",
          "Spa",
          "Tennis Courts",
          "Shopping Centers",
          "Club House"
        ]
      },
      "images": [
        "/uploads/1766635934210-e6c031d1-fd60-4894-9a7d-083aa9b76af3.jpg",
        "/uploads/1766644392682-47488809-ee00-4602-a91f-846ed94e7627.jpg"
      ],
      "status": "active",
      "featured": true,
      "createdAt": "2025-12-27T03:44:49.868Z",
      "createdBy": "admin-001",
      "updatedAt": "2025-12-27T03:44:49.868Z"
    }
  ],
  "total": 51,
  "page": 3,
  "limit": 20,
  "totalPages": 3,
  "hasNext": false,
  "hasPrev": true,
  "generatedAt": "2025-12-27T22:58:13.288Z"
}