{
  "data": [
    {
      "id": "unit-000471",
      "title": {
        "ar": "فيلا 410 متر - العين السخنة",
        "en": "Villa 410 sqm - Ain Sokhna"
      },
      "location": {
        "ar": "العين السخنة",
        "en": "Ain Sokhna"
      },
      "locationId": "ain-sokhna",
      "description": {
        "ar": "<p>فيلا فاخرة بمساحة 410 متر مربع في العين السخنة. تتميز بتشطيبات عالية الجودة وموقع متميز.</p>",
        "en": "<p>Luxury villa with 410 sqm in Ain Sokhna. Features high-quality finishes and prime location.</p>"
      },
      "price": 6700000,
      "area": 410,
      "bedrooms": 6,
      "bathrooms": 1,
      "type": "villa",
      "status": "active",
      "unitStatus": "available",
      "featured": false,
      "finishing": "core-shell",
      "paymentPlans": [
        "cash",
        "3-years"
      ],
      "features": {
        "ar": [
          "موقف سيارات",
          "تكييف مركزي",
          "حديقة خاصة",
          "قريب من المواصلات",
          "حمام سباحة خاص",
          "إطلالة بحرية"
        ],
        "en": [
          "Sea View",
          "Premium Finish",
          "Private Elevator",
          "Gym",
          "Central AC",
          "Private Pool"
        ]
      },
      "images": [
        "/uploads/1766591419114-f09f133e-69aa-4e30-8fcd-8211d1567dd1.jpg"
      ],
      "buildingNumber": "27",
      "floor": "السادس",
      "unitNumber": "7473",
      "usableSpace": 349,
      "gardenShare": 82,
      "view": "",
      "projectId": "project-0027",
      "createdAt": "2025-12-27T03:44:53.627Z",
      "createdBy": "admin-001",
      "updatedAt": "2025-12-27T03:44:53.627Z"
    },
    {
      "id": "unit-000473",
      "title": {
        "ar": "فيلا 301 متر - الشيخ زايد",
        "en": "Villa 301 sqm - Sheikh Zayed"
      },
      "location": {
        "ar": "الشيخ زايد",
        "en": "Sheikh Zayed"
      },
      "locationId": "sheikh-zayed",
      "description": {
        "ar": "<p>فيلا فاخرة بمساحة 301 متر مربع في الشيخ زايد. تتميز بتشطيبات عالية الجودة وموقع متميز.</p>",
        "en": "<p>Luxury villa with 301 sqm in Sheikh Zayed. Features high-quality finishes and prime location.</p>"
      },
      "price": 1200000,
      "area": 301,
      "bedrooms": 5,
      "bathrooms": 4,
      "type": "villa",
      "status": "active",
      "unitStatus": "sold",
      "featured": false,
      "finishing": "semi-finished",
      "paymentPlans": [
        "3-years"
      ],
      "features": {
        "ar": [
          "إطلالة بحرية",
          "نادي رياضي",
          "موقف سيارات"
        ],
        "en": [
          "Large Terrace",
          "Premium Finish",
          "Gym"
        ]
      },
      "images": [
        "/uploads/1766644120510-25bcff8c-5212-43a2-b5e2-12fc8a3cf794.jpg",
        "/uploads/1766797522158-3deae7a4-55db-4429-a74d-f12ab9c2a324.jpg"
      ],
      "buildingNumber": "2",
      "floor": "الثالث",
      "unitNumber": "3952",
      "usableSpace": 256,
      "gardenShare": 196,
      "view": "pool",
      "projectId": "project-0003",
      "createdAt": "2025-12-27T03:44:53.647Z",
      "createdBy": "admin-001",
      "updatedAt": "2025-12-27T03:44:53.647Z"
    },
    {
      "id": "unit-000478",
      "title": {
        "ar": "فيلا 462 متر - 6 أكتوبر",
        "en": "Villa 462 sqm - 6th of October"
      },
      "location": {
        "ar": "6 أكتوبر",
        "en": "6th of October"
      },
      "locationId": "october-6",
      "description": {
        "ar": "<p>فيلا فاخرة بمساحة 462 متر مربع في 6 أكتوبر. تتميز بتشطيبات عالية الجودة وموقع متميز.</p>",
        "en": "<p>Luxury villa with 462 sqm in 6th of October. Features high-quality finishes and prime location.</p>"
      },
      "price": 3500000,
      "area": 462,
      "bedrooms": 2,
      "bathrooms": 2,
      "type": "villa",
      "status": "active",
      "unitStatus": "sold",
      "featured": true,
      "finishing": "semi-finished",
      "paymentPlans": [
        "cash"
      ],
      "features": {
        "ar": [
          "حمام سباحة خاص",
          "قريب من المواصلات",
          "مصعد خاص",
          "تكييف مركزي",
          "تشطيب سوبر لوكس",
          "أمن 24 ساعة"
        ],
        "en": [
          "Maid Room",
          "Central AC",
          "Large Terrace",
          "Premium Finish"
        ]
      },
      "images": [
        "/uploads/1766590847252-c1151886-0163-48e7-abe1-4dea0f2f3b68.jpg",
        "/uploads/1766644120503-b8a5285f-a6a2-47a5-832e-6c2ea840abef.jpg"
      ],
      "buildingNumber": "26",
      "floor": "الأرضي",
      "unitNumber": "5613",
      "usableSpace": 393,
      "gardenShare": 100,
      "view": "street",
      "projectId": "project-0028",
      "createdAt": "2025-12-27T03:44:53.700Z",
      "createdBy": "admin-001",
      "updatedAt": "2025-12-27T03:44:53.700Z"
    },
    {
      "id": "unit-000481",
      "title": {
        "ar": "فيلا 352 متر - العاصمة الإدارية",
        "en": "Villa 352 sqm - New Capital"
      },
      "location": {
        "ar": "العاصمة الإدارية",
        "en": "New Capital"
      },
      "locationId": "new-capital",
      "description": {
        "ar": "<p>فيلا فاخرة بمساحة 352 متر مربع في العاصمة الإدارية. تتميز بتشطيبات عالية الجودة وموقع متميز.</p>",
        "en": "<p>Luxury villa with 352 sqm in New Capital. Features high-quality finishes and prime location.</p>"
      },
      "price": 9500000,
      "area": 352,
      "bedrooms": 3,
      "bathrooms": 4,
      "type": "villa",
      "status": "active",
      "unitStatus": "reserved",
      "featured": false,
      "finishing": "semi-finished",
      "paymentPlans": [
        "8-years"
      ],
      "features": {
        "ar": [
          "مصعد خاص",
          "نادي رياضي",
          "غرفة خادمة",
          "تشطيب سوبر لوكس"
        ],
        "en": [
          "Private Garden",
          "Premium Finish",
          "24/7 Security",
          "Near Transportation",
          "Maid Room",
          "Sea View"
        ]
      },
      "images": [
        "/uploads/1766591416272-7fe0dc19-e41e-4e0a-8f71-03f2430ee559.jpg",
        "/uploads/1766797503773-92c16a72-4bf7-4a70-88f6-21abc9415855.jpg"
      ],
      "buildingNumber": "46",
      "floor": "الرابع",
      "unitNumber": "202",
      "usableSpace": 299,
      "gardenShare": 65,
      "view": "",
      "projectId": "project-0008",
      "createdAt": "2025-12-27T03:44:53.734Z",
      "createdBy": "admin-001",
      "updatedAt": "2025-12-27T03:44:53.734Z"
    },
    {
      "id": "unit-000484",
      "title": {
        "ar": "فيلا 218 متر - الساحل الشمالي",
        "en": "Villa 218 sqm - North Coast"
      },
      "location": {
        "ar": "الساحل الشمالي",
        "en": "North Coast"
      },
      "locationId": "north-coast",
      "description": {
        "ar": "<p>فيلا فاخرة بمساحة 218 متر مربع في الساحل الشمالي. تتميز بتشطيبات عالية الجودة وموقع متميز.</p>",
        "en": "<p>Luxury villa with 218 sqm in North Coast. Features high-quality finishes and prime location.</p>"
      },
      "price": 7700000,
      "area": 218,
      "bedrooms": 4,
      "bathrooms": 2,
      "type": "villa",
      "status": "active",
      "unitStatus": "sold",
      "featured": false,
      "finishing": "finished",
      "paymentPlans": [
        "3-years",
        "8-years"
      ],
      "features": {
        "ar": [
          "قريب من المواصلات",
          "تراس واسع",
          "تكييف مركزي",
          "حمام سباحة خاص"
        ],
        "en": [
          "Premium Finish",
          "Near Transportation",
          "Private Elevator"
        ]
      },
      "images": [
        "/uploads/1766644392681-f8b78712-22c1-4daf-b8c6-353bcb2651d1.jpg"
      ],
      "buildingNumber": "10",
      "floor": "الخامس",
      "unitNumber": "4268",
      "usableSpace": 185,
      "gardenShare": 172,
      "view": "pool",
      "projectId": "project-0046",
      "createdAt": "2025-12-27T03:44:53.764Z",
      "createdBy": "admin-001",
      "updatedAt": "2025-12-27T03:44:53.764Z"
    }
  ],
  "total": 65,
  "page": 4,
  "limit": 20,
  "totalPages": 4,
  "hasNext": false,
  "hasPrev": true,
  "filter": {
    "type": "villa"
  },
  "generatedAt": "2025-12-27T22:58:09.450Z"
}