{
  "data": [
    {
      "id": "unit-000496",
      "title": {
        "ar": "تاون هاوس 227 متر - جولف بورتو مارينا",
        "en": "Townhouse 227 sqm - Golf Porto Marina"
      },
      "location": {
        "ar": "جولف بورتو مارينا",
        "en": "Golf Porto Marina"
      },
      "locationId": "golf-porto-marina",
      "description": {
        "ar": "<p>تاون هاوس فاخرة بمساحة 227 متر مربع في جولف بورتو مارينا. تتميز بتشطيبات عالية الجودة وموقع متميز.</p>",
        "en": "<p>Luxury townhouse with 227 sqm in Golf Porto Marina. Features high-quality finishes and prime location.</p>"
      },
      "price": 8500000,
      "area": 227,
      "bedrooms": 4,
      "bathrooms": 2,
      "type": "townhouse",
      "status": "active",
      "unitStatus": "available",
      "featured": false,
      "finishing": "finished",
      "paymentPlans": [
        "8-years"
      ],
      "features": {
        "ar": [
          "تشطيب سوبر لوكس",
          "غرفة خادمة",
          "قريب من المواصلات",
          "أمن 24 ساعة"
        ],
        "en": [
          "Private Pool",
          "Large Terrace",
          "Parking"
        ]
      },
      "images": [
        "/uploads/1766635937611-ba380479-d149-4335-a299-bb48282ccfd5.jpg",
        "/uploads/1766635934210-e6c031d1-fd60-4894-9a7d-083aa9b76af3.jpg",
        "/uploads/1766644120503-b8a5285f-a6a2-47a5-832e-6c2ea840abef.jpg"
      ],
      "buildingNumber": "40",
      "floor": "الأرضي",
      "unitNumber": "3148",
      "usableSpace": 193,
      "gardenShare": 118,
      "view": "",
      "projectId": "project-0036",
      "createdAt": "2025-12-27T03:44:53.889Z",
      "createdBy": "admin-001",
      "updatedAt": "2025-12-27T03:44:53.889Z"
    },
    {
      "id": "unit-000497",
      "title": {
        "ar": "بنتهاوس 459 متر - جولف بورتو مارينا",
        "en": "Penthouse 459 sqm - Golf Porto Marina"
      },
      "location": {
        "ar": "جولف بورتو مارينا",
        "en": "Golf Porto Marina"
      },
      "locationId": "golf-porto-marina",
      "description": {
        "ar": "<p>بنتهاوس فاخرة بمساحة 459 متر مربع في جولف بورتو مارينا. تتميز بتشطيبات عالية الجودة وموقع متميز.</p>",
        "en": "<p>Luxury penthouse with 459 sqm in Golf Porto Marina. Features high-quality finishes and prime location.</p>"
      },
      "price": 9600000,
      "area": 459,
      "bedrooms": 1,
      "bathrooms": 2,
      "type": "penthouse",
      "status": "active",
      "unitStatus": "available",
      "featured": false,
      "finishing": "finished",
      "paymentPlans": [
        "3-years",
        "6-years"
      ],
      "features": {
        "ar": [
          "نادي رياضي",
          "موقف سيارات",
          "أمن 24 ساعة",
          "حمام سباحة خاص",
          "حديقة خاصة"
        ],
        "en": [
          "Large Terrace",
          "Near Transportation",
          "Maid Room",
          "Private Garden"
        ]
      },
      "images": [
        "/uploads/1766591416272-7fe0dc19-e41e-4e0a-8f71-03f2430ee559.jpg",
        "/uploads/1766590847252-c1151886-0163-48e7-abe1-4dea0f2f3b68.jpg",
        "/uploads/1766644120512-c9feca98-1331-4f41-bf53-a3825cddbb50.jpg"
      ],
      "buildingNumber": "27",
      "floor": "الرابع",
      "unitNumber": "1830",
      "usableSpace": 390,
      "gardenShare": 0,
      "view": "landscape",
      "projectId": "project-0028",
      "createdAt": "2025-12-27T03:44:53.899Z",
      "createdBy": "admin-001",
      "updatedAt": "2025-12-27T03:44:53.899Z"
    }
  ],
  "total": 502,
  "page": 26,
  "limit": 20,
  "totalPages": 26,
  "hasNext": false,
  "hasPrev": true,
  "generatedAt": "2025-12-27T22:42:11.325Z"
}