{
  "data": [
    {
      "id": "unit-000477",
      "title": {
        "ar": "توين هاوس 222 متر - 6 أكتوبر",
        "en": "Twin House 222 sqm - 6th of October"
      },
      "location": {
        "ar": "6 أكتوبر",
        "en": "6th of October"
      },
      "locationId": "october-6",
      "description": {
        "ar": "<p>توين هاوس فاخرة بمساحة 222 متر مربع في 6 أكتوبر. تتميز بتشطيبات عالية الجودة وموقع متميز.</p>",
        "en": "<p>Luxury twin house with 222 sqm in 6th of October. Features high-quality finishes and prime location.</p>"
      },
      "price": 1800000,
      "area": 222,
      "bedrooms": 2,
      "bathrooms": 3,
      "type": "twin-house",
      "status": "active",
      "unitStatus": "sold",
      "featured": false,
      "finishing": "finished",
      "paymentPlans": [
        "3-years"
      ],
      "features": {
        "ar": [
          "نادي رياضي",
          "إطلالة بحرية",
          "تكييف مركزي"
        ],
        "en": [
          "Premium Finish",
          "Private Elevator",
          "Private Pool",
          "24/7 Security",
          "Private Garden",
          "Large Terrace"
        ]
      },
      "images": [
        "/uploads/1766644392683-f80be205-732f-4692-b953-5db73e48a436.jpg",
        "/uploads/1766644120503-b8a5285f-a6a2-47a5-832e-6c2ea840abef.jpg"
      ],
      "buildingNumber": "37",
      "floor": "الأرضي",
      "unitNumber": "2833",
      "usableSpace": 189,
      "gardenShare": 0,
      "view": "street",
      "projectId": "project-0006",
      "createdAt": "2025-12-27T03:44:53.689Z",
      "createdBy": "admin-001",
      "updatedAt": "2025-12-27T03:44:53.689Z"
    },
    {
      "id": "unit-000478",
      "title": {
        "ar": "فيلا 462 متر - 6 أكتوبر",
        "en": "Villa 462 sqm - 6th of October"
      },
      "location": {
        "ar": "6 أكتوبر",
        "en": "6th of October"
      },
      "locationId": "october-6",
      "description": {
        "ar": "<p>فيلا فاخرة بمساحة 462 متر مربع في 6 أكتوبر. تتميز بتشطيبات عالية الجودة وموقع متميز.</p>",
        "en": "<p>Luxury villa with 462 sqm in 6th of October. Features high-quality finishes and prime location.</p>"
      },
      "price": 3500000,
      "area": 462,
      "bedrooms": 2,
      "bathrooms": 2,
      "type": "villa",
      "status": "active",
      "unitStatus": "sold",
      "featured": true,
      "finishing": "semi-finished",
      "paymentPlans": [
        "cash"
      ],
      "features": {
        "ar": [
          "حمام سباحة خاص",
          "قريب من المواصلات",
          "مصعد خاص",
          "تكييف مركزي",
          "تشطيب سوبر لوكس",
          "أمن 24 ساعة"
        ],
        "en": [
          "Maid Room",
          "Central AC",
          "Large Terrace",
          "Premium Finish"
        ]
      },
      "images": [
        "/uploads/1766590847252-c1151886-0163-48e7-abe1-4dea0f2f3b68.jpg",
        "/uploads/1766644120503-b8a5285f-a6a2-47a5-832e-6c2ea840abef.jpg"
      ],
      "buildingNumber": "26",
      "floor": "الأرضي",
      "unitNumber": "5613",
      "usableSpace": 393,
      "gardenShare": 100,
      "view": "street",
      "projectId": "project-0028",
      "createdAt": "2025-12-27T03:44:53.700Z",
      "createdBy": "admin-001",
      "updatedAt": "2025-12-27T03:44:53.700Z"
    },
    {
      "id": "unit-000479",
      "title": {
        "ar": "توين هاوس 314 متر - العاصمة الإدارية",
        "en": "Twin House 314 sqm - New Capital"
      },
      "location": {
        "ar": "العاصمة الإدارية",
        "en": "New Capital"
      },
      "locationId": "new-capital",
      "description": {
        "ar": "<p>توين هاوس فاخرة بمساحة 314 متر مربع في العاصمة الإدارية. تتميز بتشطيبات عالية الجودة وموقع متميز.</p>",
        "en": "<p>Luxury twin house with 314 sqm in New Capital. Features high-quality finishes and prime location.</p>"
      },
      "price": 1000000,
      "area": 314,
      "bedrooms": 5,
      "bathrooms": 6,
      "type": "twin-house",
      "status": "active",
      "unitStatus": "available",
      "featured": false,
      "finishing": "finished",
      "paymentPlans": [
        "cash",
        "3-years",
        "6-years"
      ],
      "features": {
        "ar": [
          "غرفة خادمة",
          "تشطيب سوبر لوكس",
          "قريب من المواصلات",
          "تكييف مركزي",
          "حمام سباحة خاص",
          "نادي رياضي"
        ],
        "en": [
          "Sea View",
          "Gym",
          "Private Garden",
          "Maid Room",
          "Parking",
          "Private Elevator"
        ]
      },
      "images": [
        "/uploads/1766590847252-c1151886-0163-48e7-abe1-4dea0f2f3b68.jpg",
        "/uploads/1766644120503-b8a5285f-a6a2-47a5-832e-6c2ea840abef.jpg",
        "/uploads/1766591416272-7fe0dc19-e41e-4e0a-8f71-03f2430ee559.jpg"
      ],
      "buildingNumber": "27",
      "floor": "الثالث",
      "unitNumber": "5765",
      "usableSpace": 267,
      "gardenShare": 0,
      "view": "pool",
      "projectId": "project-0034",
      "createdAt": "2025-12-27T03:44:53.712Z",
      "createdBy": "admin-001",
      "updatedAt": "2025-12-27T03:44:53.712Z"
    },
    {
      "id": "unit-000480",
      "title": {
        "ar": "شاليه 467 متر - العاصمة الإدارية",
        "en": "Chalet 467 sqm - New Capital"
      },
      "location": {
        "ar": "العاصمة الإدارية",
        "en": "New Capital"
      },
      "locationId": "new-capital",
      "description": {
        "ar": "<p>شاليه فاخرة بمساحة 467 متر مربع في العاصمة الإدارية. تتميز بتشطيبات عالية الجودة وموقع متميز.</p>",
        "en": "<p>Luxury chalet with 467 sqm in New Capital. Features high-quality finishes and prime location.</p>"
      },
      "price": 5400000,
      "area": 467,
      "bedrooms": 5,
      "bathrooms": 6,
      "type": "chalet",
      "status": "active",
      "unitStatus": "sold",
      "featured": true,
      "finishing": "finished",
      "paymentPlans": [
        "8-years",
        "6-years"
      ],
      "features": {
        "ar": [
          "أمن 24 ساعة",
          "حمام سباحة خاص",
          "غرفة خادمة",
          "نادي رياضي",
          "قريب من المواصلات"
        ],
        "en": [
          "Parking",
          "Large Terrace",
          "Private Garden"
        ]
      },
      "images": [
        "/uploads/1766797503773-92c16a72-4bf7-4a70-88f6-21abc9415855.jpg",
        "/uploads/1766644120512-c9feca98-1331-4f41-bf53-a3825cddbb50.jpg",
        "/uploads/1766591419114-f09f133e-69aa-4e30-8fcd-8211d1567dd1.jpg",
        "/uploads/1766635934210-e6c031d1-fd60-4894-9a7d-083aa9b76af3.jpg"
      ],
      "buildingNumber": "15",
      "floor": "الثاني",
      "unitNumber": "963",
      "usableSpace": 397,
      "gardenShare": 0,
      "view": "golf",
      "projectId": "project-0005",
      "createdAt": "2025-12-27T03:44:53.724Z",
      "createdBy": "admin-001",
      "updatedAt": "2025-12-27T03:44:53.724Z"
    },
    {
      "id": "unit-000481",
      "title": {
        "ar": "فيلا 352 متر - العاصمة الإدارية",
        "en": "Villa 352 sqm - New Capital"
      },
      "location": {
        "ar": "العاصمة الإدارية",
        "en": "New Capital"
      },
      "locationId": "new-capital",
      "description": {
        "ar": "<p>فيلا فاخرة بمساحة 352 متر مربع في العاصمة الإدارية. تتميز بتشطيبات عالية الجودة وموقع متميز.</p>",
        "en": "<p>Luxury villa with 352 sqm in New Capital. Features high-quality finishes and prime location.</p>"
      },
      "price": 9500000,
      "area": 352,
      "bedrooms": 3,
      "bathrooms": 4,
      "type": "villa",
      "status": "active",
      "unitStatus": "reserved",
      "featured": false,
      "finishing": "semi-finished",
      "paymentPlans": [
        "8-years"
      ],
      "features": {
        "ar": [
          "مصعد خاص",
          "نادي رياضي",
          "غرفة خادمة",
          "تشطيب سوبر لوكس"
        ],
        "en": [
          "Private Garden",
          "Premium Finish",
          "24/7 Security",
          "Near Transportation",
          "Maid Room",
          "Sea View"
        ]
      },
      "images": [
        "/uploads/1766591416272-7fe0dc19-e41e-4e0a-8f71-03f2430ee559.jpg",
        "/uploads/1766797503773-92c16a72-4bf7-4a70-88f6-21abc9415855.jpg"
      ],
      "buildingNumber": "46",
      "floor": "الرابع",
      "unitNumber": "202",
      "usableSpace": 299,
      "gardenShare": 65,
      "view": "",
      "projectId": "project-0008",
      "createdAt": "2025-12-27T03:44:53.734Z",
      "createdBy": "admin-001",
      "updatedAt": "2025-12-27T03:44:53.734Z"
    },
    {
      "id": "unit-000482",
      "title": {
        "ar": "شقة 128 متر - مدينتي",
        "en": "Apartment 128 sqm - Madinaty"
      },
      "location": {
        "ar": "مدينتي",
        "en": "Madinaty"
      },
      "locationId": "madinaty",
      "description": {
        "ar": "<p>شقة فاخرة بمساحة 128 متر مربع في مدينتي. تتميز بتشطيبات عالية الجودة وموقع متميز.</p>",
        "en": "<p>Luxury apartment with 128 sqm in Madinaty. Features high-quality finishes and prime location.</p>"
      },
      "price": 800000,
      "area": 128,
      "bedrooms": 5,
      "bathrooms": 3,
      "type": "apartment",
      "status": "active",
      "unitStatus": "sold",
      "featured": false,
      "finishing": "finished",
      "paymentPlans": [
        "8-years",
        "cash"
      ],
      "features": {
        "ar": [
          "حديقة خاصة",
          "إطلالة بحرية",
          "حمام سباحة خاص",
          "نادي رياضي"
        ],
        "en": [
          "Central AC",
          "24/7 Security",
          "Premium Finish",
          "Parking"
        ]
      },
      "images": [
        "/uploads/1766635937611-ba380479-d149-4335-a299-bb48282ccfd5.jpg",
        "/uploads/1766590847252-c1151886-0163-48e7-abe1-4dea0f2f3b68.jpg",
        "/uploads/1766644392683-f80be205-732f-4692-b953-5db73e48a436.jpg",
        "/uploads/1766644120503-b8a5285f-a6a2-47a5-832e-6c2ea840abef.jpg"
      ],
      "buildingNumber": "36",
      "floor": "الرابع",
      "unitNumber": "7140",
      "usableSpace": 109,
      "gardenShare": 0,
      "view": "street",
      "projectId": "project-0002",
      "createdAt": "2025-12-27T03:44:53.745Z",
      "createdBy": "admin-001",
      "updatedAt": "2025-12-27T03:44:53.745Z"
    },
    {
      "id": "unit-000483",
      "title": {
        "ar": "دوبلكس 115 متر - الساحل الشمالي",
        "en": "Duplex 115 sqm - North Coast"
      },
      "location": {
        "ar": "الساحل الشمالي",
        "en": "North Coast"
      },
      "locationId": "north-coast",
      "description": {
        "ar": "<p>دوبلكس فاخرة بمساحة 115 متر مربع في الساحل الشمالي. تتميز بتشطيبات عالية الجودة وموقع متميز.</p>",
        "en": "<p>Luxury duplex with 115 sqm in North Coast. Features high-quality finishes and prime location.</p>"
      },
      "price": 1800000,
      "area": 115,
      "bedrooms": 1,
      "bathrooms": 2,
      "type": "duplex",
      "status": "active",
      "unitStatus": "available",
      "featured": false,
      "finishing": "core-shell",
      "paymentPlans": [
        "6-years",
        "10-years",
        "3-years"
      ],
      "features": {
        "ar": [
          "تراس واسع",
          "حمام سباحة خاص",
          "حديقة خاصة",
          "تكييف مركزي"
        ],
        "en": [
          "Gym",
          "24/7 Security",
          "Large Terrace",
          "Private Elevator",
          "Sea View",
          "Central AC"
        ]
      },
      "images": [
        "/uploads/1766590847252-c1151886-0163-48e7-abe1-4dea0f2f3b68.jpg"
      ],
      "buildingNumber": "5",
      "floor": "الثالث",
      "unitNumber": "6733",
      "usableSpace": 98,
      "gardenShare": 0,
      "view": "golf",
      "projectId": "project-0007",
      "createdAt": "2025-12-27T03:44:53.755Z",
      "createdBy": "admin-001",
      "updatedAt": "2025-12-27T03:44:53.755Z"
    },
    {
      "id": "unit-000484",
      "title": {
        "ar": "فيلا 218 متر - الساحل الشمالي",
        "en": "Villa 218 sqm - North Coast"
      },
      "location": {
        "ar": "الساحل الشمالي",
        "en": "North Coast"
      },
      "locationId": "north-coast",
      "description": {
        "ar": "<p>فيلا فاخرة بمساحة 218 متر مربع في الساحل الشمالي. تتميز بتشطيبات عالية الجودة وموقع متميز.</p>",
        "en": "<p>Luxury villa with 218 sqm in North Coast. Features high-quality finishes and prime location.</p>"
      },
      "price": 7700000,
      "area": 218,
      "bedrooms": 4,
      "bathrooms": 2,
      "type": "villa",
      "status": "active",
      "unitStatus": "sold",
      "featured": false,
      "finishing": "finished",
      "paymentPlans": [
        "3-years",
        "8-years"
      ],
      "features": {
        "ar": [
          "قريب من المواصلات",
          "تراس واسع",
          "تكييف مركزي",
          "حمام سباحة خاص"
        ],
        "en": [
          "Premium Finish",
          "Near Transportation",
          "Private Elevator"
        ]
      },
      "images": [
        "/uploads/1766644392681-f8b78712-22c1-4daf-b8c6-353bcb2651d1.jpg"
      ],
      "buildingNumber": "10",
      "floor": "الخامس",
      "unitNumber": "4268",
      "usableSpace": 185,
      "gardenShare": 172,
      "view": "pool",
      "projectId": "project-0046",
      "createdAt": "2025-12-27T03:44:53.764Z",
      "createdBy": "admin-001",
      "updatedAt": "2025-12-27T03:44:53.764Z"
    },
    {
      "id": "unit-000485",
      "title": {
        "ar": "شاليه 176 متر - جولف بورتو مارينا",
        "en": "Chalet 176 sqm - Golf Porto Marina"
      },
      "location": {
        "ar": "جولف بورتو مارينا",
        "en": "Golf Porto Marina"
      },
      "locationId": "golf-porto-marina",
      "description": {
        "ar": "<p>شاليه فاخرة بمساحة 176 متر مربع في جولف بورتو مارينا. تتميز بتشطيبات عالية الجودة وموقع متميز.</p>",
        "en": "<p>Luxury chalet with 176 sqm in Golf Porto Marina. Features high-quality finishes and prime location.</p>"
      },
      "price": 5600000,
      "area": 176,
      "bedrooms": 4,
      "bathrooms": 3,
      "type": "chalet",
      "status": "active",
      "unitStatus": "sold",
      "featured": true,
      "finishing": "finished",
      "paymentPlans": [
        "8-years",
        "10-years",
        "6-years"
      ],
      "features": {
        "ar": [
          "تراس واسع",
          "قريب من المواصلات",
          "إطلالة بحرية",
          "أمن 24 ساعة"
        ],
        "en": [
          "24/7 Security",
          "Private Pool",
          "Gym"
        ]
      },
      "images": [
        "/uploads/1766635934210-e6c031d1-fd60-4894-9a7d-083aa9b76af3.jpg"
      ],
      "buildingNumber": "30",
      "floor": "الخامس",
      "unitNumber": "8280",
      "usableSpace": 150,
      "gardenShare": 0,
      "view": "sea",
      "projectId": "project-0011",
      "createdAt": "2025-12-27T03:44:53.773Z",
      "createdBy": "admin-001",
      "updatedAt": "2025-12-27T03:44:53.773Z"
    },
    {
      "id": "unit-000486",
      "title": {
        "ar": "دوبلكس 252 متر - مدينتي",
        "en": "Duplex 252 sqm - Madinaty"
      },
      "location": {
        "ar": "مدينتي",
        "en": "Madinaty"
      },
      "locationId": "madinaty",
      "description": {
        "ar": "<p>دوبلكس فاخرة بمساحة 252 متر مربع في مدينتي. تتميز بتشطيبات عالية الجودة وموقع متميز.</p>",
        "en": "<p>Luxury duplex with 252 sqm in Madinaty. Features high-quality finishes and prime location.</p>"
      },
      "price": 4300000,
      "area": 252,
      "bedrooms": 3,
      "bathrooms": 1,
      "type": "duplex",
      "status": "active",
      "unitStatus": "available",
      "featured": true,
      "finishing": "semi-finished",
      "paymentPlans": [
        "cash"
      ],
      "features": {
        "ar": [
          "أمن 24 ساعة",
          "تكييف مركزي",
          "قريب من المواصلات",
          "حديقة خاصة",
          "إطلالة بحرية"
        ],
        "en": [
          "Gym",
          "24/7 Security",
          "Large Terrace",
          "Maid Room"
        ]
      },
      "images": [
        "/uploads/1766644120510-25bcff8c-5212-43a2-b5e2-12fc8a3cf794.jpg",
        "/uploads/1766644120512-c9feca98-1331-4f41-bf53-a3825cddbb50.jpg"
      ],
      "buildingNumber": "8",
      "floor": "الخامس",
      "unitNumber": "5087",
      "usableSpace": 214,
      "gardenShare": 0,
      "view": "",
      "projectId": "project-0035",
      "createdAt": "2025-12-27T03:44:53.784Z",
      "createdBy": "admin-001",
      "updatedAt": "2025-12-27T03:44:53.784Z"
    },
    {
      "id": "unit-000487",
      "title": {
        "ar": "تاون هاوس 70 متر - 6 أكتوبر",
        "en": "Townhouse 70 sqm - 6th of October"
      },
      "location": {
        "ar": "6 أكتوبر",
        "en": "6th of October"
      },
      "locationId": "october-6",
      "description": {
        "ar": "<p>تاون هاوس فاخرة بمساحة 70 متر مربع في 6 أكتوبر. تتميز بتشطيبات عالية الجودة وموقع متميز.</p>",
        "en": "<p>Luxury townhouse with 70 sqm in 6th of October. Features high-quality finishes and prime location.</p>"
      },
      "price": 600000,
      "area": 70,
      "bedrooms": 5,
      "bathrooms": 2,
      "type": "townhouse",
      "status": "active",
      "unitStatus": "sold",
      "featured": false,
      "finishing": "finished",
      "paymentPlans": [
        "cash",
        "3-years"
      ],
      "features": {
        "ar": [
          "موقف سيارات",
          "تكييف مركزي",
          "مصعد خاص",
          "أمن 24 ساعة"
        ],
        "en": [
          "Parking",
          "Private Garden",
          "Private Elevator"
        ]
      },
      "images": [
        "/uploads/1766635934210-e6c031d1-fd60-4894-9a7d-083aa9b76af3.jpg",
        "/uploads/1766797503773-92c16a72-4bf7-4a70-88f6-21abc9415855.jpg",
        "/uploads/1766644120510-25bcff8c-5212-43a2-b5e2-12fc8a3cf794.jpg",
        "/uploads/1766644392682-47488809-ee00-4602-a91f-846ed94e7627.jpg"
      ],
      "buildingNumber": "13",
      "floor": "الأرضي",
      "unitNumber": "8310",
      "usableSpace": 60,
      "gardenShare": 131,
      "view": "landscape",
      "projectId": "project-0026",
      "createdAt": "2025-12-27T03:44:53.795Z",
      "createdBy": "admin-001",
      "updatedAt": "2025-12-27T03:44:53.795Z"
    },
    {
      "id": "unit-000488",
      "title": {
        "ar": "بنتهاوس 458 متر - الساحل الشمالي",
        "en": "Penthouse 458 sqm - North Coast"
      },
      "location": {
        "ar": "الساحل الشمالي",
        "en": "North Coast"
      },
      "locationId": "north-coast",
      "description": {
        "ar": "<p>بنتهاوس فاخرة بمساحة 458 متر مربع في الساحل الشمالي. تتميز بتشطيبات عالية الجودة وموقع متميز.</p>",
        "en": "<p>Luxury penthouse with 458 sqm in North Coast. Features high-quality finishes and prime location.</p>"
      },
      "price": 7600000,
      "area": 458,
      "bedrooms": 5,
      "bathrooms": 4,
      "type": "penthouse",
      "status": "active",
      "unitStatus": "sold",
      "featured": false,
      "finishing": "finished",
      "paymentPlans": [
        "cash",
        "3-years",
        "6-years"
      ],
      "features": {
        "ar": [
          "تشطيب سوبر لوكس",
          "قريب من المواصلات",
          "مصعد خاص",
          "نادي رياضي"
        ],
        "en": [
          "Private Pool",
          "Central AC",
          "Maid Room",
          "Large Terrace",
          "Private Elevator"
        ]
      },
      "images": [
        "/uploads/1766591419114-f09f133e-69aa-4e30-8fcd-8211d1567dd1.jpg",
        "/uploads/1766644392682-47488809-ee00-4602-a91f-846ed94e7627.jpg",
        "/uploads/1766635934210-e6c031d1-fd60-4894-9a7d-083aa9b76af3.jpg"
      ],
      "buildingNumber": "22",
      "floor": "الأول",
      "unitNumber": "1585",
      "usableSpace": 389,
      "gardenShare": 0,
      "view": "garden",
      "projectId": "project-0037",
      "createdAt": "2025-12-27T03:44:53.805Z",
      "createdBy": "admin-001",
      "updatedAt": "2025-12-27T03:44:53.805Z"
    },
    {
      "id": "unit-000489",
      "title": {
        "ar": "شقة 444 متر - التجمع الخامس",
        "en": "Apartment 444 sqm - Fifth Settlement"
      },
      "location": {
        "ar": "التجمع الخامس",
        "en": "Fifth Settlement"
      },
      "locationId": "fifth-settlement",
      "description": {
        "ar": "<p>شقة فاخرة بمساحة 444 متر مربع في التجمع الخامس. تتميز بتشطيبات عالية الجودة وموقع متميز.</p>",
        "en": "<p>Luxury apartment with 444 sqm in Fifth Settlement. Features high-quality finishes and prime location.</p>"
      },
      "price": 9100000,
      "area": 444,
      "bedrooms": 2,
      "bathrooms": 3,
      "type": "apartment",
      "status": "active",
      "unitStatus": "reserved",
      "featured": false,
      "finishing": "core-shell",
      "paymentPlans": [
        "8-years",
        "6-years"
      ],
      "features": {
        "ar": [
          "إطلالة بحرية",
          "أمن 24 ساعة",
          "حمام سباحة خاص",
          "نادي رياضي",
          "قريب من المواصلات"
        ],
        "en": [
          "Maid Room",
          "Private Elevator",
          "Parking",
          "Near Transportation",
          "Private Pool"
        ]
      },
      "images": [
        "/uploads/1766644120512-c9feca98-1331-4f41-bf53-a3825cddbb50.jpg"
      ],
      "buildingNumber": "1",
      "floor": "الثاني",
      "unitNumber": "2705",
      "usableSpace": 377,
      "gardenShare": 0,
      "view": "garden",
      "projectId": "project-0035",
      "createdAt": "2025-12-27T03:44:53.816Z",
      "createdBy": "admin-001",
      "updatedAt": "2025-12-27T03:44:53.816Z"
    },
    {
      "id": "unit-000490",
      "title": {
        "ar": "استوديو 339 متر - جولف بورتو مارينا",
        "en": "Studio 339 sqm - Golf Porto Marina"
      },
      "location": {
        "ar": "جولف بورتو مارينا",
        "en": "Golf Porto Marina"
      },
      "locationId": "golf-porto-marina",
      "description": {
        "ar": "<p>استوديو فاخرة بمساحة 339 متر مربع في جولف بورتو مارينا. تتميز بتشطيبات عالية الجودة وموقع متميز.</p>",
        "en": "<p>Luxury studio with 339 sqm in Golf Porto Marina. Features high-quality finishes and prime location.</p>"
      },
      "price": 5600000,
      "area": 339,
      "bedrooms": 3,
      "bathrooms": 1,
      "type": "studio",
      "status": "active",
      "unitStatus": "available",
      "featured": false,
      "finishing": "semi-finished",
      "paymentPlans": [
        "10-years",
        "8-years"
      ],
      "features": {
        "ar": [
          "تراس واسع",
          "تشطيب سوبر لوكس",
          "إطلالة بحرية",
          "موقف سيارات",
          "مصعد خاص",
          "أمن 24 ساعة"
        ],
        "en": [
          "Near Transportation",
          "Premium Finish",
          "Maid Room"
        ]
      },
      "images": [
        "/uploads/1766644120503-b8a5285f-a6a2-47a5-832e-6c2ea840abef.jpg",
        "/uploads/1766644392682-47488809-ee00-4602-a91f-846ed94e7627.jpg",
        "/uploads/1766591416272-7fe0dc19-e41e-4e0a-8f71-03f2430ee559.jpg"
      ],
      "buildingNumber": "32",
      "floor": "الأرضي",
      "unitNumber": "8157",
      "usableSpace": 288,
      "gardenShare": 0,
      "view": "landscape",
      "projectId": "project-0014",
      "createdAt": "2025-12-27T03:44:53.827Z",
      "createdBy": "admin-001",
      "updatedAt": "2025-12-27T03:44:53.827Z"
    },
    {
      "id": "unit-000491",
      "title": {
        "ar": "شاليه 290 متر - 6 أكتوبر",
        "en": "Chalet 290 sqm - 6th of October"
      },
      "location": {
        "ar": "6 أكتوبر",
        "en": "6th of October"
      },
      "locationId": "october-6",
      "description": {
        "ar": "<p>شاليه فاخرة بمساحة 290 متر مربع في 6 أكتوبر. تتميز بتشطيبات عالية الجودة وموقع متميز.</p>",
        "en": "<p>Luxury chalet with 290 sqm in 6th of October. Features high-quality finishes and prime location.</p>"
      },
      "price": 7400000,
      "area": 290,
      "bedrooms": 2,
      "bathrooms": 1,
      "type": "chalet",
      "status": "active",
      "unitStatus": "reserved",
      "featured": true,
      "finishing": "finished",
      "paymentPlans": [
        "3-years",
        "6-years",
        "cash"
      ],
      "features": {
        "ar": [
          "غرفة خادمة",
          "مصعد خاص",
          "تشطيب سوبر لوكس",
          "تكييف مركزي",
          "قريب من المواصلات",
          "إطلالة بحرية"
        ],
        "en": [
          "Premium Finish",
          "Sea View",
          "Gym",
          "Private Pool"
        ]
      },
      "images": [
        "/uploads/1766635934210-e6c031d1-fd60-4894-9a7d-083aa9b76af3.jpg"
      ],
      "buildingNumber": "25",
      "floor": "الثالث",
      "unitNumber": "3501",
      "usableSpace": 247,
      "gardenShare": 0,
      "view": "golf",
      "projectId": "project-0032",
      "createdAt": "2025-12-27T03:44:53.837Z",
      "createdBy": "admin-001",
      "updatedAt": "2025-12-27T03:44:53.837Z"
    },
    {
      "id": "unit-000492",
      "title": {
        "ar": "استوديو 477 متر - التجمع الخامس",
        "en": "Studio 477 sqm - Fifth Settlement"
      },
      "location": {
        "ar": "التجمع الخامس",
        "en": "Fifth Settlement"
      },
      "locationId": "fifth-settlement",
      "description": {
        "ar": "<p>استوديو فاخرة بمساحة 477 متر مربع في التجمع الخامس. تتميز بتشطيبات عالية الجودة وموقع متميز.</p>",
        "en": "<p>Luxury studio with 477 sqm in Fifth Settlement. Features high-quality finishes and prime location.</p>"
      },
      "price": 6800000,
      "area": 477,
      "bedrooms": 2,
      "bathrooms": 1,
      "type": "studio",
      "status": "active",
      "unitStatus": "reserved",
      "featured": false,
      "finishing": "finished",
      "paymentPlans": [
        "10-years",
        "6-years",
        "3-years"
      ],
      "features": {
        "ar": [
          "نادي رياضي",
          "تكييف مركزي",
          "تراس واسع",
          "تشطيب سوبر لوكس"
        ],
        "en": [
          "Large Terrace",
          "Premium Finish",
          "Private Elevator"
        ]
      },
      "images": [
        "/uploads/1766635937611-ba380479-d149-4335-a299-bb48282ccfd5.jpg",
        "/uploads/1766797503773-92c16a72-4bf7-4a70-88f6-21abc9415855.jpg"
      ],
      "buildingNumber": "18",
      "floor": "السادس",
      "unitNumber": "6897",
      "usableSpace": 405,
      "gardenShare": 0,
      "view": "golf",
      "projectId": "project-0031",
      "createdAt": "2025-12-27T03:44:53.847Z",
      "createdBy": "admin-001",
      "updatedAt": "2025-12-27T03:44:53.847Z"
    }
  ],
  "total": 496,
  "page": 25,
  "limit": 20,
  "totalPages": 25,
  "hasNext": false,
  "hasPrev": true,
  "generatedAt": "2025-12-27T22:58:06.943Z"
}