{
  "data": [
    {
      "id": "news-0059",
      "title": {
        "ar": "تسليم وحدات المرحلة الأولى من العاصمة الإدارية 59",
        "en": "Delivery of Phase One Units in New Capital 59"
      },
      "content": {
        "ar": "<p>في خطوة جديدة تؤكد ريادة نيو سيتي في سوق العقارات المصري، أعلنت الشركة عن تسليم وحدات المرحلة الأولى من.</p><p>يأتي هذا في إطار استراتيجية الشركة للتوسع وتلبية احتياجات العملاء المتزايدة.</p><p>تتميز هذه الخطوة بعدة مزايا تشمل الموقع المتميز والتصاميم العصرية والأسعار التنافسية.</p>",
        "en": "<p>In a new step confirming New City's leadership in the Egyptian real estate market, the company announced Delivery of Phase One Units in.</p><p>This comes as part of the company's strategy to expand and meet growing customer needs.</p><p>This step features several advantages including prime location, modern designs, and competitive prices.</p>"
      },
      "excerpt": {
        "ar": "أعلنت شركة نيو سيتي عن تسليم وحدات المرحلة الأولى من في إطار استراتيجية التوسع...",
        "en": "New City announced Delivery of Phase One Units in as part of expansion strategy..."
      },
      "image": "/uploads/1766797503773-92c16a72-4bf7-4a70-88f6-21abc9415855.jpg",
      "category": "projects",
      "status": "published",
      "createdAt": "2025-12-27T03:44:54.032Z",
      "createdBy": "admin-001",
      "updatedAt": "2025-12-27T03:44:54.032Z"
    },
    {
      "id": "news-0060",
      "title": {
        "ar": "نيو سيتي تحقق رقماً قياسياً في المبيعات جولف بورتو مارينا 60",
        "en": "New City Achieves Record Sales Golf Porto Marina 60"
      },
      "content": {
        "ar": "<p>في خطوة جديدة تؤكد ريادة نيو سيتي في سوق العقارات المصري، أعلنت الشركة عن نيو سيتي تحقق رقماً قياسياً في المبيعات.</p><p>يأتي هذا في إطار استراتيجية الشركة للتوسع وتلبية احتياجات العملاء المتزايدة.</p><p>تتميز هذه الخطوة بعدة مزايا تشمل الموقع المتميز والتصاميم العصرية والأسعار التنافسية.</p>",
        "en": "<p>In a new step confirming New City's leadership in the Egyptian real estate market, the company announced New City Achieves Record Sales.</p><p>This comes as part of the company's strategy to expand and meet growing customer needs.</p><p>This step features several advantages including prime location, modern designs, and competitive prices.</p>"
      },
      "excerpt": {
        "ar": "أعلنت شركة نيو سيتي عن نيو سيتي تحقق رقماً قياسياً في المبيعات في إطار استراتيجية التوسع...",
        "en": "New City announced New City Achieves Record Sales as part of expansion strategy..."
      },
      "image": "/uploads/1766644120510-25bcff8c-5212-43a2-b5e2-12fc8a3cf794.jpg",
      "category": "company",
      "status": "published",
      "createdAt": "2025-12-27T03:44:54.035Z",
      "createdBy": "admin-001",
      "updatedAt": "2025-12-27T03:44:54.035Z"
    },
    {
      "id": "news-0061",
      "title": {
        "ar": "توقعات أسعار العقارات لعام الشيخ زايد 61",
        "en": "Property Price Predictions for Year Sheikh Zayed 61"
      },
      "content": {
        "ar": "<p>في خطوة جديدة تؤكد ريادة نيو سيتي في سوق العقارات المصري، أعلنت الشركة عن توقعات أسعار العقارات لعام.</p><p>يأتي هذا في إطار استراتيجية الشركة للتوسع وتلبية احتياجات العملاء المتزايدة.</p><p>تتميز هذه الخطوة بعدة مزايا تشمل الموقع المتميز والتصاميم العصرية والأسعار التنافسية.</p>",
        "en": "<p>In a new step confirming New City's leadership in the Egyptian real estate market, the company announced Property Price Predictions for Year.</p><p>This comes as part of the company's strategy to expand and meet growing customer needs.</p><p>This step features several advantages including prime location, modern designs, and competitive prices.</p>"
      },
      "excerpt": {
        "ar": "أعلنت شركة نيو سيتي عن توقعات أسعار العقارات لعام في إطار استراتيجية التوسع...",
        "en": "New City announced Property Price Predictions for Year as part of expansion strategy..."
      },
      "image": "/uploads/1766635937611-ba380479-d149-4335-a299-bb48282ccfd5.jpg",
      "category": "market",
      "status": "published",
      "createdAt": "2025-12-27T03:44:54.038Z",
      "createdBy": "admin-001",
      "updatedAt": "2025-12-27T03:44:54.038Z"
    },
    {
      "id": "news-0062",
      "title": {
        "ar": "تحليل سوق العقارات المصري الرحاب 62",
        "en": "Egyptian Real Estate Market Analysis Rehab City 62"
      },
      "content": {
        "ar": "<p>في خطوة جديدة تؤكد ريادة نيو سيتي في سوق العقارات المصري، أعلنت الشركة عن تحليل سوق العقارات المصري.</p><p>يأتي هذا في إطار استراتيجية الشركة للتوسع وتلبية احتياجات العملاء المتزايدة.</p><p>تتميز هذه الخطوة بعدة مزايا تشمل الموقع المتميز والتصاميم العصرية والأسعار التنافسية.</p>",
        "en": "<p>In a new step confirming New City's leadership in the Egyptian real estate market, the company announced Egyptian Real Estate Market Analysis.</p><p>This comes as part of the company's strategy to expand and meet growing customer needs.</p><p>This step features several advantages including prime location, modern designs, and competitive prices.</p>"
      },
      "excerpt": {
        "ar": "أعلنت شركة نيو سيتي عن تحليل سوق العقارات المصري في إطار استراتيجية التوسع...",
        "en": "New City announced Egyptian Real Estate Market Analysis as part of expansion strategy..."
      },
      "image": "/uploads/1766644392682-47488809-ee00-4602-a91f-846ed94e7627.jpg",
      "category": "market",
      "status": "published",
      "createdAt": "2025-12-27T03:44:54.040Z",
      "createdBy": "admin-001",
      "updatedAt": "2025-12-27T03:44:54.040Z"
    },
    {
      "id": "news-0063",
      "title": {
        "ar": "كيف تختار الوحدة المناسبة لك العاصمة الإدارية 63",
        "en": "How to Choose the Right Unit for You New Capital 63"
      },
      "content": {
        "ar": "<p>في خطوة جديدة تؤكد ريادة نيو سيتي في سوق العقارات المصري، أعلنت الشركة عن كيف تختار الوحدة المناسبة لك.</p><p>يأتي هذا في إطار استراتيجية الشركة للتوسع وتلبية احتياجات العملاء المتزايدة.</p><p>تتميز هذه الخطوة بعدة مزايا تشمل الموقع المتميز والتصاميم العصرية والأسعار التنافسية.</p>",
        "en": "<p>In a new step confirming New City's leadership in the Egyptian real estate market, the company announced How to Choose the Right Unit for You.</p><p>This comes as part of the company's strategy to expand and meet growing customer needs.</p><p>This step features several advantages including prime location, modern designs, and competitive prices.</p>"
      },
      "excerpt": {
        "ar": "أعلنت شركة نيو سيتي عن كيف تختار الوحدة المناسبة لك في إطار استراتيجية التوسع...",
        "en": "New City announced How to Choose the Right Unit for You as part of expansion strategy..."
      },
      "image": "/uploads/1766590847252-c1151886-0163-48e7-abe1-4dea0f2f3b68.jpg",
      "category": "tips",
      "status": "published",
      "createdAt": "2025-12-27T03:44:54.043Z",
      "createdBy": "admin-001",
      "updatedAt": "2025-12-27T03:44:54.043Z"
    },
    {
      "id": "news-0064",
      "title": {
        "ar": "نيو سيتي تحقق رقماً قياسياً في المبيعات 6 أكتوبر 64",
        "en": "New City Achieves Record Sales 6th of October 64"
      },
      "content": {
        "ar": "<p>في خطوة جديدة تؤكد ريادة نيو سيتي في سوق العقارات المصري، أعلنت الشركة عن نيو سيتي تحقق رقماً قياسياً في المبيعات.</p><p>يأتي هذا في إطار استراتيجية الشركة للتوسع وتلبية احتياجات العملاء المتزايدة.</p><p>تتميز هذه الخطوة بعدة مزايا تشمل الموقع المتميز والتصاميم العصرية والأسعار التنافسية.</p>",
        "en": "<p>In a new step confirming New City's leadership in the Egyptian real estate market, the company announced New City Achieves Record Sales.</p><p>This comes as part of the company's strategy to expand and meet growing customer needs.</p><p>This step features several advantages including prime location, modern designs, and competitive prices.</p>"
      },
      "excerpt": {
        "ar": "أعلنت شركة نيو سيتي عن نيو سيتي تحقق رقماً قياسياً في المبيعات في إطار استراتيجية التوسع...",
        "en": "New City announced New City Achieves Record Sales as part of expansion strategy..."
      },
      "image": "/uploads/1766644392683-f80be205-732f-4692-b953-5db73e48a436.jpg",
      "category": "company",
      "status": "published",
      "createdAt": "2025-12-27T03:44:54.046Z",
      "createdBy": "admin-001",
      "updatedAt": "2025-12-27T03:44:54.046Z"
    },
    {
      "id": "news-0065",
      "title": {
        "ar": "ورشة عمل الاستثمار العقاري الرحاب 65",
        "en": "Real Estate Investment Workshop Rehab City 65"
      },
      "content": {
        "ar": "<p>في خطوة جديدة تؤكد ريادة نيو سيتي في سوق العقارات المصري، أعلنت الشركة عن ورشة عمل الاستثمار العقاري.</p><p>يأتي هذا في إطار استراتيجية الشركة للتوسع وتلبية احتياجات العملاء المتزايدة.</p><p>تتميز هذه الخطوة بعدة مزايا تشمل الموقع المتميز والتصاميم العصرية والأسعار التنافسية.</p>",
        "en": "<p>In a new step confirming New City's leadership in the Egyptian real estate market, the company announced Real Estate Investment Workshop.</p><p>This comes as part of the company's strategy to expand and meet growing customer needs.</p><p>This step features several advantages including prime location, modern designs, and competitive prices.</p>"
      },
      "excerpt": {
        "ar": "أعلنت شركة نيو سيتي عن ورشة عمل الاستثمار العقاري في إطار استراتيجية التوسع...",
        "en": "New City announced Real Estate Investment Workshop as part of expansion strategy..."
      },
      "image": "/uploads/1766644120510-25bcff8c-5212-43a2-b5e2-12fc8a3cf794.jpg",
      "category": "events",
      "status": "published",
      "createdAt": "2025-12-27T03:44:54.049Z",
      "createdBy": "admin-001",
      "updatedAt": "2025-12-27T03:44:54.049Z"
    },
    {
      "id": "news-0066",
      "title": {
        "ar": "ورشة عمل الاستثمار العقاري التجمع الخامس 66",
        "en": "Real Estate Investment Workshop Fifth Settlement 66"
      },
      "content": {
        "ar": "<p>في خطوة جديدة تؤكد ريادة نيو سيتي في سوق العقارات المصري، أعلنت الشركة عن ورشة عمل الاستثمار العقاري.</p><p>يأتي هذا في إطار استراتيجية الشركة للتوسع وتلبية احتياجات العملاء المتزايدة.</p><p>تتميز هذه الخطوة بعدة مزايا تشمل الموقع المتميز والتصاميم العصرية والأسعار التنافسية.</p>",
        "en": "<p>In a new step confirming New City's leadership in the Egyptian real estate market, the company announced Real Estate Investment Workshop.</p><p>This comes as part of the company's strategy to expand and meet growing customer needs.</p><p>This step features several advantages including prime location, modern designs, and competitive prices.</p>"
      },
      "excerpt": {
        "ar": "أعلنت شركة نيو سيتي عن ورشة عمل الاستثمار العقاري في إطار استراتيجية التوسع...",
        "en": "New City announced Real Estate Investment Workshop as part of expansion strategy..."
      },
      "image": "/uploads/1766644392682-47488809-ee00-4602-a91f-846ed94e7627.jpg",
      "category": "events",
      "status": "published",
      "createdAt": "2025-12-27T03:44:54.052Z",
      "createdBy": "admin-001",
      "updatedAt": "2025-12-27T03:44:54.052Z"
    },
    {
      "id": "news-0067",
      "title": {
        "ar": "افتتاح مرحلة جديدة في مشروع الساحل الشمالي 67",
        "en": "Opening of New Phase in Project North Coast 67"
      },
      "content": {
        "ar": "<p>في خطوة جديدة تؤكد ريادة نيو سيتي في سوق العقارات المصري، أعلنت الشركة عن افتتاح مرحلة جديدة في مشروع.</p><p>يأتي هذا في إطار استراتيجية الشركة للتوسع وتلبية احتياجات العملاء المتزايدة.</p><p>تتميز هذه الخطوة بعدة مزايا تشمل الموقع المتميز والتصاميم العصرية والأسعار التنافسية.</p>",
        "en": "<p>In a new step confirming New City's leadership in the Egyptian real estate market, the company announced Opening of New Phase in Project.</p><p>This comes as part of the company's strategy to expand and meet growing customer needs.</p><p>This step features several advantages including prime location, modern designs, and competitive prices.</p>"
      },
      "excerpt": {
        "ar": "أعلنت شركة نيو سيتي عن افتتاح مرحلة جديدة في مشروع في إطار استراتيجية التوسع...",
        "en": "New City announced Opening of New Phase in Project as part of expansion strategy..."
      },
      "image": "/uploads/1766591416272-7fe0dc19-e41e-4e0a-8f71-03f2430ee559.jpg",
      "category": "projects",
      "status": "published",
      "createdAt": "2025-12-27T03:44:54.055Z",
      "createdBy": "admin-001",
      "updatedAt": "2025-12-27T03:44:54.055Z"
    },
    {
      "id": "news-0068",
      "title": {
        "ar": "إطلاق مشروع سكني جديد في المعادي 68",
        "en": "Launch of New Residential Project in Maadi 68"
      },
      "content": {
        "ar": "<p>في خطوة جديدة تؤكد ريادة نيو سيتي في سوق العقارات المصري، أعلنت الشركة عن إطلاق مشروع سكني جديد في.</p><p>يأتي هذا في إطار استراتيجية الشركة للتوسع وتلبية احتياجات العملاء المتزايدة.</p><p>تتميز هذه الخطوة بعدة مزايا تشمل الموقع المتميز والتصاميم العصرية والأسعار التنافسية.</p>",
        "en": "<p>In a new step confirming New City's leadership in the Egyptian real estate market, the company announced Launch of New Residential Project in.</p><p>This comes as part of the company's strategy to expand and meet growing customer needs.</p><p>This step features several advantages including prime location, modern designs, and competitive prices.</p>"
      },
      "excerpt": {
        "ar": "أعلنت شركة نيو سيتي عن إطلاق مشروع سكني جديد في في إطار استراتيجية التوسع...",
        "en": "New City announced Launch of New Residential Project in as part of expansion strategy..."
      },
      "image": "/uploads/1766644120512-c9feca98-1331-4f41-bf53-a3825cddbb50.jpg",
      "category": "projects",
      "status": "published",
      "createdAt": "2025-12-27T03:44:54.059Z",
      "createdBy": "admin-001",
      "updatedAt": "2025-12-27T03:44:54.059Z"
    },
    {
      "id": "news-0069",
      "title": {
        "ar": "نصائح لشراء عقار استثماري ناجح العاصمة الإدارية 69",
        "en": "Tips for Buying a Successful Investment Property New Capital 69"
      },
      "content": {
        "ar": "<p>في خطوة جديدة تؤكد ريادة نيو سيتي في سوق العقارات المصري، أعلنت الشركة عن نصائح لشراء عقار استثماري ناجح.</p><p>يأتي هذا في إطار استراتيجية الشركة للتوسع وتلبية احتياجات العملاء المتزايدة.</p><p>تتميز هذه الخطوة بعدة مزايا تشمل الموقع المتميز والتصاميم العصرية والأسعار التنافسية.</p>",
        "en": "<p>In a new step confirming New City's leadership in the Egyptian real estate market, the company announced Tips for Buying a Successful Investment Property.</p><p>This comes as part of the company's strategy to expand and meet growing customer needs.</p><p>This step features several advantages including prime location, modern designs, and competitive prices.</p>"
      },
      "excerpt": {
        "ar": "أعلنت شركة نيو سيتي عن نصائح لشراء عقار استثماري ناجح في إطار استراتيجية التوسع...",
        "en": "New City announced Tips for Buying a Successful Investment Property as part of expansion strategy..."
      },
      "image": "/uploads/1766644392682-47488809-ee00-4602-a91f-846ed94e7627.jpg",
      "category": "tips",
      "status": "published",
      "createdAt": "2025-12-27T03:44:54.063Z",
      "createdBy": "admin-001",
      "updatedAt": "2025-12-27T03:44:54.063Z"
    },
    {
      "id": "news-0070",
      "title": {
        "ar": "أهم العوامل عند شراء عقار الرحاب 70",
        "en": "Key Factors When Buying Property Rehab City 70"
      },
      "content": {
        "ar": "<p>في خطوة جديدة تؤكد ريادة نيو سيتي في سوق العقارات المصري، أعلنت الشركة عن أهم العوامل عند شراء عقار.</p><p>يأتي هذا في إطار استراتيجية الشركة للتوسع وتلبية احتياجات العملاء المتزايدة.</p><p>تتميز هذه الخطوة بعدة مزايا تشمل الموقع المتميز والتصاميم العصرية والأسعار التنافسية.</p>",
        "en": "<p>In a new step confirming New City's leadership in the Egyptian real estate market, the company announced Key Factors When Buying Property.</p><p>This comes as part of the company's strategy to expand and meet growing customer needs.</p><p>This step features several advantages including prime location, modern designs, and competitive prices.</p>"
      },
      "excerpt": {
        "ar": "أعلنت شركة نيو سيتي عن أهم العوامل عند شراء عقار في إطار استراتيجية التوسع...",
        "en": "New City announced Key Factors When Buying Property as part of expansion strategy..."
      },
      "image": "/uploads/1766635934210-e6c031d1-fd60-4894-9a7d-083aa9b76af3.jpg",
      "category": "tips",
      "status": "published",
      "createdAt": "2025-12-27T03:44:54.065Z",
      "createdBy": "admin-001",
      "updatedAt": "2025-12-27T03:44:54.065Z"
    },
    {
      "id": "news-0071",
      "title": {
        "ar": "توسعات جديدة لشركة نيو سيتي الرحاب 71",
        "en": "New City Announces Expansion Rehab City 71"
      },
      "content": {
        "ar": "<p>في خطوة جديدة تؤكد ريادة نيو سيتي في سوق العقارات المصري، أعلنت الشركة عن توسعات جديدة لشركة نيو سيتي.</p><p>يأتي هذا في إطار استراتيجية الشركة للتوسع وتلبية احتياجات العملاء المتزايدة.</p><p>تتميز هذه الخطوة بعدة مزايا تشمل الموقع المتميز والتصاميم العصرية والأسعار التنافسية.</p>",
        "en": "<p>In a new step confirming New City's leadership in the Egyptian real estate market, the company announced New City Announces Expansion.</p><p>This comes as part of the company's strategy to expand and meet growing customer needs.</p><p>This step features several advantages including prime location, modern designs, and competitive prices.</p>"
      },
      "excerpt": {
        "ar": "أعلنت شركة نيو سيتي عن توسعات جديدة لشركة نيو سيتي في إطار استراتيجية التوسع...",
        "en": "New City announced New City Announces Expansion as part of expansion strategy..."
      },
      "image": "/uploads/1766644392682-47488809-ee00-4602-a91f-846ed94e7627.jpg",
      "category": "company",
      "status": "published",
      "createdAt": "2025-12-27T03:44:54.068Z",
      "createdBy": "admin-001",
      "updatedAt": "2025-12-27T03:44:54.068Z"
    },
    {
      "id": "news-0072",
      "title": {
        "ar": "افتتاح مرحلة جديدة في مشروع 6 أكتوبر 72",
        "en": "Opening of New Phase in Project 6th of October 72"
      },
      "content": {
        "ar": "<p>في خطوة جديدة تؤكد ريادة نيو سيتي في سوق العقارات المصري، أعلنت الشركة عن افتتاح مرحلة جديدة في مشروع.</p><p>يأتي هذا في إطار استراتيجية الشركة للتوسع وتلبية احتياجات العملاء المتزايدة.</p><p>تتميز هذه الخطوة بعدة مزايا تشمل الموقع المتميز والتصاميم العصرية والأسعار التنافسية.</p>",
        "en": "<p>In a new step confirming New City's leadership in the Egyptian real estate market, the company announced Opening of New Phase in Project.</p><p>This comes as part of the company's strategy to expand and meet growing customer needs.</p><p>This step features several advantages including prime location, modern designs, and competitive prices.</p>"
      },
      "excerpt": {
        "ar": "أعلنت شركة نيو سيتي عن افتتاح مرحلة جديدة في مشروع في إطار استراتيجية التوسع...",
        "en": "New City announced Opening of New Phase in Project as part of expansion strategy..."
      },
      "image": "/uploads/1766635934210-e6c031d1-fd60-4894-9a7d-083aa9b76af3.jpg",
      "category": "projects",
      "status": "published",
      "createdAt": "2025-12-27T03:44:54.071Z",
      "createdBy": "admin-001",
      "updatedAt": "2025-12-27T03:44:54.071Z"
    },
    {
      "id": "news-0073",
      "title": {
        "ar": "نيو سيتي تحقق رقماً قياسياً في المبيعات الشيخ زايد 73",
        "en": "New City Achieves Record Sales Sheikh Zayed 73"
      },
      "content": {
        "ar": "<p>في خطوة جديدة تؤكد ريادة نيو سيتي في سوق العقارات المصري، أعلنت الشركة عن نيو سيتي تحقق رقماً قياسياً في المبيعات.</p><p>يأتي هذا في إطار استراتيجية الشركة للتوسع وتلبية احتياجات العملاء المتزايدة.</p><p>تتميز هذه الخطوة بعدة مزايا تشمل الموقع المتميز والتصاميم العصرية والأسعار التنافسية.</p>",
        "en": "<p>In a new step confirming New City's leadership in the Egyptian real estate market, the company announced New City Achieves Record Sales.</p><p>This comes as part of the company's strategy to expand and meet growing customer needs.</p><p>This step features several advantages including prime location, modern designs, and competitive prices.</p>"
      },
      "excerpt": {
        "ar": "أعلنت شركة نيو سيتي عن نيو سيتي تحقق رقماً قياسياً في المبيعات في إطار استراتيجية التوسع...",
        "en": "New City announced New City Achieves Record Sales as part of expansion strategy..."
      },
      "image": "/uploads/1766635934210-e6c031d1-fd60-4894-9a7d-083aa9b76af3.jpg",
      "category": "company",
      "status": "published",
      "createdAt": "2025-12-27T03:44:54.074Z",
      "createdBy": "admin-001",
      "updatedAt": "2025-12-27T03:44:54.074Z"
    },
    {
      "id": "news-0074",
      "title": {
        "ar": "كيف تختار الوحدة المناسبة لك جولف بورتو مارينا 74",
        "en": "How to Choose the Right Unit for You Golf Porto Marina 74"
      },
      "content": {
        "ar": "<p>في خطوة جديدة تؤكد ريادة نيو سيتي في سوق العقارات المصري، أعلنت الشركة عن كيف تختار الوحدة المناسبة لك.</p><p>يأتي هذا في إطار استراتيجية الشركة للتوسع وتلبية احتياجات العملاء المتزايدة.</p><p>تتميز هذه الخطوة بعدة مزايا تشمل الموقع المتميز والتصاميم العصرية والأسعار التنافسية.</p>",
        "en": "<p>In a new step confirming New City's leadership in the Egyptian real estate market, the company announced How to Choose the Right Unit for You.</p><p>This comes as part of the company's strategy to expand and meet growing customer needs.</p><p>This step features several advantages including prime location, modern designs, and competitive prices.</p>"
      },
      "excerpt": {
        "ar": "أعلنت شركة نيو سيتي عن كيف تختار الوحدة المناسبة لك في إطار استراتيجية التوسع...",
        "en": "New City announced How to Choose the Right Unit for You as part of expansion strategy..."
      },
      "image": "/uploads/1766644392682-47488809-ee00-4602-a91f-846ed94e7627.jpg",
      "category": "tips",
      "status": "published",
      "createdAt": "2025-12-27T03:44:54.078Z",
      "createdBy": "admin-001",
      "updatedAt": "2025-12-27T03:44:54.078Z"
    },
    {
      "id": "news-0075",
      "title": {
        "ar": "توسعات جديدة لشركة نيو سيتي الشيخ زايد 75",
        "en": "New City Announces Expansion Sheikh Zayed 75"
      },
      "content": {
        "ar": "<p>في خطوة جديدة تؤكد ريادة نيو سيتي في سوق العقارات المصري، أعلنت الشركة عن توسعات جديدة لشركة نيو سيتي.</p><p>يأتي هذا في إطار استراتيجية الشركة للتوسع وتلبية احتياجات العملاء المتزايدة.</p><p>تتميز هذه الخطوة بعدة مزايا تشمل الموقع المتميز والتصاميم العصرية والأسعار التنافسية.</p>",
        "en": "<p>In a new step confirming New City's leadership in the Egyptian real estate market, the company announced New City Announces Expansion.</p><p>This comes as part of the company's strategy to expand and meet growing customer needs.</p><p>This step features several advantages including prime location, modern designs, and competitive prices.</p>"
      },
      "excerpt": {
        "ar": "أعلنت شركة نيو سيتي عن توسعات جديدة لشركة نيو سيتي في إطار استراتيجية التوسع...",
        "en": "New City announced New City Announces Expansion as part of expansion strategy..."
      },
      "image": "/uploads/1766635937611-ba380479-d149-4335-a299-bb48282ccfd5.jpg",
      "category": "company",
      "status": "published",
      "createdAt": "2025-12-27T03:44:54.081Z",
      "createdBy": "admin-001",
      "updatedAt": "2025-12-27T03:44:54.081Z"
    },
    {
      "id": "news-0076",
      "title": {
        "ar": "شراكة استراتيجية جديدة الشيخ زايد 76",
        "en": "New Strategic Partnership Sheikh Zayed 76"
      },
      "content": {
        "ar": "<p>في خطوة جديدة تؤكد ريادة نيو سيتي في سوق العقارات المصري، أعلنت الشركة عن شراكة استراتيجية جديدة.</p><p>يأتي هذا في إطار استراتيجية الشركة للتوسع وتلبية احتياجات العملاء المتزايدة.</p><p>تتميز هذه الخطوة بعدة مزايا تشمل الموقع المتميز والتصاميم العصرية والأسعار التنافسية.</p>",
        "en": "<p>In a new step confirming New City's leadership in the Egyptian real estate market, the company announced New Strategic Partnership.</p><p>This comes as part of the company's strategy to expand and meet growing customer needs.</p><p>This step features several advantages including prime location, modern designs, and competitive prices.</p>"
      },
      "excerpt": {
        "ar": "أعلنت شركة نيو سيتي عن شراكة استراتيجية جديدة في إطار استراتيجية التوسع...",
        "en": "New City announced New Strategic Partnership as part of expansion strategy..."
      },
      "image": "/uploads/1766644120503-b8a5285f-a6a2-47a5-832e-6c2ea840abef.jpg",
      "category": "company",
      "status": "published",
      "createdAt": "2025-12-27T03:44:54.085Z",
      "createdBy": "admin-001",
      "updatedAt": "2025-12-27T03:44:54.085Z"
    },
    {
      "id": "news-0077",
      "title": {
        "ar": "أفضل المناطق للاستثمار العقاري العين السخنة 77",
        "en": "Best Areas for Real Estate Investment Ain Sokhna 77"
      },
      "content": {
        "ar": "<p>في خطوة جديدة تؤكد ريادة نيو سيتي في سوق العقارات المصري، أعلنت الشركة عن أفضل المناطق للاستثمار العقاري.</p><p>يأتي هذا في إطار استراتيجية الشركة للتوسع وتلبية احتياجات العملاء المتزايدة.</p><p>تتميز هذه الخطوة بعدة مزايا تشمل الموقع المتميز والتصاميم العصرية والأسعار التنافسية.</p>",
        "en": "<p>In a new step confirming New City's leadership in the Egyptian real estate market, the company announced Best Areas for Real Estate Investment.</p><p>This comes as part of the company's strategy to expand and meet growing customer needs.</p><p>This step features several advantages including prime location, modern designs, and competitive prices.</p>"
      },
      "excerpt": {
        "ar": "أعلنت شركة نيو سيتي عن أفضل المناطق للاستثمار العقاري في إطار استراتيجية التوسع...",
        "en": "New City announced Best Areas for Real Estate Investment as part of expansion strategy..."
      },
      "image": "/uploads/1766797522158-3deae7a4-55db-4429-a74d-f12ab9c2a324.jpg",
      "category": "market",
      "status": "published",
      "createdAt": "2025-12-27T03:44:54.089Z",
      "createdBy": "admin-001",
      "updatedAt": "2025-12-27T03:44:54.089Z"
    },
    {
      "id": "news-0078",
      "title": {
        "ar": "تحليل سوق العقارات المصري الشيخ زايد 78",
        "en": "Egyptian Real Estate Market Analysis Sheikh Zayed 78"
      },
      "content": {
        "ar": "<p>في خطوة جديدة تؤكد ريادة نيو سيتي في سوق العقارات المصري، أعلنت الشركة عن تحليل سوق العقارات المصري.</p><p>يأتي هذا في إطار استراتيجية الشركة للتوسع وتلبية احتياجات العملاء المتزايدة.</p><p>تتميز هذه الخطوة بعدة مزايا تشمل الموقع المتميز والتصاميم العصرية والأسعار التنافسية.</p>",
        "en": "<p>In a new step confirming New City's leadership in the Egyptian real estate market, the company announced Egyptian Real Estate Market Analysis.</p><p>This comes as part of the company's strategy to expand and meet growing customer needs.</p><p>This step features several advantages including prime location, modern designs, and competitive prices.</p>"
      },
      "excerpt": {
        "ar": "أعلنت شركة نيو سيتي عن تحليل سوق العقارات المصري في إطار استراتيجية التوسع...",
        "en": "New City announced Egyptian Real Estate Market Analysis as part of expansion strategy..."
      },
      "image": "/uploads/1766635937611-ba380479-d149-4335-a299-bb48282ccfd5.jpg",
      "category": "market",
      "status": "published",
      "createdAt": "2025-12-27T03:44:54.093Z",
      "createdBy": "admin-001",
      "updatedAt": "2025-12-27T03:44:54.093Z"
    }
  ],
  "total": 102,
  "page": 4,
  "limit": 20,
  "totalPages": 6,
  "hasNext": true,
  "hasPrev": true,
  "generatedAt": "2025-12-27T22:58:13.643Z"
}