{
  "data": [
    {
      "id": "news-0079",
      "title": {
        "ar": "توسعات جديدة لشركة نيو سيتي العاصمة الإدارية 79",
        "en": "New City Announces Expansion New Capital 79"
      },
      "content": {
        "ar": "<p>في خطوة جديدة تؤكد ريادة نيو سيتي في سوق العقارات المصري، أعلنت الشركة عن توسعات جديدة لشركة نيو سيتي.</p><p>يأتي هذا في إطار استراتيجية الشركة للتوسع وتلبية احتياجات العملاء المتزايدة.</p><p>تتميز هذه الخطوة بعدة مزايا تشمل الموقع المتميز والتصاميم العصرية والأسعار التنافسية.</p>",
        "en": "<p>In a new step confirming New City's leadership in the Egyptian real estate market, the company announced New City Announces Expansion.</p><p>This comes as part of the company's strategy to expand and meet growing customer needs.</p><p>This step features several advantages including prime location, modern designs, and competitive prices.</p>"
      },
      "excerpt": {
        "ar": "أعلنت شركة نيو سيتي عن توسعات جديدة لشركة نيو سيتي في إطار استراتيجية التوسع...",
        "en": "New City announced New City Announces Expansion as part of expansion strategy..."
      },
      "image": "/uploads/1766644392682-47488809-ee00-4602-a91f-846ed94e7627.jpg",
      "category": "company",
      "status": "published",
      "createdAt": "2025-12-27T03:44:54.097Z",
      "createdBy": "admin-001",
      "updatedAt": "2025-12-27T03:44:54.097Z"
    },
    {
      "id": "news-0080",
      "title": {
        "ar": "شراكة استراتيجية جديدة المعادي 80",
        "en": "New Strategic Partnership Maadi 80"
      },
      "content": {
        "ar": "<p>في خطوة جديدة تؤكد ريادة نيو سيتي في سوق العقارات المصري، أعلنت الشركة عن شراكة استراتيجية جديدة.</p><p>يأتي هذا في إطار استراتيجية الشركة للتوسع وتلبية احتياجات العملاء المتزايدة.</p><p>تتميز هذه الخطوة بعدة مزايا تشمل الموقع المتميز والتصاميم العصرية والأسعار التنافسية.</p>",
        "en": "<p>In a new step confirming New City's leadership in the Egyptian real estate market, the company announced New Strategic Partnership.</p><p>This comes as part of the company's strategy to expand and meet growing customer needs.</p><p>This step features several advantages including prime location, modern designs, and competitive prices.</p>"
      },
      "excerpt": {
        "ar": "أعلنت شركة نيو سيتي عن شراكة استراتيجية جديدة في إطار استراتيجية التوسع...",
        "en": "New City announced New Strategic Partnership as part of expansion strategy..."
      },
      "image": "/uploads/1766644120512-c9feca98-1331-4f41-bf53-a3825cddbb50.jpg",
      "category": "company",
      "status": "published",
      "createdAt": "2025-12-27T03:44:54.101Z",
      "createdBy": "admin-001",
      "updatedAt": "2025-12-27T03:44:54.101Z"
    },
    {
      "id": "news-0081",
      "title": {
        "ar": "إطلاق مشروع سكني جديد في مدينتي 81",
        "en": "Launch of New Residential Project in Madinaty 81"
      },
      "content": {
        "ar": "<p>في خطوة جديدة تؤكد ريادة نيو سيتي في سوق العقارات المصري، أعلنت الشركة عن إطلاق مشروع سكني جديد في.</p><p>يأتي هذا في إطار استراتيجية الشركة للتوسع وتلبية احتياجات العملاء المتزايدة.</p><p>تتميز هذه الخطوة بعدة مزايا تشمل الموقع المتميز والتصاميم العصرية والأسعار التنافسية.</p>",
        "en": "<p>In a new step confirming New City's leadership in the Egyptian real estate market, the company announced Launch of New Residential Project in.</p><p>This comes as part of the company's strategy to expand and meet growing customer needs.</p><p>This step features several advantages including prime location, modern designs, and competitive prices.</p>"
      },
      "excerpt": {
        "ar": "أعلنت شركة نيو سيتي عن إطلاق مشروع سكني جديد في في إطار استراتيجية التوسع...",
        "en": "New City announced Launch of New Residential Project in as part of expansion strategy..."
      },
      "image": "/uploads/1766797503773-92c16a72-4bf7-4a70-88f6-21abc9415855.jpg",
      "category": "projects",
      "status": "published",
      "createdAt": "2025-12-27T03:44:54.106Z",
      "createdBy": "admin-001",
      "updatedAt": "2025-12-27T03:44:54.106Z"
    },
    {
      "id": "news-0082",
      "title": {
        "ar": "معرض العقارات السنوي المعادي 82",
        "en": "Annual Real Estate Exhibition Maadi 82"
      },
      "content": {
        "ar": "<p>في خطوة جديدة تؤكد ريادة نيو سيتي في سوق العقارات المصري، أعلنت الشركة عن معرض العقارات السنوي.</p><p>يأتي هذا في إطار استراتيجية الشركة للتوسع وتلبية احتياجات العملاء المتزايدة.</p><p>تتميز هذه الخطوة بعدة مزايا تشمل الموقع المتميز والتصاميم العصرية والأسعار التنافسية.</p>",
        "en": "<p>In a new step confirming New City's leadership in the Egyptian real estate market, the company announced Annual Real Estate Exhibition.</p><p>This comes as part of the company's strategy to expand and meet growing customer needs.</p><p>This step features several advantages including prime location, modern designs, and competitive prices.</p>"
      },
      "excerpt": {
        "ar": "أعلنت شركة نيو سيتي عن معرض العقارات السنوي في إطار استراتيجية التوسع...",
        "en": "New City announced Annual Real Estate Exhibition as part of expansion strategy..."
      },
      "image": "/uploads/1766644120503-b8a5285f-a6a2-47a5-832e-6c2ea840abef.jpg",
      "category": "events",
      "status": "published",
      "createdAt": "2025-12-27T03:44:54.110Z",
      "createdBy": "admin-001",
      "updatedAt": "2025-12-27T03:44:54.110Z"
    },
    {
      "id": "news-0083",
      "title": {
        "ar": "تسليم وحدات المرحلة الأولى من الشيخ زايد 83",
        "en": "Delivery of Phase One Units in Sheikh Zayed 83"
      },
      "content": {
        "ar": "<p>في خطوة جديدة تؤكد ريادة نيو سيتي في سوق العقارات المصري، أعلنت الشركة عن تسليم وحدات المرحلة الأولى من.</p><p>يأتي هذا في إطار استراتيجية الشركة للتوسع وتلبية احتياجات العملاء المتزايدة.</p><p>تتميز هذه الخطوة بعدة مزايا تشمل الموقع المتميز والتصاميم العصرية والأسعار التنافسية.</p>",
        "en": "<p>In a new step confirming New City's leadership in the Egyptian real estate market, the company announced Delivery of Phase One Units in.</p><p>This comes as part of the company's strategy to expand and meet growing customer needs.</p><p>This step features several advantages including prime location, modern designs, and competitive prices.</p>"
      },
      "excerpt": {
        "ar": "أعلنت شركة نيو سيتي عن تسليم وحدات المرحلة الأولى من في إطار استراتيجية التوسع...",
        "en": "New City announced Delivery of Phase One Units in as part of expansion strategy..."
      },
      "image": "/uploads/1766644392681-f8b78712-22c1-4daf-b8c6-353bcb2651d1.jpg",
      "category": "projects",
      "status": "published",
      "createdAt": "2025-12-27T03:44:54.115Z",
      "createdBy": "admin-001",
      "updatedAt": "2025-12-27T03:44:54.115Z"
    },
    {
      "id": "news-0084",
      "title": {
        "ar": "تسليم وحدات المرحلة الأولى من مدينتي 84",
        "en": "Delivery of Phase One Units in Madinaty 84"
      },
      "content": {
        "ar": "<p>في خطوة جديدة تؤكد ريادة نيو سيتي في سوق العقارات المصري، أعلنت الشركة عن تسليم وحدات المرحلة الأولى من.</p><p>يأتي هذا في إطار استراتيجية الشركة للتوسع وتلبية احتياجات العملاء المتزايدة.</p><p>تتميز هذه الخطوة بعدة مزايا تشمل الموقع المتميز والتصاميم العصرية والأسعار التنافسية.</p>",
        "en": "<p>In a new step confirming New City's leadership in the Egyptian real estate market, the company announced Delivery of Phase One Units in.</p><p>This comes as part of the company's strategy to expand and meet growing customer needs.</p><p>This step features several advantages including prime location, modern designs, and competitive prices.</p>"
      },
      "excerpt": {
        "ar": "أعلنت شركة نيو سيتي عن تسليم وحدات المرحلة الأولى من في إطار استراتيجية التوسع...",
        "en": "New City announced Delivery of Phase One Units in as part of expansion strategy..."
      },
      "image": "/uploads/1766644120503-b8a5285f-a6a2-47a5-832e-6c2ea840abef.jpg",
      "category": "projects",
      "status": "published",
      "createdAt": "2025-12-27T03:44:54.119Z",
      "createdBy": "admin-001",
      "updatedAt": "2025-12-27T03:44:54.119Z"
    },
    {
      "id": "news-0085",
      "title": {
        "ar": "فعالية حصرية للعملاء الشيخ زايد 85",
        "en": "Exclusive Client Event Sheikh Zayed 85"
      },
      "content": {
        "ar": "<p>في خطوة جديدة تؤكد ريادة نيو سيتي في سوق العقارات المصري، أعلنت الشركة عن فعالية حصرية للعملاء.</p><p>يأتي هذا في إطار استراتيجية الشركة للتوسع وتلبية احتياجات العملاء المتزايدة.</p><p>تتميز هذه الخطوة بعدة مزايا تشمل الموقع المتميز والتصاميم العصرية والأسعار التنافسية.</p>",
        "en": "<p>In a new step confirming New City's leadership in the Egyptian real estate market, the company announced Exclusive Client Event.</p><p>This comes as part of the company's strategy to expand and meet growing customer needs.</p><p>This step features several advantages including prime location, modern designs, and competitive prices.</p>"
      },
      "excerpt": {
        "ar": "أعلنت شركة نيو سيتي عن فعالية حصرية للعملاء في إطار استراتيجية التوسع...",
        "en": "New City announced Exclusive Client Event as part of expansion strategy..."
      },
      "image": "/uploads/1766644120503-b8a5285f-a6a2-47a5-832e-6c2ea840abef.jpg",
      "category": "events",
      "status": "published",
      "createdAt": "2025-12-27T03:44:54.123Z",
      "createdBy": "admin-001",
      "updatedAt": "2025-12-27T03:44:54.123Z"
    },
    {
      "id": "news-0086",
      "title": {
        "ar": "توقعات أسعار العقارات لعام العاصمة الإدارية 86",
        "en": "Property Price Predictions for Year New Capital 86"
      },
      "content": {
        "ar": "<p>في خطوة جديدة تؤكد ريادة نيو سيتي في سوق العقارات المصري، أعلنت الشركة عن توقعات أسعار العقارات لعام.</p><p>يأتي هذا في إطار استراتيجية الشركة للتوسع وتلبية احتياجات العملاء المتزايدة.</p><p>تتميز هذه الخطوة بعدة مزايا تشمل الموقع المتميز والتصاميم العصرية والأسعار التنافسية.</p>",
        "en": "<p>In a new step confirming New City's leadership in the Egyptian real estate market, the company announced Property Price Predictions for Year.</p><p>This comes as part of the company's strategy to expand and meet growing customer needs.</p><p>This step features several advantages including prime location, modern designs, and competitive prices.</p>"
      },
      "excerpt": {
        "ar": "أعلنت شركة نيو سيتي عن توقعات أسعار العقارات لعام في إطار استراتيجية التوسع...",
        "en": "New City announced Property Price Predictions for Year as part of expansion strategy..."
      },
      "image": "/uploads/1766591416272-7fe0dc19-e41e-4e0a-8f71-03f2430ee559.jpg",
      "category": "market",
      "status": "published",
      "createdAt": "2025-12-27T03:44:54.127Z",
      "createdBy": "admin-001",
      "updatedAt": "2025-12-27T03:44:54.127Z"
    },
    {
      "id": "news-0087",
      "title": {
        "ar": "إطلاق مشروع سكني جديد في العين السخنة 87",
        "en": "Launch of New Residential Project in Ain Sokhna 87"
      },
      "content": {
        "ar": "<p>في خطوة جديدة تؤكد ريادة نيو سيتي في سوق العقارات المصري، أعلنت الشركة عن إطلاق مشروع سكني جديد في.</p><p>يأتي هذا في إطار استراتيجية الشركة للتوسع وتلبية احتياجات العملاء المتزايدة.</p><p>تتميز هذه الخطوة بعدة مزايا تشمل الموقع المتميز والتصاميم العصرية والأسعار التنافسية.</p>",
        "en": "<p>In a new step confirming New City's leadership in the Egyptian real estate market, the company announced Launch of New Residential Project in.</p><p>This comes as part of the company's strategy to expand and meet growing customer needs.</p><p>This step features several advantages including prime location, modern designs, and competitive prices.</p>"
      },
      "excerpt": {
        "ar": "أعلنت شركة نيو سيتي عن إطلاق مشروع سكني جديد في في إطار استراتيجية التوسع...",
        "en": "New City announced Launch of New Residential Project in as part of expansion strategy..."
      },
      "image": "/uploads/1766644120510-25bcff8c-5212-43a2-b5e2-12fc8a3cf794.jpg",
      "category": "projects",
      "status": "published",
      "createdAt": "2025-12-27T03:44:54.135Z",
      "createdBy": "admin-001",
      "updatedAt": "2025-12-27T03:44:54.135Z"
    },
    {
      "id": "news-0088",
      "title": {
        "ar": "أفضل المناطق للاستثمار العقاري 6 أكتوبر 88",
        "en": "Best Areas for Real Estate Investment 6th of October 88"
      },
      "content": {
        "ar": "<p>في خطوة جديدة تؤكد ريادة نيو سيتي في سوق العقارات المصري، أعلنت الشركة عن أفضل المناطق للاستثمار العقاري.</p><p>يأتي هذا في إطار استراتيجية الشركة للتوسع وتلبية احتياجات العملاء المتزايدة.</p><p>تتميز هذه الخطوة بعدة مزايا تشمل الموقع المتميز والتصاميم العصرية والأسعار التنافسية.</p>",
        "en": "<p>In a new step confirming New City's leadership in the Egyptian real estate market, the company announced Best Areas for Real Estate Investment.</p><p>This comes as part of the company's strategy to expand and meet growing customer needs.</p><p>This step features several advantages including prime location, modern designs, and competitive prices.</p>"
      },
      "excerpt": {
        "ar": "أعلنت شركة نيو سيتي عن أفضل المناطق للاستثمار العقاري في إطار استراتيجية التوسع...",
        "en": "New City announced Best Areas for Real Estate Investment as part of expansion strategy..."
      },
      "image": "/uploads/1766591419114-f09f133e-69aa-4e30-8fcd-8211d1567dd1.jpg",
      "category": "market",
      "status": "published",
      "createdAt": "2025-12-27T03:44:54.139Z",
      "createdBy": "admin-001",
      "updatedAt": "2025-12-27T03:44:54.139Z"
    },
    {
      "id": "news-0089",
      "title": {
        "ar": "تسليم وحدات المرحلة الأولى من مدينتي 89",
        "en": "Delivery of Phase One Units in Madinaty 89"
      },
      "content": {
        "ar": "<p>في خطوة جديدة تؤكد ريادة نيو سيتي في سوق العقارات المصري، أعلنت الشركة عن تسليم وحدات المرحلة الأولى من.</p><p>يأتي هذا في إطار استراتيجية الشركة للتوسع وتلبية احتياجات العملاء المتزايدة.</p><p>تتميز هذه الخطوة بعدة مزايا تشمل الموقع المتميز والتصاميم العصرية والأسعار التنافسية.</p>",
        "en": "<p>In a new step confirming New City's leadership in the Egyptian real estate market, the company announced Delivery of Phase One Units in.</p><p>This comes as part of the company's strategy to expand and meet growing customer needs.</p><p>This step features several advantages including prime location, modern designs, and competitive prices.</p>"
      },
      "excerpt": {
        "ar": "أعلنت شركة نيو سيتي عن تسليم وحدات المرحلة الأولى من في إطار استراتيجية التوسع...",
        "en": "New City announced Delivery of Phase One Units in as part of expansion strategy..."
      },
      "image": "/uploads/1766644120512-c9feca98-1331-4f41-bf53-a3825cddbb50.jpg",
      "category": "projects",
      "status": "published",
      "createdAt": "2025-12-27T03:44:54.144Z",
      "createdBy": "admin-001",
      "updatedAt": "2025-12-27T03:44:54.144Z"
    },
    {
      "id": "news-0090",
      "title": {
        "ar": "شراكة استراتيجية جديدة مدينتي 90",
        "en": "New Strategic Partnership Madinaty 90"
      },
      "content": {
        "ar": "<p>في خطوة جديدة تؤكد ريادة نيو سيتي في سوق العقارات المصري، أعلنت الشركة عن شراكة استراتيجية جديدة.</p><p>يأتي هذا في إطار استراتيجية الشركة للتوسع وتلبية احتياجات العملاء المتزايدة.</p><p>تتميز هذه الخطوة بعدة مزايا تشمل الموقع المتميز والتصاميم العصرية والأسعار التنافسية.</p>",
        "en": "<p>In a new step confirming New City's leadership in the Egyptian real estate market, the company announced New Strategic Partnership.</p><p>This comes as part of the company's strategy to expand and meet growing customer needs.</p><p>This step features several advantages including prime location, modern designs, and competitive prices.</p>"
      },
      "excerpt": {
        "ar": "أعلنت شركة نيو سيتي عن شراكة استراتيجية جديدة في إطار استراتيجية التوسع...",
        "en": "New City announced New Strategic Partnership as part of expansion strategy..."
      },
      "image": "/uploads/1766644392681-f8b78712-22c1-4daf-b8c6-353bcb2651d1.jpg",
      "category": "company",
      "status": "published",
      "createdAt": "2025-12-27T03:44:54.148Z",
      "createdBy": "admin-001",
      "updatedAt": "2025-12-27T03:44:54.148Z"
    },
    {
      "id": "news-0091",
      "title": {
        "ar": "توقعات أسعار العقارات لعام المعادي 91",
        "en": "Property Price Predictions for Year Maadi 91"
      },
      "content": {
        "ar": "<p>في خطوة جديدة تؤكد ريادة نيو سيتي في سوق العقارات المصري، أعلنت الشركة عن توقعات أسعار العقارات لعام.</p><p>يأتي هذا في إطار استراتيجية الشركة للتوسع وتلبية احتياجات العملاء المتزايدة.</p><p>تتميز هذه الخطوة بعدة مزايا تشمل الموقع المتميز والتصاميم العصرية والأسعار التنافسية.</p>",
        "en": "<p>In a new step confirming New City's leadership in the Egyptian real estate market, the company announced Property Price Predictions for Year.</p><p>This comes as part of the company's strategy to expand and meet growing customer needs.</p><p>This step features several advantages including prime location, modern designs, and competitive prices.</p>"
      },
      "excerpt": {
        "ar": "أعلنت شركة نيو سيتي عن توقعات أسعار العقارات لعام في إطار استراتيجية التوسع...",
        "en": "New City announced Property Price Predictions for Year as part of expansion strategy..."
      },
      "image": "/uploads/1766635934210-e6c031d1-fd60-4894-9a7d-083aa9b76af3.jpg",
      "category": "market",
      "status": "published",
      "createdAt": "2025-12-27T03:44:54.153Z",
      "createdBy": "admin-001",
      "updatedAt": "2025-12-27T03:44:54.153Z"
    },
    {
      "id": "news-0092",
      "title": {
        "ar": "معرض العقارات السنوي مدينتي 92",
        "en": "Annual Real Estate Exhibition Madinaty 92"
      },
      "content": {
        "ar": "<p>في خطوة جديدة تؤكد ريادة نيو سيتي في سوق العقارات المصري، أعلنت الشركة عن معرض العقارات السنوي.</p><p>يأتي هذا في إطار استراتيجية الشركة للتوسع وتلبية احتياجات العملاء المتزايدة.</p><p>تتميز هذه الخطوة بعدة مزايا تشمل الموقع المتميز والتصاميم العصرية والأسعار التنافسية.</p>",
        "en": "<p>In a new step confirming New City's leadership in the Egyptian real estate market, the company announced Annual Real Estate Exhibition.</p><p>This comes as part of the company's strategy to expand and meet growing customer needs.</p><p>This step features several advantages including prime location, modern designs, and competitive prices.</p>"
      },
      "excerpt": {
        "ar": "أعلنت شركة نيو سيتي عن معرض العقارات السنوي في إطار استراتيجية التوسع...",
        "en": "New City announced Annual Real Estate Exhibition as part of expansion strategy..."
      },
      "image": "/uploads/1766797503773-92c16a72-4bf7-4a70-88f6-21abc9415855.jpg",
      "category": "events",
      "status": "published",
      "createdAt": "2025-12-27T03:44:54.158Z",
      "createdBy": "admin-001",
      "updatedAt": "2025-12-27T03:44:54.158Z"
    },
    {
      "id": "news-0093",
      "title": {
        "ar": "افتتاح مرحلة جديدة في مشروع المعادي 93",
        "en": "Opening of New Phase in Project Maadi 93"
      },
      "content": {
        "ar": "<p>في خطوة جديدة تؤكد ريادة نيو سيتي في سوق العقارات المصري، أعلنت الشركة عن افتتاح مرحلة جديدة في مشروع.</p><p>يأتي هذا في إطار استراتيجية الشركة للتوسع وتلبية احتياجات العملاء المتزايدة.</p><p>تتميز هذه الخطوة بعدة مزايا تشمل الموقع المتميز والتصاميم العصرية والأسعار التنافسية.</p>",
        "en": "<p>In a new step confirming New City's leadership in the Egyptian real estate market, the company announced Opening of New Phase in Project.</p><p>This comes as part of the company's strategy to expand and meet growing customer needs.</p><p>This step features several advantages including prime location, modern designs, and competitive prices.</p>"
      },
      "excerpt": {
        "ar": "أعلنت شركة نيو سيتي عن افتتاح مرحلة جديدة في مشروع في إطار استراتيجية التوسع...",
        "en": "New City announced Opening of New Phase in Project as part of expansion strategy..."
      },
      "image": "/uploads/1766644392683-f80be205-732f-4692-b953-5db73e48a436.jpg",
      "category": "projects",
      "status": "published",
      "createdAt": "2025-12-27T03:44:54.163Z",
      "createdBy": "admin-001",
      "updatedAt": "2025-12-27T03:44:54.163Z"
    },
    {
      "id": "news-0094",
      "title": {
        "ar": "نصائح لشراء عقار استثماري ناجح التجمع الخامس 94",
        "en": "Tips for Buying a Successful Investment Property Fifth Settlement 94"
      },
      "content": {
        "ar": "<p>في خطوة جديدة تؤكد ريادة نيو سيتي في سوق العقارات المصري، أعلنت الشركة عن نصائح لشراء عقار استثماري ناجح.</p><p>يأتي هذا في إطار استراتيجية الشركة للتوسع وتلبية احتياجات العملاء المتزايدة.</p><p>تتميز هذه الخطوة بعدة مزايا تشمل الموقع المتميز والتصاميم العصرية والأسعار التنافسية.</p>",
        "en": "<p>In a new step confirming New City's leadership in the Egyptian real estate market, the company announced Tips for Buying a Successful Investment Property.</p><p>This comes as part of the company's strategy to expand and meet growing customer needs.</p><p>This step features several advantages including prime location, modern designs, and competitive prices.</p>"
      },
      "excerpt": {
        "ar": "أعلنت شركة نيو سيتي عن نصائح لشراء عقار استثماري ناجح في إطار استراتيجية التوسع...",
        "en": "New City announced Tips for Buying a Successful Investment Property as part of expansion strategy..."
      },
      "image": "/uploads/1766590847252-c1151886-0163-48e7-abe1-4dea0f2f3b68.jpg",
      "category": "tips",
      "status": "published",
      "createdAt": "2025-12-27T03:44:54.168Z",
      "createdBy": "admin-001",
      "updatedAt": "2025-12-27T03:44:54.168Z"
    },
    {
      "id": "news-0095",
      "title": {
        "ar": "معرض العقارات السنوي الساحل الشمالي 95",
        "en": "Annual Real Estate Exhibition North Coast 95"
      },
      "content": {
        "ar": "<p>في خطوة جديدة تؤكد ريادة نيو سيتي في سوق العقارات المصري، أعلنت الشركة عن معرض العقارات السنوي.</p><p>يأتي هذا في إطار استراتيجية الشركة للتوسع وتلبية احتياجات العملاء المتزايدة.</p><p>تتميز هذه الخطوة بعدة مزايا تشمل الموقع المتميز والتصاميم العصرية والأسعار التنافسية.</p>",
        "en": "<p>In a new step confirming New City's leadership in the Egyptian real estate market, the company announced Annual Real Estate Exhibition.</p><p>This comes as part of the company's strategy to expand and meet growing customer needs.</p><p>This step features several advantages including prime location, modern designs, and competitive prices.</p>"
      },
      "excerpt": {
        "ar": "أعلنت شركة نيو سيتي عن معرض العقارات السنوي في إطار استراتيجية التوسع...",
        "en": "New City announced Annual Real Estate Exhibition as part of expansion strategy..."
      },
      "image": "/uploads/1766797522158-3deae7a4-55db-4429-a74d-f12ab9c2a324.jpg",
      "category": "events",
      "status": "published",
      "createdAt": "2025-12-27T03:44:54.172Z",
      "createdBy": "admin-001",
      "updatedAt": "2025-12-27T03:44:54.172Z"
    },
    {
      "id": "news-0096",
      "title": {
        "ar": "إطلاق مشروع سكني جديد في العين السخنة 96",
        "en": "Launch of New Residential Project in Ain Sokhna 96"
      },
      "content": {
        "ar": "<p>في خطوة جديدة تؤكد ريادة نيو سيتي في سوق العقارات المصري، أعلنت الشركة عن إطلاق مشروع سكني جديد في.</p><p>يأتي هذا في إطار استراتيجية الشركة للتوسع وتلبية احتياجات العملاء المتزايدة.</p><p>تتميز هذه الخطوة بعدة مزايا تشمل الموقع المتميز والتصاميم العصرية والأسعار التنافسية.</p>",
        "en": "<p>In a new step confirming New City's leadership in the Egyptian real estate market, the company announced Launch of New Residential Project in.</p><p>This comes as part of the company's strategy to expand and meet growing customer needs.</p><p>This step features several advantages including prime location, modern designs, and competitive prices.</p>"
      },
      "excerpt": {
        "ar": "أعلنت شركة نيو سيتي عن إطلاق مشروع سكني جديد في في إطار استراتيجية التوسع...",
        "en": "New City announced Launch of New Residential Project in as part of expansion strategy..."
      },
      "image": "/uploads/1766644392683-f80be205-732f-4692-b953-5db73e48a436.jpg",
      "category": "projects",
      "status": "published",
      "createdAt": "2025-12-27T03:44:54.177Z",
      "createdBy": "admin-001",
      "updatedAt": "2025-12-27T03:44:54.177Z"
    },
    {
      "id": "news-0097",
      "title": {
        "ar": "نصائح لشراء عقار استثماري ناجح مدينتي 97",
        "en": "Tips for Buying a Successful Investment Property Madinaty 97"
      },
      "content": {
        "ar": "<p>في خطوة جديدة تؤكد ريادة نيو سيتي في سوق العقارات المصري، أعلنت الشركة عن نصائح لشراء عقار استثماري ناجح.</p><p>يأتي هذا في إطار استراتيجية الشركة للتوسع وتلبية احتياجات العملاء المتزايدة.</p><p>تتميز هذه الخطوة بعدة مزايا تشمل الموقع المتميز والتصاميم العصرية والأسعار التنافسية.</p>",
        "en": "<p>In a new step confirming New City's leadership in the Egyptian real estate market, the company announced Tips for Buying a Successful Investment Property.</p><p>This comes as part of the company's strategy to expand and meet growing customer needs.</p><p>This step features several advantages including prime location, modern designs, and competitive prices.</p>"
      },
      "excerpt": {
        "ar": "أعلنت شركة نيو سيتي عن نصائح لشراء عقار استثماري ناجح في إطار استراتيجية التوسع...",
        "en": "New City announced Tips for Buying a Successful Investment Property as part of expansion strategy..."
      },
      "image": "/uploads/1766644120512-c9feca98-1331-4f41-bf53-a3825cddbb50.jpg",
      "category": "tips",
      "status": "published",
      "createdAt": "2025-12-27T03:44:54.183Z",
      "createdBy": "admin-001",
      "updatedAt": "2025-12-27T03:44:54.183Z"
    },
    {
      "id": "news-0098",
      "title": {
        "ar": "شراكة استراتيجية جديدة 6 أكتوبر 98",
        "en": "New Strategic Partnership 6th of October 98"
      },
      "content": {
        "ar": "<p>في خطوة جديدة تؤكد ريادة نيو سيتي في سوق العقارات المصري، أعلنت الشركة عن شراكة استراتيجية جديدة.</p><p>يأتي هذا في إطار استراتيجية الشركة للتوسع وتلبية احتياجات العملاء المتزايدة.</p><p>تتميز هذه الخطوة بعدة مزايا تشمل الموقع المتميز والتصاميم العصرية والأسعار التنافسية.</p>",
        "en": "<p>In a new step confirming New City's leadership in the Egyptian real estate market, the company announced New Strategic Partnership.</p><p>This comes as part of the company's strategy to expand and meet growing customer needs.</p><p>This step features several advantages including prime location, modern designs, and competitive prices.</p>"
      },
      "excerpt": {
        "ar": "أعلنت شركة نيو سيتي عن شراكة استراتيجية جديدة في إطار استراتيجية التوسع...",
        "en": "New City announced New Strategic Partnership as part of expansion strategy..."
      },
      "image": "/uploads/1766591416272-7fe0dc19-e41e-4e0a-8f71-03f2430ee559.jpg",
      "category": "company",
      "status": "published",
      "createdAt": "2025-12-27T03:44:54.187Z",
      "createdBy": "admin-001",
      "updatedAt": "2025-12-27T03:44:54.187Z"
    }
  ],
  "total": 102,
  "page": 5,
  "limit": 20,
  "totalPages": 6,
  "hasNext": true,
  "hasPrev": true,
  "generatedAt": "2025-12-27T22:58:13.669Z"
}