{
  "data": [
    {
      "id": "news-0039",
      "title": {
        "ar": "توقعات أسعار العقارات لعام جولف بورتو مارينا 39",
        "en": "Property Price Predictions for Year Golf Porto Marina 39"
      },
      "content": {
        "ar": "<p>في خطوة جديدة تؤكد ريادة نيو سيتي في سوق العقارات المصري، أعلنت الشركة عن توقعات أسعار العقارات لعام.</p><p>يأتي هذا في إطار استراتيجية الشركة للتوسع وتلبية احتياجات العملاء المتزايدة.</p><p>تتميز هذه الخطوة بعدة مزايا تشمل الموقع المتميز والتصاميم العصرية والأسعار التنافسية.</p>",
        "en": "<p>In a new step confirming New City's leadership in the Egyptian real estate market, the company announced Property Price Predictions for Year.</p><p>This comes as part of the company's strategy to expand and meet growing customer needs.</p><p>This step features several advantages including prime location, modern designs, and competitive prices.</p>"
      },
      "excerpt": {
        "ar": "أعلنت شركة نيو سيتي عن توقعات أسعار العقارات لعام في إطار استراتيجية التوسع...",
        "en": "New City announced Property Price Predictions for Year as part of expansion strategy..."
      },
      "image": "/uploads/1766644120512-c9feca98-1331-4f41-bf53-a3825cddbb50.jpg",
      "category": "market",
      "status": "published",
      "createdAt": "2025-12-27T03:44:53.986Z",
      "createdBy": "admin-001",
      "updatedAt": "2025-12-27T03:44:53.986Z"
    },
    {
      "id": "news-0040",
      "title": {
        "ar": "افتتاح مرحلة جديدة في مشروع مدينتي 40",
        "en": "Opening of New Phase in Project Madinaty 40"
      },
      "content": {
        "ar": "<p>في خطوة جديدة تؤكد ريادة نيو سيتي في سوق العقارات المصري، أعلنت الشركة عن افتتاح مرحلة جديدة في مشروع.</p><p>يأتي هذا في إطار استراتيجية الشركة للتوسع وتلبية احتياجات العملاء المتزايدة.</p><p>تتميز هذه الخطوة بعدة مزايا تشمل الموقع المتميز والتصاميم العصرية والأسعار التنافسية.</p>",
        "en": "<p>In a new step confirming New City's leadership in the Egyptian real estate market, the company announced Opening of New Phase in Project.</p><p>This comes as part of the company's strategy to expand and meet growing customer needs.</p><p>This step features several advantages including prime location, modern designs, and competitive prices.</p>"
      },
      "excerpt": {
        "ar": "أعلنت شركة نيو سيتي عن افتتاح مرحلة جديدة في مشروع في إطار استراتيجية التوسع...",
        "en": "New City announced Opening of New Phase in Project as part of expansion strategy..."
      },
      "image": "/uploads/1766635937611-ba380479-d149-4335-a299-bb48282ccfd5.jpg",
      "category": "projects",
      "status": "published",
      "createdAt": "2025-12-27T03:44:53.988Z",
      "createdBy": "admin-001",
      "updatedAt": "2025-12-27T03:44:53.988Z"
    },
    {
      "id": "news-0041",
      "title": {
        "ar": "افتتاح مرحلة جديدة في مشروع الشيخ زايد 41",
        "en": "Opening of New Phase in Project Sheikh Zayed 41"
      },
      "content": {
        "ar": "<p>في خطوة جديدة تؤكد ريادة نيو سيتي في سوق العقارات المصري، أعلنت الشركة عن افتتاح مرحلة جديدة في مشروع.</p><p>يأتي هذا في إطار استراتيجية الشركة للتوسع وتلبية احتياجات العملاء المتزايدة.</p><p>تتميز هذه الخطوة بعدة مزايا تشمل الموقع المتميز والتصاميم العصرية والأسعار التنافسية.</p>",
        "en": "<p>In a new step confirming New City's leadership in the Egyptian real estate market, the company announced Opening of New Phase in Project.</p><p>This comes as part of the company's strategy to expand and meet growing customer needs.</p><p>This step features several advantages including prime location, modern designs, and competitive prices.</p>"
      },
      "excerpt": {
        "ar": "أعلنت شركة نيو سيتي عن افتتاح مرحلة جديدة في مشروع في إطار استراتيجية التوسع...",
        "en": "New City announced Opening of New Phase in Project as part of expansion strategy..."
      },
      "image": "/uploads/1766644392682-47488809-ee00-4602-a91f-846ed94e7627.jpg",
      "category": "projects",
      "status": "published",
      "createdAt": "2025-12-27T03:44:53.990Z",
      "createdBy": "admin-001",
      "updatedAt": "2025-12-27T03:44:53.990Z"
    },
    {
      "id": "news-0042",
      "title": {
        "ar": "توسعات جديدة لشركة نيو سيتي التجمع الخامس 42",
        "en": "New City Announces Expansion Fifth Settlement 42"
      },
      "content": {
        "ar": "<p>في خطوة جديدة تؤكد ريادة نيو سيتي في سوق العقارات المصري، أعلنت الشركة عن توسعات جديدة لشركة نيو سيتي.</p><p>يأتي هذا في إطار استراتيجية الشركة للتوسع وتلبية احتياجات العملاء المتزايدة.</p><p>تتميز هذه الخطوة بعدة مزايا تشمل الموقع المتميز والتصاميم العصرية والأسعار التنافسية.</p>",
        "en": "<p>In a new step confirming New City's leadership in the Egyptian real estate market, the company announced New City Announces Expansion.</p><p>This comes as part of the company's strategy to expand and meet growing customer needs.</p><p>This step features several advantages including prime location, modern designs, and competitive prices.</p>"
      },
      "excerpt": {
        "ar": "أعلنت شركة نيو سيتي عن توسعات جديدة لشركة نيو سيتي في إطار استراتيجية التوسع...",
        "en": "New City announced New City Announces Expansion as part of expansion strategy..."
      },
      "image": "/uploads/1766644392681-f8b78712-22c1-4daf-b8c6-353bcb2651d1.jpg",
      "category": "company",
      "status": "published",
      "createdAt": "2025-12-27T03:44:53.992Z",
      "createdBy": "admin-001",
      "updatedAt": "2025-12-27T03:44:53.992Z"
    },
    {
      "id": "news-0043",
      "title": {
        "ar": "أفضل المناطق للاستثمار العقاري جولف بورتو مارينا 43",
        "en": "Best Areas for Real Estate Investment Golf Porto Marina 43"
      },
      "content": {
        "ar": "<p>في خطوة جديدة تؤكد ريادة نيو سيتي في سوق العقارات المصري، أعلنت الشركة عن أفضل المناطق للاستثمار العقاري.</p><p>يأتي هذا في إطار استراتيجية الشركة للتوسع وتلبية احتياجات العملاء المتزايدة.</p><p>تتميز هذه الخطوة بعدة مزايا تشمل الموقع المتميز والتصاميم العصرية والأسعار التنافسية.</p>",
        "en": "<p>In a new step confirming New City's leadership in the Egyptian real estate market, the company announced Best Areas for Real Estate Investment.</p><p>This comes as part of the company's strategy to expand and meet growing customer needs.</p><p>This step features several advantages including prime location, modern designs, and competitive prices.</p>"
      },
      "excerpt": {
        "ar": "أعلنت شركة نيو سيتي عن أفضل المناطق للاستثمار العقاري في إطار استراتيجية التوسع...",
        "en": "New City announced Best Areas for Real Estate Investment as part of expansion strategy..."
      },
      "image": "/uploads/1766644120512-c9feca98-1331-4f41-bf53-a3825cddbb50.jpg",
      "category": "market",
      "status": "published",
      "createdAt": "2025-12-27T03:44:53.995Z",
      "createdBy": "admin-001",
      "updatedAt": "2025-12-27T03:44:53.995Z"
    },
    {
      "id": "news-0044",
      "title": {
        "ar": "افتتاح مرحلة جديدة في مشروع مدينتي 44",
        "en": "Opening of New Phase in Project Madinaty 44"
      },
      "content": {
        "ar": "<p>في خطوة جديدة تؤكد ريادة نيو سيتي في سوق العقارات المصري، أعلنت الشركة عن افتتاح مرحلة جديدة في مشروع.</p><p>يأتي هذا في إطار استراتيجية الشركة للتوسع وتلبية احتياجات العملاء المتزايدة.</p><p>تتميز هذه الخطوة بعدة مزايا تشمل الموقع المتميز والتصاميم العصرية والأسعار التنافسية.</p>",
        "en": "<p>In a new step confirming New City's leadership in the Egyptian real estate market, the company announced Opening of New Phase in Project.</p><p>This comes as part of the company's strategy to expand and meet growing customer needs.</p><p>This step features several advantages including prime location, modern designs, and competitive prices.</p>"
      },
      "excerpt": {
        "ar": "أعلنت شركة نيو سيتي عن افتتاح مرحلة جديدة في مشروع في إطار استراتيجية التوسع...",
        "en": "New City announced Opening of New Phase in Project as part of expansion strategy..."
      },
      "image": "/uploads/1766644392681-f8b78712-22c1-4daf-b8c6-353bcb2651d1.jpg",
      "category": "projects",
      "status": "published",
      "createdAt": "2025-12-27T03:44:53.997Z",
      "createdBy": "admin-001",
      "updatedAt": "2025-12-27T03:44:53.997Z"
    },
    {
      "id": "news-0045",
      "title": {
        "ar": "أفضل المناطق للاستثمار العقاري المعادي 45",
        "en": "Best Areas for Real Estate Investment Maadi 45"
      },
      "content": {
        "ar": "<p>في خطوة جديدة تؤكد ريادة نيو سيتي في سوق العقارات المصري، أعلنت الشركة عن أفضل المناطق للاستثمار العقاري.</p><p>يأتي هذا في إطار استراتيجية الشركة للتوسع وتلبية احتياجات العملاء المتزايدة.</p><p>تتميز هذه الخطوة بعدة مزايا تشمل الموقع المتميز والتصاميم العصرية والأسعار التنافسية.</p>",
        "en": "<p>In a new step confirming New City's leadership in the Egyptian real estate market, the company announced Best Areas for Real Estate Investment.</p><p>This comes as part of the company's strategy to expand and meet growing customer needs.</p><p>This step features several advantages including prime location, modern designs, and competitive prices.</p>"
      },
      "excerpt": {
        "ar": "أعلنت شركة نيو سيتي عن أفضل المناطق للاستثمار العقاري في إطار استراتيجية التوسع...",
        "en": "New City announced Best Areas for Real Estate Investment as part of expansion strategy..."
      },
      "image": "/uploads/1766591419114-f09f133e-69aa-4e30-8fcd-8211d1567dd1.jpg",
      "category": "market",
      "status": "published",
      "createdAt": "2025-12-27T03:44:53.999Z",
      "createdBy": "admin-001",
      "updatedAt": "2025-12-27T03:44:53.999Z"
    },
    {
      "id": "news-0046",
      "title": {
        "ar": "أهم العوامل عند شراء عقار الساحل الشمالي 46",
        "en": "Key Factors When Buying Property North Coast 46"
      },
      "content": {
        "ar": "<p>في خطوة جديدة تؤكد ريادة نيو سيتي في سوق العقارات المصري، أعلنت الشركة عن أهم العوامل عند شراء عقار.</p><p>يأتي هذا في إطار استراتيجية الشركة للتوسع وتلبية احتياجات العملاء المتزايدة.</p><p>تتميز هذه الخطوة بعدة مزايا تشمل الموقع المتميز والتصاميم العصرية والأسعار التنافسية.</p>",
        "en": "<p>In a new step confirming New City's leadership in the Egyptian real estate market, the company announced Key Factors When Buying Property.</p><p>This comes as part of the company's strategy to expand and meet growing customer needs.</p><p>This step features several advantages including prime location, modern designs, and competitive prices.</p>"
      },
      "excerpt": {
        "ar": "أعلنت شركة نيو سيتي عن أهم العوامل عند شراء عقار في إطار استراتيجية التوسع...",
        "en": "New City announced Key Factors When Buying Property as part of expansion strategy..."
      },
      "image": "/uploads/1766644120512-c9feca98-1331-4f41-bf53-a3825cddbb50.jpg",
      "category": "tips",
      "status": "published",
      "createdAt": "2025-12-27T03:44:54.001Z",
      "createdBy": "admin-001",
      "updatedAt": "2025-12-27T03:44:54.001Z"
    },
    {
      "id": "news-0047",
      "title": {
        "ar": "أهم العوامل عند شراء عقار الساحل الشمالي 47",
        "en": "Key Factors When Buying Property North Coast 47"
      },
      "content": {
        "ar": "<p>في خطوة جديدة تؤكد ريادة نيو سيتي في سوق العقارات المصري، أعلنت الشركة عن أهم العوامل عند شراء عقار.</p><p>يأتي هذا في إطار استراتيجية الشركة للتوسع وتلبية احتياجات العملاء المتزايدة.</p><p>تتميز هذه الخطوة بعدة مزايا تشمل الموقع المتميز والتصاميم العصرية والأسعار التنافسية.</p>",
        "en": "<p>In a new step confirming New City's leadership in the Egyptian real estate market, the company announced Key Factors When Buying Property.</p><p>This comes as part of the company's strategy to expand and meet growing customer needs.</p><p>This step features several advantages including prime location, modern designs, and competitive prices.</p>"
      },
      "excerpt": {
        "ar": "أعلنت شركة نيو سيتي عن أهم العوامل عند شراء عقار في إطار استراتيجية التوسع...",
        "en": "New City announced Key Factors When Buying Property as part of expansion strategy..."
      },
      "image": "/uploads/1766635937611-ba380479-d149-4335-a299-bb48282ccfd5.jpg",
      "category": "tips",
      "status": "published",
      "createdAt": "2025-12-27T03:44:54.003Z",
      "createdBy": "admin-001",
      "updatedAt": "2025-12-27T03:44:54.003Z"
    },
    {
      "id": "news-0048",
      "title": {
        "ar": "افتتاح مرحلة جديدة في مشروع مدينتي 48",
        "en": "Opening of New Phase in Project Madinaty 48"
      },
      "content": {
        "ar": "<p>في خطوة جديدة تؤكد ريادة نيو سيتي في سوق العقارات المصري، أعلنت الشركة عن افتتاح مرحلة جديدة في مشروع.</p><p>يأتي هذا في إطار استراتيجية الشركة للتوسع وتلبية احتياجات العملاء المتزايدة.</p><p>تتميز هذه الخطوة بعدة مزايا تشمل الموقع المتميز والتصاميم العصرية والأسعار التنافسية.</p>",
        "en": "<p>In a new step confirming New City's leadership in the Egyptian real estate market, the company announced Opening of New Phase in Project.</p><p>This comes as part of the company's strategy to expand and meet growing customer needs.</p><p>This step features several advantages including prime location, modern designs, and competitive prices.</p>"
      },
      "excerpt": {
        "ar": "أعلنت شركة نيو سيتي عن افتتاح مرحلة جديدة في مشروع في إطار استراتيجية التوسع...",
        "en": "New City announced Opening of New Phase in Project as part of expansion strategy..."
      },
      "image": "/uploads/1766591416272-7fe0dc19-e41e-4e0a-8f71-03f2430ee559.jpg",
      "category": "projects",
      "status": "published",
      "createdAt": "2025-12-27T03:44:54.005Z",
      "createdBy": "admin-001",
      "updatedAt": "2025-12-27T03:44:54.005Z"
    },
    {
      "id": "news-0049",
      "title": {
        "ar": "تحليل سوق العقارات المصري الساحل الشمالي 49",
        "en": "Egyptian Real Estate Market Analysis North Coast 49"
      },
      "content": {
        "ar": "<p>في خطوة جديدة تؤكد ريادة نيو سيتي في سوق العقارات المصري، أعلنت الشركة عن تحليل سوق العقارات المصري.</p><p>يأتي هذا في إطار استراتيجية الشركة للتوسع وتلبية احتياجات العملاء المتزايدة.</p><p>تتميز هذه الخطوة بعدة مزايا تشمل الموقع المتميز والتصاميم العصرية والأسعار التنافسية.</p>",
        "en": "<p>In a new step confirming New City's leadership in the Egyptian real estate market, the company announced Egyptian Real Estate Market Analysis.</p><p>This comes as part of the company's strategy to expand and meet growing customer needs.</p><p>This step features several advantages including prime location, modern designs, and competitive prices.</p>"
      },
      "excerpt": {
        "ar": "أعلنت شركة نيو سيتي عن تحليل سوق العقارات المصري في إطار استراتيجية التوسع...",
        "en": "New City announced Egyptian Real Estate Market Analysis as part of expansion strategy..."
      },
      "image": "/uploads/1766644120510-25bcff8c-5212-43a2-b5e2-12fc8a3cf794.jpg",
      "category": "market",
      "status": "published",
      "createdAt": "2025-12-27T03:44:54.007Z",
      "createdBy": "admin-001",
      "updatedAt": "2025-12-27T03:44:54.007Z"
    },
    {
      "id": "news-0050",
      "title": {
        "ar": "إطلاق مشروع سكني جديد في مدينتي 50",
        "en": "Launch of New Residential Project in Madinaty 50"
      },
      "content": {
        "ar": "<p>في خطوة جديدة تؤكد ريادة نيو سيتي في سوق العقارات المصري، أعلنت الشركة عن إطلاق مشروع سكني جديد في.</p><p>يأتي هذا في إطار استراتيجية الشركة للتوسع وتلبية احتياجات العملاء المتزايدة.</p><p>تتميز هذه الخطوة بعدة مزايا تشمل الموقع المتميز والتصاميم العصرية والأسعار التنافسية.</p>",
        "en": "<p>In a new step confirming New City's leadership in the Egyptian real estate market, the company announced Launch of New Residential Project in.</p><p>This comes as part of the company's strategy to expand and meet growing customer needs.</p><p>This step features several advantages including prime location, modern designs, and competitive prices.</p>"
      },
      "excerpt": {
        "ar": "أعلنت شركة نيو سيتي عن إطلاق مشروع سكني جديد في في إطار استراتيجية التوسع...",
        "en": "New City announced Launch of New Residential Project in as part of expansion strategy..."
      },
      "image": "/uploads/1766797522158-3deae7a4-55db-4429-a74d-f12ab9c2a324.jpg",
      "category": "projects",
      "status": "published",
      "createdAt": "2025-12-27T03:44:54.010Z",
      "createdBy": "admin-001",
      "updatedAt": "2025-12-27T03:44:54.010Z"
    },
    {
      "id": "news-0051",
      "title": {
        "ar": "شراكة استراتيجية جديدة الرحاب 51",
        "en": "New Strategic Partnership Rehab City 51"
      },
      "content": {
        "ar": "<p>في خطوة جديدة تؤكد ريادة نيو سيتي في سوق العقارات المصري، أعلنت الشركة عن شراكة استراتيجية جديدة.</p><p>يأتي هذا في إطار استراتيجية الشركة للتوسع وتلبية احتياجات العملاء المتزايدة.</p><p>تتميز هذه الخطوة بعدة مزايا تشمل الموقع المتميز والتصاميم العصرية والأسعار التنافسية.</p>",
        "en": "<p>In a new step confirming New City's leadership in the Egyptian real estate market, the company announced New Strategic Partnership.</p><p>This comes as part of the company's strategy to expand and meet growing customer needs.</p><p>This step features several advantages including prime location, modern designs, and competitive prices.</p>"
      },
      "excerpt": {
        "ar": "أعلنت شركة نيو سيتي عن شراكة استراتيجية جديدة في إطار استراتيجية التوسع...",
        "en": "New City announced New Strategic Partnership as part of expansion strategy..."
      },
      "image": "/uploads/1766644392682-47488809-ee00-4602-a91f-846ed94e7627.jpg",
      "category": "company",
      "status": "published",
      "createdAt": "2025-12-27T03:44:54.012Z",
      "createdBy": "admin-001",
      "updatedAt": "2025-12-27T03:44:54.012Z"
    },
    {
      "id": "news-0052",
      "title": {
        "ar": "تسليم وحدات المرحلة الأولى من العين السخنة 52",
        "en": "Delivery of Phase One Units in Ain Sokhna 52"
      },
      "content": {
        "ar": "<p>في خطوة جديدة تؤكد ريادة نيو سيتي في سوق العقارات المصري، أعلنت الشركة عن تسليم وحدات المرحلة الأولى من.</p><p>يأتي هذا في إطار استراتيجية الشركة للتوسع وتلبية احتياجات العملاء المتزايدة.</p><p>تتميز هذه الخطوة بعدة مزايا تشمل الموقع المتميز والتصاميم العصرية والأسعار التنافسية.</p>",
        "en": "<p>In a new step confirming New City's leadership in the Egyptian real estate market, the company announced Delivery of Phase One Units in.</p><p>This comes as part of the company's strategy to expand and meet growing customer needs.</p><p>This step features several advantages including prime location, modern designs, and competitive prices.</p>"
      },
      "excerpt": {
        "ar": "أعلنت شركة نيو سيتي عن تسليم وحدات المرحلة الأولى من في إطار استراتيجية التوسع...",
        "en": "New City announced Delivery of Phase One Units in as part of expansion strategy..."
      },
      "image": "/uploads/1766644120510-25bcff8c-5212-43a2-b5e2-12fc8a3cf794.jpg",
      "category": "projects",
      "status": "published",
      "createdAt": "2025-12-27T03:44:54.014Z",
      "createdBy": "admin-001",
      "updatedAt": "2025-12-27T03:44:54.014Z"
    },
    {
      "id": "news-0053",
      "title": {
        "ar": "شراكة استراتيجية جديدة العاصمة الإدارية 53",
        "en": "New Strategic Partnership New Capital 53"
      },
      "content": {
        "ar": "<p>في خطوة جديدة تؤكد ريادة نيو سيتي في سوق العقارات المصري، أعلنت الشركة عن شراكة استراتيجية جديدة.</p><p>يأتي هذا في إطار استراتيجية الشركة للتوسع وتلبية احتياجات العملاء المتزايدة.</p><p>تتميز هذه الخطوة بعدة مزايا تشمل الموقع المتميز والتصاميم العصرية والأسعار التنافسية.</p>",
        "en": "<p>In a new step confirming New City's leadership in the Egyptian real estate market, the company announced New Strategic Partnership.</p><p>This comes as part of the company's strategy to expand and meet growing customer needs.</p><p>This step features several advantages including prime location, modern designs, and competitive prices.</p>"
      },
      "excerpt": {
        "ar": "أعلنت شركة نيو سيتي عن شراكة استراتيجية جديدة في إطار استراتيجية التوسع...",
        "en": "New City announced New Strategic Partnership as part of expansion strategy..."
      },
      "image": "/uploads/1766591419114-f09f133e-69aa-4e30-8fcd-8211d1567dd1.jpg",
      "category": "company",
      "status": "published",
      "createdAt": "2025-12-27T03:44:54.017Z",
      "createdBy": "admin-001",
      "updatedAt": "2025-12-27T03:44:54.017Z"
    },
    {
      "id": "news-0054",
      "title": {
        "ar": "كيف تختار الوحدة المناسبة لك الرحاب 54",
        "en": "How to Choose the Right Unit for You Rehab City 54"
      },
      "content": {
        "ar": "<p>في خطوة جديدة تؤكد ريادة نيو سيتي في سوق العقارات المصري، أعلنت الشركة عن كيف تختار الوحدة المناسبة لك.</p><p>يأتي هذا في إطار استراتيجية الشركة للتوسع وتلبية احتياجات العملاء المتزايدة.</p><p>تتميز هذه الخطوة بعدة مزايا تشمل الموقع المتميز والتصاميم العصرية والأسعار التنافسية.</p>",
        "en": "<p>In a new step confirming New City's leadership in the Egyptian real estate market, the company announced How to Choose the Right Unit for You.</p><p>This comes as part of the company's strategy to expand and meet growing customer needs.</p><p>This step features several advantages including prime location, modern designs, and competitive prices.</p>"
      },
      "excerpt": {
        "ar": "أعلنت شركة نيو سيتي عن كيف تختار الوحدة المناسبة لك في إطار استراتيجية التوسع...",
        "en": "New City announced How to Choose the Right Unit for You as part of expansion strategy..."
      },
      "image": "/uploads/1766635937611-ba380479-d149-4335-a299-bb48282ccfd5.jpg",
      "category": "tips",
      "status": "published",
      "createdAt": "2025-12-27T03:44:54.019Z",
      "createdBy": "admin-001",
      "updatedAt": "2025-12-27T03:44:54.019Z"
    },
    {
      "id": "news-0055",
      "title": {
        "ar": "شراكة استراتيجية جديدة الرحاب 55",
        "en": "New Strategic Partnership Rehab City 55"
      },
      "content": {
        "ar": "<p>في خطوة جديدة تؤكد ريادة نيو سيتي في سوق العقارات المصري، أعلنت الشركة عن شراكة استراتيجية جديدة.</p><p>يأتي هذا في إطار استراتيجية الشركة للتوسع وتلبية احتياجات العملاء المتزايدة.</p><p>تتميز هذه الخطوة بعدة مزايا تشمل الموقع المتميز والتصاميم العصرية والأسعار التنافسية.</p>",
        "en": "<p>In a new step confirming New City's leadership in the Egyptian real estate market, the company announced New Strategic Partnership.</p><p>This comes as part of the company's strategy to expand and meet growing customer needs.</p><p>This step features several advantages including prime location, modern designs, and competitive prices.</p>"
      },
      "excerpt": {
        "ar": "أعلنت شركة نيو سيتي عن شراكة استراتيجية جديدة في إطار استراتيجية التوسع...",
        "en": "New City announced New Strategic Partnership as part of expansion strategy..."
      },
      "image": "/uploads/1766635937611-ba380479-d149-4335-a299-bb48282ccfd5.jpg",
      "category": "company",
      "status": "published",
      "createdAt": "2025-12-27T03:44:54.021Z",
      "createdBy": "admin-001",
      "updatedAt": "2025-12-27T03:44:54.021Z"
    },
    {
      "id": "news-0056",
      "title": {
        "ar": "نيو سيتي تحقق رقماً قياسياً في المبيعات الرحاب 56",
        "en": "New City Achieves Record Sales Rehab City 56"
      },
      "content": {
        "ar": "<p>في خطوة جديدة تؤكد ريادة نيو سيتي في سوق العقارات المصري، أعلنت الشركة عن نيو سيتي تحقق رقماً قياسياً في المبيعات.</p><p>يأتي هذا في إطار استراتيجية الشركة للتوسع وتلبية احتياجات العملاء المتزايدة.</p><p>تتميز هذه الخطوة بعدة مزايا تشمل الموقع المتميز والتصاميم العصرية والأسعار التنافسية.</p>",
        "en": "<p>In a new step confirming New City's leadership in the Egyptian real estate market, the company announced New City Achieves Record Sales.</p><p>This comes as part of the company's strategy to expand and meet growing customer needs.</p><p>This step features several advantages including prime location, modern designs, and competitive prices.</p>"
      },
      "excerpt": {
        "ar": "أعلنت شركة نيو سيتي عن نيو سيتي تحقق رقماً قياسياً في المبيعات في إطار استراتيجية التوسع...",
        "en": "New City announced New City Achieves Record Sales as part of expansion strategy..."
      },
      "image": "/uploads/1766644392681-f8b78712-22c1-4daf-b8c6-353bcb2651d1.jpg",
      "category": "company",
      "status": "published",
      "createdAt": "2025-12-27T03:44:54.024Z",
      "createdBy": "admin-001",
      "updatedAt": "2025-12-27T03:44:54.024Z"
    },
    {
      "id": "news-0057",
      "title": {
        "ar": "تحليل سوق العقارات المصري المعادي 57",
        "en": "Egyptian Real Estate Market Analysis Maadi 57"
      },
      "content": {
        "ar": "<p>في خطوة جديدة تؤكد ريادة نيو سيتي في سوق العقارات المصري، أعلنت الشركة عن تحليل سوق العقارات المصري.</p><p>يأتي هذا في إطار استراتيجية الشركة للتوسع وتلبية احتياجات العملاء المتزايدة.</p><p>تتميز هذه الخطوة بعدة مزايا تشمل الموقع المتميز والتصاميم العصرية والأسعار التنافسية.</p>",
        "en": "<p>In a new step confirming New City's leadership in the Egyptian real estate market, the company announced Egyptian Real Estate Market Analysis.</p><p>This comes as part of the company's strategy to expand and meet growing customer needs.</p><p>This step features several advantages including prime location, modern designs, and competitive prices.</p>"
      },
      "excerpt": {
        "ar": "أعلنت شركة نيو سيتي عن تحليل سوق العقارات المصري في إطار استراتيجية التوسع...",
        "en": "New City announced Egyptian Real Estate Market Analysis as part of expansion strategy..."
      },
      "image": "/uploads/1766635934210-e6c031d1-fd60-4894-9a7d-083aa9b76af3.jpg",
      "category": "market",
      "status": "published",
      "createdAt": "2025-12-27T03:44:54.027Z",
      "createdBy": "admin-001",
      "updatedAt": "2025-12-27T03:44:54.027Z"
    },
    {
      "id": "news-0058",
      "title": {
        "ar": "كيف تختار الوحدة المناسبة لك الشيخ زايد 58",
        "en": "How to Choose the Right Unit for You Sheikh Zayed 58"
      },
      "content": {
        "ar": "<p>في خطوة جديدة تؤكد ريادة نيو سيتي في سوق العقارات المصري، أعلنت الشركة عن كيف تختار الوحدة المناسبة لك.</p><p>يأتي هذا في إطار استراتيجية الشركة للتوسع وتلبية احتياجات العملاء المتزايدة.</p><p>تتميز هذه الخطوة بعدة مزايا تشمل الموقع المتميز والتصاميم العصرية والأسعار التنافسية.</p>",
        "en": "<p>In a new step confirming New City's leadership in the Egyptian real estate market, the company announced How to Choose the Right Unit for You.</p><p>This comes as part of the company's strategy to expand and meet growing customer needs.</p><p>This step features several advantages including prime location, modern designs, and competitive prices.</p>"
      },
      "excerpt": {
        "ar": "أعلنت شركة نيو سيتي عن كيف تختار الوحدة المناسبة لك في إطار استراتيجية التوسع...",
        "en": "New City announced How to Choose the Right Unit for You as part of expansion strategy..."
      },
      "image": "/uploads/1766644120512-c9feca98-1331-4f41-bf53-a3825cddbb50.jpg",
      "category": "tips",
      "status": "published",
      "createdAt": "2025-12-27T03:44:54.029Z",
      "createdBy": "admin-001",
      "updatedAt": "2025-12-27T03:44:54.029Z"
    }
  ],
  "total": 102,
  "page": 3,
  "limit": 20,
  "totalPages": 6,
  "hasNext": true,
  "hasPrev": true,
  "generatedAt": "2025-12-27T22:58:13.617Z"
}