{
  "data": [
    {
      "id": "unit-000434",
      "title": {
        "ar": "استوديو 338 متر - مدينتي",
        "en": "Studio 338 sqm - Madinaty"
      },
      "location": {
        "ar": "مدينتي",
        "en": "Madinaty"
      },
      "locationId": "madinaty",
      "description": {
        "ar": "<p>استوديو فاخرة بمساحة 338 متر مربع في مدينتي. تتميز بتشطيبات عالية الجودة وموقع متميز.</p>",
        "en": "<p>Luxury studio with 338 sqm in Madinaty. Features high-quality finishes and prime location.</p>"
      },
      "price": 4000000,
      "area": 338,
      "bedrooms": 1,
      "bathrooms": 2,
      "type": "studio",
      "status": "active",
      "unitStatus": "sold",
      "featured": true,
      "finishing": "core-shell",
      "paymentPlans": [
        "cash",
        "3-years",
        "10-years"
      ],
      "features": {
        "ar": [
          "قريب من المواصلات",
          "تشطيب سوبر لوكس",
          "مصعد خاص",
          "تكييف مركزي",
          "حمام سباحة خاص",
          "غرفة خادمة"
        ],
        "en": [
          "Parking",
          "Sea View",
          "Premium Finish",
          "Gym"
        ]
      },
      "images": [
        "/uploads/1766590847252-c1151886-0163-48e7-abe1-4dea0f2f3b68.jpg",
        "/uploads/1766591416272-7fe0dc19-e41e-4e0a-8f71-03f2430ee559.jpg",
        "/uploads/1766644120503-b8a5285f-a6a2-47a5-832e-6c2ea840abef.jpg"
      ],
      "buildingNumber": "7",
      "floor": "الرابع",
      "unitNumber": "1615",
      "usableSpace": 287,
      "gardenShare": 0,
      "view": "pool",
      "projectId": "project-0048",
      "createdAt": "2025-12-27T03:44:53.234Z",
      "createdBy": "admin-001",
      "updatedAt": "2025-12-27T03:44:53.234Z"
    },
    {
      "id": "unit-000439",
      "title": {
        "ar": "استوديو 318 متر - جولف بورتو مارينا",
        "en": "Studio 318 sqm - Golf Porto Marina"
      },
      "location": {
        "ar": "جولف بورتو مارينا",
        "en": "Golf Porto Marina"
      },
      "locationId": "golf-porto-marina",
      "description": {
        "ar": "<p>استوديو فاخرة بمساحة 318 متر مربع في جولف بورتو مارينا. تتميز بتشطيبات عالية الجودة وموقع متميز.</p>",
        "en": "<p>Luxury studio with 318 sqm in Golf Porto Marina. Features high-quality finishes and prime location.</p>"
      },
      "price": 8300000,
      "area": 318,
      "bedrooms": 5,
      "bathrooms": 6,
      "type": "studio",
      "status": "active",
      "unitStatus": "reserved",
      "featured": false,
      "finishing": "semi-finished",
      "paymentPlans": [
        "cash",
        "3-years",
        "10-years"
      ],
      "features": {
        "ar": [
          "نادي رياضي",
          "موقف سيارات",
          "تراس واسع",
          "تكييف مركزي"
        ],
        "en": [
          "Parking",
          "24/7 Security",
          "Central AC",
          "Premium Finish",
          "Near Transportation"
        ]
      },
      "images": [
        "/uploads/1766644392683-f80be205-732f-4692-b953-5db73e48a436.jpg",
        "/uploads/1766635937611-ba380479-d149-4335-a299-bb48282ccfd5.jpg",
        "/uploads/1766644120510-25bcff8c-5212-43a2-b5e2-12fc8a3cf794.jpg",
        "/uploads/1766797522158-3deae7a4-55db-4429-a74d-f12ab9c2a324.jpg"
      ],
      "buildingNumber": "43",
      "floor": "الرابع",
      "unitNumber": "2867",
      "usableSpace": 270,
      "gardenShare": 0,
      "view": "garden",
      "projectId": "project-0010",
      "createdAt": "2025-12-27T03:44:53.286Z",
      "createdBy": "admin-001",
      "updatedAt": "2025-12-27T03:44:53.286Z"
    },
    {
      "id": "unit-000459",
      "title": {
        "ar": "استوديو 309 متر - الساحل الشمالي",
        "en": "Studio 309 sqm - North Coast"
      },
      "location": {
        "ar": "الساحل الشمالي",
        "en": "North Coast"
      },
      "locationId": "north-coast",
      "description": {
        "ar": "<p>استوديو فاخرة بمساحة 309 متر مربع في الساحل الشمالي. تتميز بتشطيبات عالية الجودة وموقع متميز.</p>",
        "en": "<p>Luxury studio with 309 sqm in North Coast. Features high-quality finishes and prime location.</p>"
      },
      "price": 9600000,
      "area": 309,
      "bedrooms": 4,
      "bathrooms": 4,
      "type": "studio",
      "status": "active",
      "unitStatus": "sold",
      "featured": false,
      "finishing": "semi-finished",
      "paymentPlans": [
        "cash"
      ],
      "features": {
        "ar": [
          "تشطيب سوبر لوكس",
          "إطلالة بحرية",
          "تراس واسع",
          "تكييف مركزي"
        ],
        "en": [
          "Sea View",
          "Private Elevator",
          "Private Pool"
        ]
      },
      "images": [
        "/uploads/1766644120512-c9feca98-1331-4f41-bf53-a3825cddbb50.jpg",
        "/uploads/1766635934210-e6c031d1-fd60-4894-9a7d-083aa9b76af3.jpg",
        "/uploads/1766797503773-92c16a72-4bf7-4a70-88f6-21abc9415855.jpg",
        "/uploads/1766644392683-f80be205-732f-4692-b953-5db73e48a436.jpg"
      ],
      "buildingNumber": "25",
      "floor": "السادس",
      "unitNumber": "8004",
      "usableSpace": 263,
      "gardenShare": 0,
      "view": "sea",
      "projectId": "project-0046",
      "createdAt": "2025-12-27T03:44:53.499Z",
      "createdBy": "admin-001",
      "updatedAt": "2025-12-27T03:44:53.499Z"
    },
    {
      "id": "unit-000460",
      "title": {
        "ar": "استوديو 468 متر - العين السخنة",
        "en": "Studio 468 sqm - Ain Sokhna"
      },
      "location": {
        "ar": "العين السخنة",
        "en": "Ain Sokhna"
      },
      "locationId": "ain-sokhna",
      "description": {
        "ar": "<p>استوديو فاخرة بمساحة 468 متر مربع في العين السخنة. تتميز بتشطيبات عالية الجودة وموقع متميز.</p>",
        "en": "<p>Luxury studio with 468 sqm in Ain Sokhna. Features high-quality finishes and prime location.</p>"
      },
      "price": 5900000,
      "area": 468,
      "bedrooms": 2,
      "bathrooms": 1,
      "type": "studio",
      "status": "active",
      "unitStatus": "available",
      "featured": true,
      "finishing": "finished",
      "paymentPlans": [
        "8-years",
        "6-years",
        "3-years"
      ],
      "features": {
        "ar": [
          "تشطيب سوبر لوكس",
          "حمام سباحة خاص",
          "حديقة خاصة",
          "موقف سيارات",
          "أمن 24 ساعة",
          "مصعد خاص"
        ],
        "en": [
          "Near Transportation",
          "Parking",
          "Private Pool",
          "Private Garden",
          "Gym",
          "Sea View"
        ]
      },
      "images": [
        "/uploads/1766644392682-47488809-ee00-4602-a91f-846ed94e7627.jpg",
        "/uploads/1766590847252-c1151886-0163-48e7-abe1-4dea0f2f3b68.jpg",
        "/uploads/1766797522158-3deae7a4-55db-4429-a74d-f12ab9c2a324.jpg"
      ],
      "buildingNumber": "8",
      "floor": "الثالث",
      "unitNumber": "3690",
      "usableSpace": 398,
      "gardenShare": 0,
      "view": "golf",
      "projectId": "project-0039",
      "createdAt": "2025-12-27T03:44:53.509Z",
      "createdBy": "admin-001",
      "updatedAt": "2025-12-27T03:44:53.509Z"
    },
    {
      "id": "unit-000462",
      "title": {
        "ar": "استوديو 292 متر - مدينتي",
        "en": "Studio 292 sqm - Madinaty"
      },
      "location": {
        "ar": "مدينتي",
        "en": "Madinaty"
      },
      "locationId": "madinaty",
      "description": {
        "ar": "<p>استوديو فاخرة بمساحة 292 متر مربع في مدينتي. تتميز بتشطيبات عالية الجودة وموقع متميز.</p>",
        "en": "<p>Luxury studio with 292 sqm in Madinaty. Features high-quality finishes and prime location.</p>"
      },
      "price": 9200000,
      "area": 292,
      "bedrooms": 2,
      "bathrooms": 1,
      "type": "studio",
      "status": "active",
      "unitStatus": "available",
      "featured": true,
      "finishing": "core-shell",
      "paymentPlans": [
        "6-years"
      ],
      "features": {
        "ar": [
          "تشطيب سوبر لوكس",
          "مصعد خاص",
          "تراس واسع"
        ],
        "en": [
          "Premium Finish",
          "24/7 Security",
          "Large Terrace",
          "Private Pool"
        ]
      },
      "images": [
        "/uploads/1766797522158-3deae7a4-55db-4429-a74d-f12ab9c2a324.jpg",
        "/uploads/1766644120512-c9feca98-1331-4f41-bf53-a3825cddbb50.jpg",
        "/uploads/1766644392682-47488809-ee00-4602-a91f-846ed94e7627.jpg",
        "/uploads/1766644120510-25bcff8c-5212-43a2-b5e2-12fc8a3cf794.jpg"
      ],
      "buildingNumber": "14",
      "floor": "الثاني",
      "unitNumber": "4831",
      "usableSpace": 248,
      "gardenShare": 0,
      "view": "street",
      "projectId": "project-0035",
      "createdAt": "2025-12-27T03:44:53.530Z",
      "createdBy": "admin-001",
      "updatedAt": "2025-12-27T03:44:53.530Z"
    },
    {
      "id": "unit-000463",
      "title": {
        "ar": "استوديو 375 متر - جولف بورتو مارينا",
        "en": "Studio 375 sqm - Golf Porto Marina"
      },
      "location": {
        "ar": "جولف بورتو مارينا",
        "en": "Golf Porto Marina"
      },
      "locationId": "golf-porto-marina",
      "description": {
        "ar": "<p>استوديو فاخرة بمساحة 375 متر مربع في جولف بورتو مارينا. تتميز بتشطيبات عالية الجودة وموقع متميز.</p>",
        "en": "<p>Luxury studio with 375 sqm in Golf Porto Marina. Features high-quality finishes and prime location.</p>"
      },
      "price": 4800000,
      "area": 375,
      "bedrooms": 1,
      "bathrooms": 1,
      "type": "studio",
      "status": "active",
      "unitStatus": "reserved",
      "featured": false,
      "finishing": "finished",
      "paymentPlans": [
        "8-years"
      ],
      "features": {
        "ar": [
          "تشطيب سوبر لوكس",
          "إطلالة بحرية",
          "غرفة خادمة",
          "حمام سباحة خاص",
          "حديقة خاصة",
          "نادي رياضي"
        ],
        "en": [
          "Sea View",
          "Near Transportation",
          "24/7 Security"
        ]
      },
      "images": [
        "/uploads/1766644120512-c9feca98-1331-4f41-bf53-a3825cddbb50.jpg",
        "/uploads/1766644120503-b8a5285f-a6a2-47a5-832e-6c2ea840abef.jpg",
        "/uploads/1766635934210-e6c031d1-fd60-4894-9a7d-083aa9b76af3.jpg"
      ],
      "buildingNumber": "37",
      "floor": "الثالث",
      "unitNumber": "2073",
      "usableSpace": 319,
      "gardenShare": 0,
      "view": "garden",
      "projectId": "project-0040",
      "createdAt": "2025-12-27T03:44:53.540Z",
      "createdBy": "admin-001",
      "updatedAt": "2025-12-27T03:44:53.540Z"
    },
    {
      "id": "unit-000465",
      "title": {
        "ar": "استوديو 491 متر - الساحل الشمالي",
        "en": "Studio 491 sqm - North Coast"
      },
      "location": {
        "ar": "الساحل الشمالي",
        "en": "North Coast"
      },
      "locationId": "north-coast",
      "description": {
        "ar": "<p>استوديو فاخرة بمساحة 491 متر مربع في الساحل الشمالي. تتميز بتشطيبات عالية الجودة وموقع متميز.</p>",
        "en": "<p>Luxury studio with 491 sqm in North Coast. Features high-quality finishes and prime location.</p>"
      },
      "price": 9300000,
      "area": 491,
      "bedrooms": 3,
      "bathrooms": 2,
      "type": "studio",
      "status": "active",
      "unitStatus": "reserved",
      "featured": true,
      "finishing": "semi-finished",
      "paymentPlans": [
        "cash",
        "3-years"
      ],
      "features": {
        "ar": [
          "نادي رياضي",
          "تراس واسع",
          "قريب من المواصلات",
          "تكييف مركزي",
          "إطلالة بحرية",
          "موقف سيارات"
        ],
        "en": [
          "Premium Finish",
          "Parking",
          "Large Terrace",
          "Gym"
        ]
      },
      "images": [
        "/uploads/1766644120503-b8a5285f-a6a2-47a5-832e-6c2ea840abef.jpg"
      ],
      "buildingNumber": "23",
      "floor": "السادس",
      "unitNumber": "2931",
      "usableSpace": 417,
      "gardenShare": 0,
      "view": "golf",
      "projectId": "project-0002",
      "createdAt": "2025-12-27T03:44:53.563Z",
      "createdBy": "admin-001",
      "updatedAt": "2025-12-27T03:44:53.563Z"
    },
    {
      "id": "unit-000490",
      "title": {
        "ar": "استوديو 339 متر - جولف بورتو مارينا",
        "en": "Studio 339 sqm - Golf Porto Marina"
      },
      "location": {
        "ar": "جولف بورتو مارينا",
        "en": "Golf Porto Marina"
      },
      "locationId": "golf-porto-marina",
      "description": {
        "ar": "<p>استوديو فاخرة بمساحة 339 متر مربع في جولف بورتو مارينا. تتميز بتشطيبات عالية الجودة وموقع متميز.</p>",
        "en": "<p>Luxury studio with 339 sqm in Golf Porto Marina. Features high-quality finishes and prime location.</p>"
      },
      "price": 5600000,
      "area": 339,
      "bedrooms": 3,
      "bathrooms": 1,
      "type": "studio",
      "status": "active",
      "unitStatus": "available",
      "featured": false,
      "finishing": "semi-finished",
      "paymentPlans": [
        "10-years",
        "8-years"
      ],
      "features": {
        "ar": [
          "تراس واسع",
          "تشطيب سوبر لوكس",
          "إطلالة بحرية",
          "موقف سيارات",
          "مصعد خاص",
          "أمن 24 ساعة"
        ],
        "en": [
          "Near Transportation",
          "Premium Finish",
          "Maid Room"
        ]
      },
      "images": [
        "/uploads/1766644120503-b8a5285f-a6a2-47a5-832e-6c2ea840abef.jpg",
        "/uploads/1766644392682-47488809-ee00-4602-a91f-846ed94e7627.jpg",
        "/uploads/1766591416272-7fe0dc19-e41e-4e0a-8f71-03f2430ee559.jpg"
      ],
      "buildingNumber": "32",
      "floor": "الأرضي",
      "unitNumber": "8157",
      "usableSpace": 288,
      "gardenShare": 0,
      "view": "landscape",
      "projectId": "project-0014",
      "createdAt": "2025-12-27T03:44:53.827Z",
      "createdBy": "admin-001",
      "updatedAt": "2025-12-27T03:44:53.827Z"
    },
    {
      "id": "unit-000492",
      "title": {
        "ar": "استوديو 477 متر - التجمع الخامس",
        "en": "Studio 477 sqm - Fifth Settlement"
      },
      "location": {
        "ar": "التجمع الخامس",
        "en": "Fifth Settlement"
      },
      "locationId": "fifth-settlement",
      "description": {
        "ar": "<p>استوديو فاخرة بمساحة 477 متر مربع في التجمع الخامس. تتميز بتشطيبات عالية الجودة وموقع متميز.</p>",
        "en": "<p>Luxury studio with 477 sqm in Fifth Settlement. Features high-quality finishes and prime location.</p>"
      },
      "price": 6800000,
      "area": 477,
      "bedrooms": 2,
      "bathrooms": 1,
      "type": "studio",
      "status": "active",
      "unitStatus": "reserved",
      "featured": false,
      "finishing": "finished",
      "paymentPlans": [
        "10-years",
        "6-years",
        "3-years"
      ],
      "features": {
        "ar": [
          "نادي رياضي",
          "تكييف مركزي",
          "تراس واسع",
          "تشطيب سوبر لوكس"
        ],
        "en": [
          "Large Terrace",
          "Premium Finish",
          "Private Elevator"
        ]
      },
      "images": [
        "/uploads/1766635937611-ba380479-d149-4335-a299-bb48282ccfd5.jpg",
        "/uploads/1766797503773-92c16a72-4bf7-4a70-88f6-21abc9415855.jpg"
      ],
      "buildingNumber": "18",
      "floor": "السادس",
      "unitNumber": "6897",
      "usableSpace": 405,
      "gardenShare": 0,
      "view": "golf",
      "projectId": "project-0031",
      "createdAt": "2025-12-27T03:44:53.847Z",
      "createdBy": "admin-001",
      "updatedAt": "2025-12-27T03:44:53.847Z"
    }
  ],
  "total": 69,
  "page": 4,
  "limit": 20,
  "totalPages": 4,
  "hasNext": false,
  "hasPrev": true,
  "filter": {
    "type": "studio"
  },
  "generatedAt": "2025-12-27T22:58:09.097Z"
}