{
  "data": [
    {
      "id": "unit-000406",
      "title": {
        "ar": "بنتهاوس 131 متر - العاصمة الإدارية",
        "en": "Penthouse 131 sqm - New Capital"
      },
      "location": {
        "ar": "العاصمة الإدارية",
        "en": "New Capital"
      },
      "locationId": "new-capital",
      "description": {
        "ar": "<p>بنتهاوس فاخرة بمساحة 131 متر مربع في العاصمة الإدارية. تتميز بتشطيبات عالية الجودة وموقع متميز.</p>",
        "en": "<p>Luxury penthouse with 131 sqm in New Capital. Features high-quality finishes and prime location.</p>"
      },
      "price": 1200000,
      "area": 131,
      "bedrooms": 2,
      "bathrooms": 3,
      "type": "penthouse",
      "status": "active",
      "unitStatus": "sold",
      "featured": false,
      "finishing": "semi-finished",
      "paymentPlans": [
        "10-years",
        "cash",
        "3-years"
      ],
      "features": {
        "ar": [
          "إطلالة بحرية",
          "تراس واسع",
          "تكييف مركزي",
          "موقف سيارات",
          "أمن 24 ساعة"
        ],
        "en": [
          "Maid Room",
          "Premium Finish",
          "Private Elevator",
          "Sea View"
        ]
      },
      "images": [
        "/uploads/1766590847252-c1151886-0163-48e7-abe1-4dea0f2f3b68.jpg"
      ],
      "buildingNumber": "40",
      "floor": "الثاني",
      "unitNumber": "3677",
      "usableSpace": 111,
      "gardenShare": 0,
      "view": "pool",
      "projectId": "project-0006",
      "createdAt": "2025-12-27T03:44:52.953Z",
      "createdBy": "admin-001",
      "updatedAt": "2025-12-27T03:44:52.953Z"
    },
    {
      "id": "unit-000416",
      "title": {
        "ar": "بنتهاوس 110 متر - التجمع الخامس",
        "en": "Penthouse 110 sqm - Fifth Settlement"
      },
      "location": {
        "ar": "التجمع الخامس",
        "en": "Fifth Settlement"
      },
      "locationId": "fifth-settlement",
      "description": {
        "ar": "<p>بنتهاوس فاخرة بمساحة 110 متر مربع في التجمع الخامس. تتميز بتشطيبات عالية الجودة وموقع متميز.</p>",
        "en": "<p>Luxury penthouse with 110 sqm in Fifth Settlement. Features high-quality finishes and prime location.</p>"
      },
      "price": 4600000,
      "area": 110,
      "bedrooms": 2,
      "bathrooms": 2,
      "type": "penthouse",
      "status": "active",
      "unitStatus": "reserved",
      "featured": false,
      "finishing": "semi-finished",
      "paymentPlans": [
        "8-years",
        "cash"
      ],
      "features": {
        "ar": [
          "تراس واسع",
          "نادي رياضي",
          "أمن 24 ساعة"
        ],
        "en": [
          "Gym",
          "Large Terrace",
          "Near Transportation",
          "Premium Finish",
          "Sea View",
          "24/7 Security"
        ]
      },
      "images": [
        "/uploads/1766635934210-e6c031d1-fd60-4894-9a7d-083aa9b76af3.jpg",
        "/uploads/1766644120503-b8a5285f-a6a2-47a5-832e-6c2ea840abef.jpg",
        "/uploads/1766644120512-c9feca98-1331-4f41-bf53-a3825cddbb50.jpg"
      ],
      "buildingNumber": "18",
      "floor": "الخامس",
      "unitNumber": "3808",
      "usableSpace": 94,
      "gardenShare": 0,
      "view": "",
      "projectId": "project-0043",
      "createdAt": "2025-12-27T03:44:53.056Z",
      "createdBy": "admin-001",
      "updatedAt": "2025-12-27T03:44:53.056Z"
    },
    {
      "id": "unit-000417",
      "title": {
        "ar": "بنتهاوس 406 متر - الساحل الشمالي",
        "en": "Penthouse 406 sqm - North Coast"
      },
      "location": {
        "ar": "الساحل الشمالي",
        "en": "North Coast"
      },
      "locationId": "north-coast",
      "description": {
        "ar": "<p>بنتهاوس فاخرة بمساحة 406 متر مربع في الساحل الشمالي. تتميز بتشطيبات عالية الجودة وموقع متميز.</p>",
        "en": "<p>Luxury penthouse with 406 sqm in North Coast. Features high-quality finishes and prime location.</p>"
      },
      "price": 8400000,
      "area": 406,
      "bedrooms": 2,
      "bathrooms": 1,
      "type": "penthouse",
      "status": "active",
      "unitStatus": "available",
      "featured": false,
      "finishing": "semi-finished",
      "paymentPlans": [
        "cash",
        "3-years"
      ],
      "features": {
        "ar": [
          "حمام سباحة خاص",
          "إطلالة بحرية",
          "موقف سيارات"
        ],
        "en": [
          "Gym",
          "Parking",
          "Large Terrace",
          "Private Elevator",
          "Near Transportation"
        ]
      },
      "images": [
        "/uploads/1766590847252-c1151886-0163-48e7-abe1-4dea0f2f3b68.jpg"
      ],
      "buildingNumber": "9",
      "floor": "السادس",
      "unitNumber": "2381",
      "usableSpace": 345,
      "gardenShare": 0,
      "view": "pool",
      "projectId": "project-0019",
      "createdAt": "2025-12-27T03:44:53.066Z",
      "createdBy": "admin-001",
      "updatedAt": "2025-12-27T03:44:53.066Z"
    },
    {
      "id": "unit-000419",
      "title": {
        "ar": "بنتهاوس 58 متر - مدينتي",
        "en": "Penthouse 58 sqm - Madinaty"
      },
      "location": {
        "ar": "مدينتي",
        "en": "Madinaty"
      },
      "locationId": "madinaty",
      "description": {
        "ar": "<p>بنتهاوس فاخرة بمساحة 58 متر مربع في مدينتي. تتميز بتشطيبات عالية الجودة وموقع متميز.</p>",
        "en": "<p>Luxury penthouse with 58 sqm in Madinaty. Features high-quality finishes and prime location.</p>"
      },
      "price": 1800000,
      "area": 58,
      "bedrooms": 2,
      "bathrooms": 1,
      "type": "penthouse",
      "status": "active",
      "unitStatus": "reserved",
      "featured": false,
      "finishing": "core-shell",
      "paymentPlans": [
        "6-years"
      ],
      "features": {
        "ar": [
          "غرفة خادمة",
          "قريب من المواصلات",
          "تشطيب سوبر لوكس"
        ],
        "en": [
          "Private Elevator",
          "Maid Room",
          "Parking"
        ]
      },
      "images": [
        "/uploads/1766644392683-f80be205-732f-4692-b953-5db73e48a436.jpg",
        "/uploads/1766635934210-e6c031d1-fd60-4894-9a7d-083aa9b76af3.jpg",
        "/uploads/1766797503773-92c16a72-4bf7-4a70-88f6-21abc9415855.jpg",
        "/uploads/1766644120512-c9feca98-1331-4f41-bf53-a3825cddbb50.jpg"
      ],
      "buildingNumber": "6",
      "floor": "الرابع",
      "unitNumber": "4728",
      "usableSpace": 49,
      "gardenShare": 0,
      "view": "street",
      "projectId": "project-0030",
      "createdAt": "2025-12-27T03:44:53.087Z",
      "createdBy": "admin-001",
      "updatedAt": "2025-12-27T03:44:53.087Z"
    },
    {
      "id": "unit-000422",
      "title": {
        "ar": "بنتهاوس 74 متر - الرحاب",
        "en": "Penthouse 74 sqm - Rehab City"
      },
      "location": {
        "ar": "الرحاب",
        "en": "Rehab City"
      },
      "locationId": "rehab",
      "description": {
        "ar": "<p>بنتهاوس فاخرة بمساحة 74 متر مربع في الرحاب. تتميز بتشطيبات عالية الجودة وموقع متميز.</p>",
        "en": "<p>Luxury penthouse with 74 sqm in Rehab City. Features high-quality finishes and prime location.</p>"
      },
      "price": 1700000,
      "area": 74,
      "bedrooms": 5,
      "bathrooms": 6,
      "type": "penthouse",
      "status": "active",
      "unitStatus": "reserved",
      "featured": false,
      "finishing": "core-shell",
      "paymentPlans": [
        "cash",
        "8-years",
        "3-years"
      ],
      "features": {
        "ar": [
          "مصعد خاص",
          "تراس واسع",
          "حديقة خاصة",
          "نادي رياضي",
          "حمام سباحة خاص",
          "تشطيب سوبر لوكس"
        ],
        "en": [
          "Parking",
          "Gym",
          "Sea View",
          "Large Terrace"
        ]
      },
      "images": [
        "/uploads/1766591419114-f09f133e-69aa-4e30-8fcd-8211d1567dd1.jpg"
      ],
      "buildingNumber": "46",
      "floor": "السادس",
      "unitNumber": "6687",
      "usableSpace": 63,
      "gardenShare": 0,
      "view": "pool",
      "projectId": "project-0032",
      "createdAt": "2025-12-27T03:44:53.117Z",
      "createdBy": "admin-001",
      "updatedAt": "2025-12-27T03:44:53.117Z"
    },
    {
      "id": "unit-000428",
      "title": {
        "ar": "بنتهاوس 250 متر - العاصمة الإدارية",
        "en": "Penthouse 250 sqm - New Capital"
      },
      "location": {
        "ar": "العاصمة الإدارية",
        "en": "New Capital"
      },
      "locationId": "new-capital",
      "description": {
        "ar": "<p>بنتهاوس فاخرة بمساحة 250 متر مربع في العاصمة الإدارية. تتميز بتشطيبات عالية الجودة وموقع متميز.</p>",
        "en": "<p>Luxury penthouse with 250 sqm in New Capital. Features high-quality finishes and prime location.</p>"
      },
      "price": 6900000,
      "area": 250,
      "bedrooms": 3,
      "bathrooms": 4,
      "type": "penthouse",
      "status": "active",
      "unitStatus": "reserved",
      "featured": true,
      "finishing": "finished",
      "paymentPlans": [
        "cash",
        "3-years"
      ],
      "features": {
        "ar": [
          "مصعد خاص",
          "نادي رياضي",
          "إطلالة بحرية",
          "تراس واسع",
          "قريب من المواصلات",
          "حديقة خاصة"
        ],
        "en": [
          "Central AC",
          "Large Terrace",
          "Premium Finish",
          "Private Pool",
          "Private Elevator",
          "Private Garden"
        ]
      },
      "images": [
        "/uploads/1766797522158-3deae7a4-55db-4429-a74d-f12ab9c2a324.jpg"
      ],
      "buildingNumber": "1",
      "floor": "السادس",
      "unitNumber": "9938",
      "usableSpace": 213,
      "gardenShare": 0,
      "view": "garden",
      "projectId": "project-0041",
      "createdAt": "2025-12-27T03:44:53.174Z",
      "createdBy": "admin-001",
      "updatedAt": "2025-12-27T03:44:53.174Z"
    },
    {
      "id": "unit-000435",
      "title": {
        "ar": "بنتهاوس 405 متر - المعادي",
        "en": "Penthouse 405 sqm - Maadi"
      },
      "location": {
        "ar": "المعادي",
        "en": "Maadi"
      },
      "locationId": "maadi",
      "description": {
        "ar": "<p>بنتهاوس فاخرة بمساحة 405 متر مربع في المعادي. تتميز بتشطيبات عالية الجودة وموقع متميز.</p>",
        "en": "<p>Luxury penthouse with 405 sqm in Maadi. Features high-quality finishes and prime location.</p>"
      },
      "price": 9400000,
      "area": 405,
      "bedrooms": 1,
      "bathrooms": 2,
      "type": "penthouse",
      "status": "active",
      "unitStatus": "available",
      "featured": false,
      "finishing": "finished",
      "paymentPlans": [
        "cash",
        "10-years"
      ],
      "features": {
        "ar": [
          "حمام سباحة خاص",
          "تشطيب سوبر لوكس",
          "تكييف مركزي",
          "أمن 24 ساعة",
          "حديقة خاصة"
        ],
        "en": [
          "Maid Room",
          "Parking",
          "Central AC",
          "Private Pool",
          "24/7 Security",
          "Large Terrace"
        ]
      },
      "images": [
        "/uploads/1766644392681-f8b78712-22c1-4daf-b8c6-353bcb2651d1.jpg",
        "/uploads/1766591419114-f09f133e-69aa-4e30-8fcd-8211d1567dd1.jpg",
        "/uploads/1766635934210-e6c031d1-fd60-4894-9a7d-083aa9b76af3.jpg"
      ],
      "buildingNumber": "22",
      "floor": "الثاني",
      "unitNumber": "7069",
      "usableSpace": 344,
      "gardenShare": 0,
      "view": "",
      "projectId": "project-0031",
      "createdAt": "2025-12-27T03:44:53.244Z",
      "createdBy": "admin-001",
      "updatedAt": "2025-12-27T03:44:53.244Z"
    },
    {
      "id": "unit-000449",
      "title": {
        "ar": "بنتهاوس 71 متر - الرحاب",
        "en": "Penthouse 71 sqm - Rehab City"
      },
      "location": {
        "ar": "الرحاب",
        "en": "Rehab City"
      },
      "locationId": "rehab",
      "description": {
        "ar": "<p>بنتهاوس فاخرة بمساحة 71 متر مربع في الرحاب. تتميز بتشطيبات عالية الجودة وموقع متميز.</p>",
        "en": "<p>Luxury penthouse with 71 sqm in Rehab City. Features high-quality finishes and prime location.</p>"
      },
      "price": 9800000,
      "area": 71,
      "bedrooms": 3,
      "bathrooms": 2,
      "type": "penthouse",
      "status": "active",
      "unitStatus": "available",
      "featured": false,
      "finishing": "finished",
      "paymentPlans": [
        "6-years",
        "8-years",
        "10-years"
      ],
      "features": {
        "ar": [
          "أمن 24 ساعة",
          "تشطيب سوبر لوكس",
          "حديقة خاصة",
          "تراس واسع"
        ],
        "en": [
          "Sea View",
          "Large Terrace",
          "Gym",
          "Near Transportation"
        ]
      },
      "images": [
        "/uploads/1766635937611-ba380479-d149-4335-a299-bb48282ccfd5.jpg",
        "/uploads/1766635934210-e6c031d1-fd60-4894-9a7d-083aa9b76af3.jpg",
        "/uploads/1766644392682-47488809-ee00-4602-a91f-846ed94e7627.jpg",
        "/uploads/1766644120510-25bcff8c-5212-43a2-b5e2-12fc8a3cf794.jpg"
      ],
      "buildingNumber": "26",
      "floor": "الخامس",
      "unitNumber": "1003",
      "usableSpace": 60,
      "gardenShare": 0,
      "view": "landscape",
      "projectId": "project-0022",
      "createdAt": "2025-12-27T03:44:53.391Z",
      "createdBy": "admin-001",
      "updatedAt": "2025-12-27T03:44:53.391Z"
    },
    {
      "id": "unit-000453",
      "title": {
        "ar": "بنتهاوس 385 متر - المعادي",
        "en": "Penthouse 385 sqm - Maadi"
      },
      "location": {
        "ar": "المعادي",
        "en": "Maadi"
      },
      "locationId": "maadi",
      "description": {
        "ar": "<p>بنتهاوس فاخرة بمساحة 385 متر مربع في المعادي. تتميز بتشطيبات عالية الجودة وموقع متميز.</p>",
        "en": "<p>Luxury penthouse with 385 sqm in Maadi. Features high-quality finishes and prime location.</p>"
      },
      "price": 1000000,
      "area": 385,
      "bedrooms": 1,
      "bathrooms": 2,
      "type": "penthouse",
      "status": "active",
      "unitStatus": "available",
      "featured": true,
      "finishing": "core-shell",
      "paymentPlans": [
        "8-years"
      ],
      "features": {
        "ar": [
          "إطلالة بحرية",
          "تراس واسع",
          "حمام سباحة خاص",
          "موقف سيارات"
        ],
        "en": [
          "Sea View",
          "Gym",
          "Near Transportation",
          "Private Elevator",
          "Large Terrace"
        ]
      },
      "images": [
        "/uploads/1766635934210-e6c031d1-fd60-4894-9a7d-083aa9b76af3.jpg",
        "/uploads/1766591419114-f09f133e-69aa-4e30-8fcd-8211d1567dd1.jpg",
        "/uploads/1766591416272-7fe0dc19-e41e-4e0a-8f71-03f2430ee559.jpg",
        "/uploads/1766644392682-47488809-ee00-4602-a91f-846ed94e7627.jpg"
      ],
      "buildingNumber": "1",
      "floor": "الخامس",
      "unitNumber": "2205",
      "usableSpace": 327,
      "gardenShare": 0,
      "view": "street",
      "projectId": "project-0011",
      "createdAt": "2025-12-27T03:44:53.433Z",
      "createdBy": "admin-001",
      "updatedAt": "2025-12-27T03:44:53.433Z"
    },
    {
      "id": "unit-000457",
      "title": {
        "ar": "بنتهاوس 166 متر - التجمع الخامس",
        "en": "Penthouse 166 sqm - Fifth Settlement"
      },
      "location": {
        "ar": "التجمع الخامس",
        "en": "Fifth Settlement"
      },
      "locationId": "fifth-settlement",
      "description": {
        "ar": "<p>بنتهاوس فاخرة بمساحة 166 متر مربع في التجمع الخامس. تتميز بتشطيبات عالية الجودة وموقع متميز.</p>",
        "en": "<p>Luxury penthouse with 166 sqm in Fifth Settlement. Features high-quality finishes and prime location.</p>"
      },
      "price": 7800000,
      "area": 166,
      "bedrooms": 3,
      "bathrooms": 2,
      "type": "penthouse",
      "status": "active",
      "unitStatus": "available",
      "featured": false,
      "finishing": "semi-finished",
      "paymentPlans": [
        "cash",
        "3-years"
      ],
      "features": {
        "ar": [
          "مصعد خاص",
          "موقف سيارات",
          "حديقة خاصة",
          "حمام سباحة خاص",
          "غرفة خادمة",
          "نادي رياضي"
        ],
        "en": [
          "Private Elevator",
          "Maid Room",
          "Central AC",
          "Gym"
        ]
      },
      "images": [
        "/uploads/1766797503773-92c16a72-4bf7-4a70-88f6-21abc9415855.jpg",
        "/uploads/1766591419114-f09f133e-69aa-4e30-8fcd-8211d1567dd1.jpg",
        "/uploads/1766591416272-7fe0dc19-e41e-4e0a-8f71-03f2430ee559.jpg"
      ],
      "buildingNumber": "38",
      "floor": "الرابع",
      "unitNumber": "7789",
      "usableSpace": 141,
      "gardenShare": 0,
      "view": "sea",
      "projectId": "project-0007",
      "createdAt": "2025-12-27T03:44:53.477Z",
      "createdBy": "admin-001",
      "updatedAt": "2025-12-27T03:44:53.477Z"
    },
    {
      "id": "unit-000469",
      "title": {
        "ar": "بنتهاوس 338 متر - 6 أكتوبر",
        "en": "Penthouse 338 sqm - 6th of October"
      },
      "location": {
        "ar": "6 أكتوبر",
        "en": "6th of October"
      },
      "locationId": "october-6",
      "description": {
        "ar": "<p>بنتهاوس فاخرة بمساحة 338 متر مربع في 6 أكتوبر. تتميز بتشطيبات عالية الجودة وموقع متميز.</p>",
        "en": "<p>Luxury penthouse with 338 sqm in 6th of October. Features high-quality finishes and prime location.</p>"
      },
      "price": 4100000,
      "area": 338,
      "bedrooms": 4,
      "bathrooms": 3,
      "type": "penthouse",
      "status": "active",
      "unitStatus": "sold",
      "featured": false,
      "finishing": "core-shell",
      "paymentPlans": [
        "8-years",
        "3-years"
      ],
      "features": {
        "ar": [
          "نادي رياضي",
          "أمن 24 ساعة",
          "غرفة خادمة",
          "إطلالة بحرية"
        ],
        "en": [
          "Sea View",
          "24/7 Security",
          "Premium Finish",
          "Private Elevator",
          "Private Pool",
          "Gym"
        ]
      },
      "images": [
        "/uploads/1766644120512-c9feca98-1331-4f41-bf53-a3825cddbb50.jpg",
        "/uploads/1766644392681-f8b78712-22c1-4daf-b8c6-353bcb2651d1.jpg"
      ],
      "buildingNumber": "36",
      "floor": "الخامس",
      "unitNumber": "7427",
      "usableSpace": 287,
      "gardenShare": 0,
      "view": "garden",
      "projectId": "project-0049",
      "createdAt": "2025-12-27T03:44:53.606Z",
      "createdBy": "admin-001",
      "updatedAt": "2025-12-27T03:44:53.606Z"
    },
    {
      "id": "unit-000488",
      "title": {
        "ar": "بنتهاوس 458 متر - الساحل الشمالي",
        "en": "Penthouse 458 sqm - North Coast"
      },
      "location": {
        "ar": "الساحل الشمالي",
        "en": "North Coast"
      },
      "locationId": "north-coast",
      "description": {
        "ar": "<p>بنتهاوس فاخرة بمساحة 458 متر مربع في الساحل الشمالي. تتميز بتشطيبات عالية الجودة وموقع متميز.</p>",
        "en": "<p>Luxury penthouse with 458 sqm in North Coast. Features high-quality finishes and prime location.</p>"
      },
      "price": 7600000,
      "area": 458,
      "bedrooms": 5,
      "bathrooms": 4,
      "type": "penthouse",
      "status": "active",
      "unitStatus": "sold",
      "featured": false,
      "finishing": "finished",
      "paymentPlans": [
        "cash",
        "3-years",
        "6-years"
      ],
      "features": {
        "ar": [
          "تشطيب سوبر لوكس",
          "قريب من المواصلات",
          "مصعد خاص",
          "نادي رياضي"
        ],
        "en": [
          "Private Pool",
          "Central AC",
          "Maid Room",
          "Large Terrace",
          "Private Elevator"
        ]
      },
      "images": [
        "/uploads/1766591419114-f09f133e-69aa-4e30-8fcd-8211d1567dd1.jpg",
        "/uploads/1766644392682-47488809-ee00-4602-a91f-846ed94e7627.jpg",
        "/uploads/1766635934210-e6c031d1-fd60-4894-9a7d-083aa9b76af3.jpg"
      ],
      "buildingNumber": "22",
      "floor": "الأول",
      "unitNumber": "1585",
      "usableSpace": 389,
      "gardenShare": 0,
      "view": "garden",
      "projectId": "project-0037",
      "createdAt": "2025-12-27T03:44:53.805Z",
      "createdBy": "admin-001",
      "updatedAt": "2025-12-27T03:44:53.805Z"
    }
  ],
  "total": 52,
  "page": 3,
  "limit": 20,
  "totalPages": 3,
  "hasNext": false,
  "hasPrev": true,
  "filter": {
    "type": "penthouse"
  },
  "generatedAt": "2025-12-27T22:58:09.588Z"
}