{"data":[{"id":"unit-000041","title":{"ar":"تاون هاوس 162 متر - التجمع الخامس","en":"Townhouse 162 sqm - Fifth Settlement"},"type":"townhouse","price":500000,"area":162,"bedrooms":3,"bathrooms":3,"location":{"ar":"التجمع الخامس","en":"Fifth Settlement"},"projectId":"project-0040","unitStatus":"sold","status":"active","featured":true,"images":["/uploads/1766635934210-e6c031d1-fd60-4894-9a7d-083aa9b76af3.jpg"],"createdAt":"2025-12-27T03:44:49.934Z"},{"id":"unit-000039","title":{"ar":"بنتهاوس 244 متر - مدينتي","en":"Penthouse 244 sqm - Madinaty"},"type":"penthouse","price":7200000,"area":244,"bedrooms":5,"bathrooms":3,"location":{"ar":"مدينتي","en":"Madinaty"},"projectId":"project-0043","unitStatus":"sold","status":"active","featured":false,"images":["/uploads/1766644120512-c9feca98-1331-4f41-bf53-a3825cddbb50.jpg"],"createdAt":"2025-12-27T03:44:49.929Z"},{"id":"unit-000038","title":{"ar":"دوبلكس 469 متر - 6 أكتوبر","en":"Duplex 469 sqm - 6th of October"},"type":"duplex","price":6200000,"area":469,"bedrooms":6,"bathrooms":2,"location":{"ar":"6 أكتوبر","en":"6th of October"},"projectId":"project-0025","unitStatus":"sold","status":"active","featured":false,"images":["/uploads/1766797522158-3deae7a4-55db-4429-a74d-f12ab9c2a324.jpg"],"createdAt":"2025-12-27T03:44:49.927Z"},{"id":"unit-000032","title":{"ar":"استوديو 334 متر - الساحل الشمالي","en":"Studio 334 sqm - North Coast"},"type":"studio","price":8000000,"area":334,"bedrooms":1,"bathrooms":2,"location":{"ar":"الساحل الشمالي","en":"North Coast"},"projectId":"project-0043","unitStatus":"sold","status":"active","featured":false,"images":["/uploads/1766644392681-f8b78712-22c1-4daf-b8c6-353bcb2651d1.jpg"],"createdAt":"2025-12-27T03:44:49.914Z"},{"id":"unit-000031","title":{"ar":"فيلا 455 متر - المعادي","en":"Villa 455 sqm - Maadi"},"type":"villa","price":7300000,"area":455,"bedrooms":3,"bathrooms":2,"location":{"ar":"المعادي","en":"Maadi"},"projectId":"project-0049","unitStatus":"sold","status":"active","featured":false,"images":["/uploads/1766644120510-25bcff8c-5212-43a2-b5e2-12fc8a3cf794.jpg"],"createdAt":"2025-12-27T03:44:49.913Z"},{"id":"unit-000026","title":{"ar":"بنتهاوس 100 متر - الساحل الشمالي","en":"Penthouse 100 sqm - North Coast"},"type":"penthouse","price":9700000,"area":100,"bedrooms":3,"bathrooms":1,"location":{"ar":"الساحل الشمالي","en":"North Coast"},"projectId":"project-0035","unitStatus":"sold","status":"active","featured":true,"images":["/uploads/1766635937611-ba380479-d149-4335-a299-bb48282ccfd5.jpg"],"createdAt":"2025-12-27T03:44:49.904Z"},{"id":"unit-000018","title":{"ar":"توين هاوس 85 متر - العين السخنة","en":"Twin House 85 sqm - Ain Sokhna"},"type":"twin-house","price":4200000,"area":85,"bedrooms":3,"bathrooms":3,"location":{"ar":"العين السخنة","en":"Ain Sokhna"},"projectId":"project-0014","unitStatus":"sold","status":"active","featured":true,"images":["/uploads/1766644120510-25bcff8c-5212-43a2-b5e2-12fc8a3cf794.jpg"],"createdAt":"2025-12-27T03:44:49.891Z"},{"id":"unit-000016","title":{"ar":"دوبلكس 256 متر - العاصمة الإدارية","en":"Duplex 256 sqm - New Capital"},"type":"duplex","price":7000000,"area":256,"bedrooms":4,"bathrooms":2,"location":{"ar":"العاصمة الإدارية","en":"New Capital"},"projectId":"project-0018","unitStatus":"sold","status":"active","featured":false,"images":["/uploads/1766644392681-f8b78712-22c1-4daf-b8c6-353bcb2651d1.jpg"],"createdAt":"2025-12-27T03:44:49.887Z"},{"id":"unit-000015","title":{"ar":"شقة 237 متر - التجمع الخامس","en":"Apartment 237 sqm - Fifth Settlement"},"type":"apartment","price":2900000,"area":237,"bedrooms":1,"bathrooms":2,"location":{"ar":"التجمع الخامس","en":"Fifth Settlement"},"projectId":"project-0035","unitStatus":"sold","status":"active","featured":false,"images":["/uploads/1766635934210-e6c031d1-fd60-4894-9a7d-083aa9b76af3.jpg"],"createdAt":"2025-12-27T03:44:49.886Z"},{"id":"unit-000010","title":{"ar":"استوديو 438 متر - مدينتي","en":"Studio 438 sqm - Madinaty"},"type":"studio","price":6000000,"area":438,"bedrooms":5,"bathrooms":2,"location":{"ar":"مدينتي","en":"Madinaty"},"projectId":"project-0039","unitStatus":"sold","status":"active","featured":false,"images":["/uploads/1766644120510-25bcff8c-5212-43a2-b5e2-12fc8a3cf794.jpg"],"createdAt":"2025-12-27T03:44:49.881Z"},{"id":"unit-000009","title":{"ar":"شقة 205 متر - 6 أكتوبر","en":"Apartment 205 sqm - 6th of October"},"type":"apartment","price":6300000,"area":205,"bedrooms":5,"bathrooms":6,"location":{"ar":"6 أكتوبر","en":"6th of October"},"projectId":"project-0004","unitStatus":"sold","status":"active","featured":false,"images":["/uploads/1766644392681-f8b78712-22c1-4daf-b8c6-353bcb2651d1.jpg"],"createdAt":"2025-12-27T03:44:49.880Z"},{"id":"unit-000004","title":{"ar":"توين هاوس 111 متر - العاصمة الإدارية","en":"Twin House 111 sqm - New Capital"},"type":"twin-house","price":4300000,"area":111,"bedrooms":6,"bathrooms":3,"location":{"ar":"العاصمة الإدارية","en":"New Capital"},"projectId":"project-0037","unitStatus":"sold","status":"active","featured":false,"images":["/uploads/1766797503773-92c16a72-4bf7-4a70-88f6-21abc9415855.jpg"],"createdAt":"2025-12-27T03:44:49.875Z"},{"id":"unit-000005","title":{"ar":"توين هاوس 354 متر - جولف بورتو مارينا","en":"Twin House 354 sqm - Golf Porto Marina"},"type":"twin-house","price":7900000,"area":354,"bedrooms":4,"bathrooms":1,"location":{"ar":"جولف بورتو مارينا","en":"Golf Porto Marina"},"projectId":"project-0046","unitStatus":"sold","status":"active","featured":false,"images":["/uploads/1766797503773-92c16a72-4bf7-4a70-88f6-21abc9415855.jpg"],"createdAt":"2025-12-27T03:44:49.875Z"},{"id":"unit-000003","title":{"ar":"توين هاوس 172 متر - العاصمة الإدارية","en":"Twin House 172 sqm - New Capital"},"type":"twin-house","price":7300000,"area":172,"bedrooms":4,"bathrooms":4,"location":{"ar":"العاصمة الإدارية","en":"New Capital"},"projectId":"project-0009","unitStatus":"sold","status":"active","featured":false,"images":["/uploads/1766644120510-25bcff8c-5212-43a2-b5e2-12fc8a3cf794.jpg"],"createdAt":"2025-12-27T03:44:49.874Z"},{"id":"be684036-8abd-41ee-986e-770ed2267664","title":{"ar":"شاليه 30 متر عمارة 13","en":"Chalet 30 m "},"type":"chalet","price":1430000,"area":90,"bedrooms":2,"bathrooms":1,"location":{"ar":"جولف بورتو مارينا","en":"Golf Porto Marina"},"projectId":"project-002","unitStatus":"sold","status":"active","featured":true,"images":["/uploads/1766590847252-c1151886-0163-48e7-abe1-4dea0f2f3b68.jpg"],"createdAt":"2025-12-24T15:41:30.490Z"}],"fullData":[{"id":"unit-000041","title":{"ar":"تاون هاوس 162 متر - التجمع الخامس","en":"Townhouse 162 sqm - Fifth Settlement"},"location":{"ar":"التجمع الخامس","en":"Fifth Settlement"},"locationId":"fifth-settlement","description":{"ar":"<p>تاون هاوس فاخرة بمساحة 162 متر مربع في التجمع الخامس. تتميز بتشطيبات عالية الجودة وموقع متميز.</p>","en":"<p>Luxury townhouse with 162 sqm in Fifth Settlement. Features high-quality finishes and prime location.</p>"},"price":500000,"area":162,"bedrooms":3,"bathrooms":3,"type":"townhouse","status":"active","unitStatus":"sold","featured":true,"finishing":"core-shell","paymentPlans":["6-years"],"features":{"ar":["حمام سباحة خاص","تراس واسع","تشطيب سوبر لوكس","غرفة خادمة","إطلالة بحرية"],"en":["Central AC","24/7 Security","Parking","Private Pool"]},"images":["/uploads/1766635934210-e6c031d1-fd60-4894-9a7d-083aa9b76af3.jpg"],"buildingNumber":"49","floor":"السادس","unitNumber":"6718","usableSpace":138,"gardenShare":196,"view":"pool","projectId":"project-0040","createdAt":"2025-12-27T03:44:49.934Z","createdBy":"admin-001","updatedAt":"2025-12-27T03:44:49.934Z"},{"id":"unit-000039","title":{"ar":"بنتهاوس 244 متر - مدينتي","en":"Penthouse 244 sqm - Madinaty"},"location":{"ar":"مدينتي","en":"Madinaty"},"locationId":"madinaty","description":{"ar":"<p>بنتهاوس فاخرة بمساحة 244 متر مربع في مدينتي. تتميز بتشطيبات عالية الجودة وموقع متميز.</p>","en":"<p>Luxury penthouse with 244 sqm in Madinaty. Features high-quality finishes and prime location.</p>"},"price":7200000,"area":244,"bedrooms":5,"bathrooms":3,"type":"penthouse","status":"active","unitStatus":"sold","featured":false,"finishing":"core-shell","paymentPlans":["8-years"],"features":{"ar":["حديقة خاصة","مصعد خاص","تشطيب سوبر لوكس","قريب من المواصلات","إطلالة بحرية","حمام سباحة خاص"],"en":["Parking","Large Terrace","Near Transportation","Premium Finish"]},"images":["/uploads/1766644120512-c9feca98-1331-4f41-bf53-a3825cddbb50.jpg"],"buildingNumber":"18","floor":"الأول","unitNumber":"524","usableSpace":207,"gardenShare":0,"view":"","projectId":"project-0043","createdAt":"2025-12-27T03:44:49.929Z","createdBy":"admin-001","updatedAt":"2025-12-27T03:44:49.929Z"},{"id":"unit-000038","title":{"ar":"دوبلكس 469 متر - 6 أكتوبر","en":"Duplex 469 sqm - 6th of October"},"location":{"ar":"6 أكتوبر","en":"6th of October"},"locationId":"october-6","description":{"ar":"<p>دوبلكس فاخرة بمساحة 469 متر مربع في 6 أكتوبر. تتميز بتشطيبات عالية الجودة وموقع متميز.</p>","en":"<p>Luxury duplex with 469 sqm in 6th of October. Features high-quality finishes and prime location.</p>"},"price":6200000,"area":469,"bedrooms":6,"bathrooms":2,"type":"duplex","status":"active","unitStatus":"sold","featured":false,"finishing":"core-shell","paymentPlans":["8-years","10-years","cash"],"features":{"ar":["تشطيب سوبر لوكس","حمام سباحة خاص","أمن 24 ساعة","نادي رياضي","حديقة خاصة"],"en":["Premium Finish","Large Terrace","Maid Room","Private Elevator","Private Pool","Sea View"]},"images":["/uploads/1766797522158-3deae7a4-55db-4429-a74d-f12ab9c2a324.jpg","/uploads/1766644120503-b8a5285f-a6a2-47a5-832e-6c2ea840abef.jpg","/uploads/1766635937611-ba380479-d149-4335-a299-bb48282ccfd5.jpg","/uploads/1766644120512-c9feca98-1331-4f41-bf53-a3825cddbb50.jpg"],"buildingNumber":"32","floor":"الرابع","unitNumber":"680","usableSpace":399,"gardenShare":0,"view":"garden","projectId":"project-0025","createdAt":"2025-12-27T03:44:49.927Z","createdBy":"admin-001","updatedAt":"2025-12-27T03:44:49.927Z"},{"id":"unit-000032","title":{"ar":"استوديو 334 متر - الساحل الشمالي","en":"Studio 334 sqm - North Coast"},"location":{"ar":"الساحل الشمالي","en":"North Coast"},"locationId":"north-coast","description":{"ar":"<p>استوديو فاخرة بمساحة 334 متر مربع في الساحل الشمالي. تتميز بتشطيبات عالية الجودة وموقع متميز.</p>","en":"<p>Luxury studio with 334 sqm in North Coast. Features high-quality finishes and prime location.</p>"},"price":8000000,"area":334,"bedrooms":1,"bathrooms":2,"type":"studio","status":"active","unitStatus":"sold","featured":false,"finishing":"core-shell","paymentPlans":["3-years","6-years"],"features":{"ar":["تشطيب سوبر لوكس","قريب من المواصلات","حمام سباحة خاص","إطلالة بحرية","نادي رياضي"],"en":["Large Terrace","Premium Finish","Gym","Private Pool","Sea View"]},"images":["/uploads/1766644392681-f8b78712-22c1-4daf-b8c6-353bcb2651d1.jpg","/uploads/1766644120512-c9feca98-1331-4f41-bf53-a3825cddbb50.jpg","/uploads/1766644392683-f80be205-732f-4692-b953-5db73e48a436.jpg"],"buildingNumber":"9","floor":"الخامس","unitNumber":"7837","usableSpace":284,"gardenShare":0,"view":"pool","projectId":"project-0043","createdAt":"2025-12-27T03:44:49.914Z","createdBy":"admin-001","updatedAt":"2025-12-27T03:44:49.914Z"},{"id":"unit-000031","title":{"ar":"فيلا 455 متر - المعادي","en":"Villa 455 sqm - Maadi"},"location":{"ar":"المعادي","en":"Maadi"},"locationId":"maadi","description":{"ar":"<p>فيلا فاخرة بمساحة 455 متر مربع في المعادي. تتميز بتشطيبات عالية الجودة وموقع متميز.</p>","en":"<p>Luxury villa with 455 sqm in Maadi. Features high-quality finishes and prime location.</p>"},"price":7300000,"area":455,"bedrooms":3,"bathrooms":2,"type":"villa","status":"active","unitStatus":"sold","featured":false,"finishing":"semi-finished","paymentPlans":["cash","3-years","6-years"],"features":{"ar":["موقف سيارات","حمام سباحة خاص","إطلالة بحرية","غرفة خادمة"],"en":["Near Transportation","Central AC","Gym","Sea View"]},"images":["/uploads/1766644120510-25bcff8c-5212-43a2-b5e2-12fc8a3cf794.jpg"],"buildingNumber":"38","floor":"الأرضي","unitNumber":"8181","usableSpace":387,"gardenShare":103,"view":"garden","projectId":"project-0049","createdAt":"2025-12-27T03:44:49.913Z","createdBy":"admin-001","updatedAt":"2025-12-27T03:44:49.913Z"},{"id":"unit-000026","title":{"ar":"بنتهاوس 100 متر - الساحل الشمالي","en":"Penthouse 100 sqm - North Coast"},"location":{"ar":"الساحل الشمالي","en":"North Coast"},"locationId":"north-coast","description":{"ar":"<p>بنتهاوس فاخرة بمساحة 100 متر مربع في الساحل الشمالي. تتميز بتشطيبات عالية الجودة وموقع متميز.</p>","en":"<p>Luxury penthouse with 100 sqm in North Coast. Features high-quality finishes and prime location.</p>"},"price":9700000,"area":100,"bedrooms":3,"bathrooms":1,"type":"penthouse","status":"active","unitStatus":"sold","featured":true,"finishing":"semi-finished","paymentPlans":["cash","3-years"],"features":{"ar":["موقف سيارات","مصعد خاص","أمن 24 ساعة"],"en":["Near Transportation","Private Elevator","Central AC","Private Garden"]},"images":["/uploads/1766635937611-ba380479-d149-4335-a299-bb48282ccfd5.jpg","/uploads/1766797503773-92c16a72-4bf7-4a70-88f6-21abc9415855.jpg","/uploads/1766644120512-c9feca98-1331-4f41-bf53-a3825cddbb50.jpg"],"buildingNumber":"6","floor":"الأرضي","unitNumber":"6071","usableSpace":85,"gardenShare":0,"view":"sea","projectId":"project-0035","createdAt":"2025-12-27T03:44:49.904Z","createdBy":"admin-001","updatedAt":"2025-12-27T03:44:49.904Z"},{"id":"unit-000018","title":{"ar":"توين هاوس 85 متر - العين السخنة","en":"Twin House 85 sqm - Ain Sokhna"},"location":{"ar":"العين السخنة","en":"Ain Sokhna"},"locationId":"ain-sokhna","description":{"ar":"<p>توين هاوس فاخرة بمساحة 85 متر مربع في العين السخنة. تتميز بتشطيبات عالية الجودة وموقع متميز.</p>","en":"<p>Luxury twin house with 85 sqm in Ain Sokhna. Features high-quality finishes and prime location.</p>"},"price":4200000,"area":85,"bedrooms":3,"bathrooms":3,"type":"twin-house","status":"active","unitStatus":"sold","featured":true,"finishing":"core-shell","paymentPlans":["8-years"],"features":{"ar":["قريب من المواصلات","أمن 24 ساعة","تشطيب سوبر لوكس","نادي رياضي"],"en":["24/7 Security","Sea View","Near Transportation","Parking","Gym","Private Garden"]},"images":["/uploads/1766644120510-25bcff8c-5212-43a2-b5e2-12fc8a3cf794.jpg","/uploads/1766797503773-92c16a72-4bf7-4a70-88f6-21abc9415855.jpg","/uploads/1766635937611-ba380479-d149-4335-a299-bb48282ccfd5.jpg","/uploads/1766644392681-f8b78712-22c1-4daf-b8c6-353bcb2651d1.jpg"],"buildingNumber":"40","floor":"الثاني","unitNumber":"1259","usableSpace":72,"gardenShare":0,"view":"","projectId":"project-0014","createdAt":"2025-12-27T03:44:49.891Z","createdBy":"admin-001","updatedAt":"2025-12-27T03:44:49.891Z"},{"id":"unit-000016","title":{"ar":"دوبلكس 256 متر - العاصمة الإدارية","en":"Duplex 256 sqm - New Capital"},"location":{"ar":"العاصمة الإدارية","en":"New Capital"},"locationId":"new-capital","description":{"ar":"<p>دوبلكس فاخرة بمساحة 256 متر مربع في العاصمة الإدارية. تتميز بتشطيبات عالية الجودة وموقع متميز.</p>","en":"<p>Luxury duplex with 256 sqm in New Capital. Features high-quality finishes and prime location.</p>"},"price":7000000,"area":256,"bedrooms":4,"bathrooms":2,"type":"duplex","status":"active","unitStatus":"sold","featured":false,"finishing":"core-shell","paymentPlans":["cash"],"features":{"ar":["قريب من المواصلات","نادي رياضي","موقف سيارات","تشطيب سوبر لوكس","أمن 24 ساعة","حمام سباحة خاص"],"en":["Parking","Premium Finish","Maid Room","Central AC","Gym","Private Pool"]},"images":["/uploads/1766644392681-f8b78712-22c1-4daf-b8c6-353bcb2651d1.jpg","/uploads/1766644392683-f80be205-732f-4692-b953-5db73e48a436.jpg"],"buildingNumber":"40","floor":"السادس","unitNumber":"2512","usableSpace":218,"gardenShare":0,"view":"pool","projectId":"project-0018","createdAt":"2025-12-27T03:44:49.887Z","createdBy":"admin-001","updatedAt":"2025-12-27T03:44:49.887Z"},{"id":"unit-000015","title":{"ar":"شقة 237 متر - التجمع الخامس","en":"Apartment 237 sqm - Fifth Settlement"},"location":{"ar":"التجمع الخامس","en":"Fifth Settlement"},"locationId":"fifth-settlement","description":{"ar":"<p>شقة فاخرة بمساحة 237 متر مربع في التجمع الخامس. تتميز بتشطيبات عالية الجودة وموقع متميز.</p>","en":"<p>Luxury apartment with 237 sqm in Fifth Settlement. Features high-quality finishes and prime location.</p>"},"price":2900000,"area":237,"bedrooms":1,"bathrooms":2,"type":"apartment","status":"active","unitStatus":"sold","featured":false,"finishing":"semi-finished","paymentPlans":["10-years"],"features":{"ar":["تشطيب سوبر لوكس","نادي رياضي","تراس واسع","غرفة خادمة"],"en":["Premium Finish","Parking","Private Pool","Maid Room"]},"images":["/uploads/1766635934210-e6c031d1-fd60-4894-9a7d-083aa9b76af3.jpg","/uploads/1766591416272-7fe0dc19-e41e-4e0a-8f71-03f2430ee559.jpg","/uploads/1766591419114-f09f133e-69aa-4e30-8fcd-8211d1567dd1.jpg","/uploads/1766635937611-ba380479-d149-4335-a299-bb48282ccfd5.jpg"],"buildingNumber":"42","floor":"الأرضي","unitNumber":"5156","usableSpace":201,"gardenShare":0,"view":"","projectId":"project-0035","createdAt":"2025-12-27T03:44:49.886Z","createdBy":"admin-001","updatedAt":"2025-12-27T03:44:49.886Z"},{"id":"unit-000010","title":{"ar":"استوديو 438 متر - مدينتي","en":"Studio 438 sqm - Madinaty"},"location":{"ar":"مدينتي","en":"Madinaty"},"locationId":"madinaty","description":{"ar":"<p>استوديو فاخرة بمساحة 438 متر مربع في مدينتي. تتميز بتشطيبات عالية الجودة وموقع متميز.</p>","en":"<p>Luxury studio with 438 sqm in Madinaty. Features high-quality finishes and prime location.</p>"},"price":6000000,"area":438,"bedrooms":5,"bathrooms":2,"type":"studio","status":"active","unitStatus":"sold","featured":false,"finishing":"semi-finished","paymentPlans":["8-years","3-years","10-years"],"features":{"ar":["موقف سيارات","تراس واسع","إطلالة بحرية","غرفة خادمة","حديقة خاصة","نادي رياضي"],"en":["Large Terrace","Private Elevator","Private Garden"]},"images":["/uploads/1766644120510-25bcff8c-5212-43a2-b5e2-12fc8a3cf794.jpg","/uploads/1766644120503-b8a5285f-a6a2-47a5-832e-6c2ea840abef.jpg","/uploads/1766797522158-3deae7a4-55db-4429-a74d-f12ab9c2a324.jpg"],"buildingNumber":"3","floor":"الثالث","unitNumber":"2648","usableSpace":372,"gardenShare":0,"view":"landscape","projectId":"project-0039","createdAt":"2025-12-27T03:44:49.881Z","createdBy":"admin-001","updatedAt":"2025-12-27T03:44:49.881Z"},{"id":"unit-000009","title":{"ar":"شقة 205 متر - 6 أكتوبر","en":"Apartment 205 sqm - 6th of October"},"location":{"ar":"6 أكتوبر","en":"6th of October"},"locationId":"october-6","description":{"ar":"<p>شقة فاخرة بمساحة 205 متر مربع في 6 أكتوبر. تتميز بتشطيبات عالية الجودة وموقع متميز.</p>","en":"<p>Luxury apartment with 205 sqm in 6th of October. Features high-quality finishes and prime location.</p>"},"price":6300000,"area":205,"bedrooms":5,"bathrooms":6,"type":"apartment","status":"active","unitStatus":"sold","featured":false,"finishing":"finished","paymentPlans":["10-years"],"features":{"ar":["موقف سيارات","قريب من المواصلات","حمام سباحة خاص"],"en":["Near Transportation","Central AC","Parking","Premium Finish","Private Pool","Gym"]},"images":["/uploads/1766644392681-f8b78712-22c1-4daf-b8c6-353bcb2651d1.jpg","/uploads/1766644120512-c9feca98-1331-4f41-bf53-a3825cddbb50.jpg","/uploads/1766591416272-7fe0dc19-e41e-4e0a-8f71-03f2430ee559.jpg","/uploads/1766644120503-b8a5285f-a6a2-47a5-832e-6c2ea840abef.jpg"],"buildingNumber":"12","floor":"الثالث","unitNumber":"435","usableSpace":174,"gardenShare":0,"view":"","projectId":"project-0004","createdAt":"2025-12-27T03:44:49.880Z","createdBy":"admin-001","updatedAt":"2025-12-27T03:44:49.880Z"},{"id":"unit-000004","title":{"ar":"توين هاوس 111 متر - العاصمة الإدارية","en":"Twin House 111 sqm - New Capital"},"location":{"ar":"العاصمة الإدارية","en":"New Capital"},"locationId":"new-capital","description":{"ar":"<p>توين هاوس فاخرة بمساحة 111 متر مربع في العاصمة الإدارية. تتميز بتشطيبات عالية الجودة وموقع متميز.</p>","en":"<p>Luxury twin house with 111 sqm in New Capital. Features high-quality finishes and prime location.</p>"},"price":4300000,"area":111,"bedrooms":6,"bathrooms":3,"type":"twin-house","status":"active","unitStatus":"sold","featured":false,"finishing":"semi-finished","paymentPlans":["cash"],"features":{"ar":["غرفة خادمة","تشطيب سوبر لوكس","تراس واسع"],"en":["Near Transportation","Gym","24/7 Security","Maid Room"]},"images":["/uploads/1766797503773-92c16a72-4bf7-4a70-88f6-21abc9415855.jpg","/uploads/1766635934210-e6c031d1-fd60-4894-9a7d-083aa9b76af3.jpg"],"buildingNumber":"41","floor":"الأول","unitNumber":"4392","usableSpace":94,"gardenShare":0,"view":"landscape","projectId":"project-0037","createdAt":"2025-12-27T03:44:49.875Z","createdBy":"admin-001","updatedAt":"2025-12-27T03:44:49.875Z"},{"id":"unit-000005","title":{"ar":"توين هاوس 354 متر - جولف بورتو مارينا","en":"Twin House 354 sqm - Golf Porto Marina"},"location":{"ar":"جولف بورتو مارينا","en":"Golf Porto Marina"},"locationId":"golf-porto-marina","description":{"ar":"<p>توين هاوس فاخرة بمساحة 354 متر مربع في جولف بورتو مارينا. تتميز بتشطيبات عالية الجودة وموقع متميز.</p>","en":"<p>Luxury twin house with 354 sqm in Golf Porto Marina. Features high-quality finishes and prime location.</p>"},"price":7900000,"area":354,"bedrooms":4,"bathrooms":1,"type":"twin-house","status":"active","unitStatus":"sold","featured":false,"finishing":"core-shell","paymentPlans":["10-years","6-years"],"features":{"ar":["قريب من المواصلات","حمام سباحة خاص","مصعد خاص","إطلالة بحرية","تشطيب سوبر لوكس"],"en":["24/7 Security","Premium Finish","Central AC","Sea View","Private Garden","Large Terrace"]},"images":["/uploads/1766797503773-92c16a72-4bf7-4a70-88f6-21abc9415855.jpg","/uploads/1766644392683-f80be205-732f-4692-b953-5db73e48a436.jpg"],"buildingNumber":"28","floor":"الثالث","unitNumber":"3640","usableSpace":301,"gardenShare":0,"view":"pool","projectId":"project-0046","createdAt":"2025-12-27T03:44:49.875Z","createdBy":"admin-001","updatedAt":"2025-12-27T03:44:49.875Z"},{"id":"unit-000003","title":{"ar":"توين هاوس 172 متر - العاصمة الإدارية","en":"Twin House 172 sqm - New Capital"},"location":{"ar":"العاصمة الإدارية","en":"New Capital"},"locationId":"new-capital","description":{"ar":"<p>توين هاوس فاخرة بمساحة 172 متر مربع في العاصمة الإدارية. تتميز بتشطيبات عالية الجودة وموقع متميز.</p>","en":"<p>Luxury twin house with 172 sqm in New Capital. Features high-quality finishes and prime location.</p>"},"price":7300000,"area":172,"bedrooms":4,"bathrooms":4,"type":"twin-house","status":"active","unitStatus":"sold","featured":false,"finishing":"core-shell","paymentPlans":["6-years","3-years"],"features":{"ar":["قريب من المواصلات","تشطيب سوبر لوكس","إطلالة بحرية","حمام سباحة خاص"],"en":["Gym","Sea View","Premium Finish","Private Garden","Central AC","Private Pool"]},"images":["/uploads/1766644120510-25bcff8c-5212-43a2-b5e2-12fc8a3cf794.jpg"],"buildingNumber":"22","floor":"الأول","unitNumber":"9860","usableSpace":146,"gardenShare":0,"view":"street","projectId":"project-0009","createdAt":"2025-12-27T03:44:49.874Z","createdBy":"admin-001","updatedAt":"2025-12-27T03:44:49.874Z"},{"id":"be684036-8abd-41ee-986e-770ed2267664","title":{"ar":"شاليه 30 متر عمارة 13","en":"Chalet 30 m "},"location":{"ar":"جولف بورتو مارينا","en":"Golf Porto Marina"},"description":{"ar":"<p>شاليه علي الريقر سايد</p>","en":"<p>Porto Golf</p>"},"price":1430000,"area":90,"bedrooms":2,"bathrooms":1,"type":"chalet","status":"active","featured":true,"features":{"ar":["تشطيب سوبر لوكس"],"en":["Premium Finish"]},"images":["/uploads/1766590847252-c1151886-0163-48e7-abe1-4dea0f2f3b68.jpg","/uploads/1766635934210-e6c031d1-fd60-4894-9a7d-083aa9b76af3.jpg","/uploads/1766635937611-ba380479-d149-4335-a299-bb48282ccfd5.jpg"],"createdAt":"2025-12-24T15:41:30.490Z","createdBy":"admin-001","updatedAt":"2025-12-27T02:04:09.548Z","locationId":"golf-porto-marina","projectId":"project-002","unitStatus":"sold","finishing":"finished","paymentPlans":["6-years"],"buildingNumber":"13","floor":"الارضي","unitNumber":"12122","usableSpace":60,"gardenShare":30,"view":"riverside"}],"total":175,"page":9,"limit":20,"totalPages":9,"hasNext":false,"hasPrev":true,"filter":{"status":"active","unitStatus":"sold"},"generatedAt":"2025-12-27T03:44:54.412Z"}