{
  "data": [
    {
      "id": "unit-000460",
      "title": {
        "ar": "استوديو 468 متر - العين السخنة",
        "en": "Studio 468 sqm - Ain Sokhna"
      },
      "location": {
        "ar": "العين السخنة",
        "en": "Ain Sokhna"
      },
      "locationId": "ain-sokhna",
      "description": {
        "ar": "<p>استوديو فاخرة بمساحة 468 متر مربع في العين السخنة. تتميز بتشطيبات عالية الجودة وموقع متميز.</p>",
        "en": "<p>Luxury studio with 468 sqm in Ain Sokhna. Features high-quality finishes and prime location.</p>"
      },
      "price": 5900000,
      "area": 468,
      "bedrooms": 2,
      "bathrooms": 1,
      "type": "studio",
      "status": "active",
      "unitStatus": "available",
      "featured": true,
      "finishing": "finished",
      "paymentPlans": [
        "8-years",
        "6-years",
        "3-years"
      ],
      "features": {
        "ar": [
          "تشطيب سوبر لوكس",
          "حمام سباحة خاص",
          "حديقة خاصة",
          "موقف سيارات",
          "أمن 24 ساعة",
          "مصعد خاص"
        ],
        "en": [
          "Near Transportation",
          "Parking",
          "Private Pool",
          "Private Garden",
          "Gym",
          "Sea View"
        ]
      },
      "images": [
        "/uploads/1766644392682-47488809-ee00-4602-a91f-846ed94e7627.jpg",
        "/uploads/1766590847252-c1151886-0163-48e7-abe1-4dea0f2f3b68.jpg",
        "/uploads/1766797522158-3deae7a4-55db-4429-a74d-f12ab9c2a324.jpg"
      ],
      "buildingNumber": "8",
      "floor": "الثالث",
      "unitNumber": "3690",
      "usableSpace": 398,
      "gardenShare": 0,
      "view": "golf",
      "projectId": "project-0039",
      "createdAt": "2025-12-27T03:44:53.509Z",
      "createdBy": "admin-001",
      "updatedAt": "2025-12-27T03:44:53.509Z"
    },
    {
      "id": "unit-000462",
      "title": {
        "ar": "استوديو 292 متر - مدينتي",
        "en": "Studio 292 sqm - Madinaty"
      },
      "location": {
        "ar": "مدينتي",
        "en": "Madinaty"
      },
      "locationId": "madinaty",
      "description": {
        "ar": "<p>استوديو فاخرة بمساحة 292 متر مربع في مدينتي. تتميز بتشطيبات عالية الجودة وموقع متميز.</p>",
        "en": "<p>Luxury studio with 292 sqm in Madinaty. Features high-quality finishes and prime location.</p>"
      },
      "price": 9200000,
      "area": 292,
      "bedrooms": 2,
      "bathrooms": 1,
      "type": "studio",
      "status": "active",
      "unitStatus": "available",
      "featured": true,
      "finishing": "core-shell",
      "paymentPlans": [
        "6-years"
      ],
      "features": {
        "ar": [
          "تشطيب سوبر لوكس",
          "مصعد خاص",
          "تراس واسع"
        ],
        "en": [
          "Premium Finish",
          "24/7 Security",
          "Large Terrace",
          "Private Pool"
        ]
      },
      "images": [
        "/uploads/1766797522158-3deae7a4-55db-4429-a74d-f12ab9c2a324.jpg",
        "/uploads/1766644120512-c9feca98-1331-4f41-bf53-a3825cddbb50.jpg",
        "/uploads/1766644392682-47488809-ee00-4602-a91f-846ed94e7627.jpg",
        "/uploads/1766644120510-25bcff8c-5212-43a2-b5e2-12fc8a3cf794.jpg"
      ],
      "buildingNumber": "14",
      "floor": "الثاني",
      "unitNumber": "4831",
      "usableSpace": 248,
      "gardenShare": 0,
      "view": "street",
      "projectId": "project-0035",
      "createdAt": "2025-12-27T03:44:53.530Z",
      "createdBy": "admin-001",
      "updatedAt": "2025-12-27T03:44:53.530Z"
    },
    {
      "id": "unit-000471",
      "title": {
        "ar": "فيلا 410 متر - العين السخنة",
        "en": "Villa 410 sqm - Ain Sokhna"
      },
      "location": {
        "ar": "العين السخنة",
        "en": "Ain Sokhna"
      },
      "locationId": "ain-sokhna",
      "description": {
        "ar": "<p>فيلا فاخرة بمساحة 410 متر مربع في العين السخنة. تتميز بتشطيبات عالية الجودة وموقع متميز.</p>",
        "en": "<p>Luxury villa with 410 sqm in Ain Sokhna. Features high-quality finishes and prime location.</p>"
      },
      "price": 6700000,
      "area": 410,
      "bedrooms": 6,
      "bathrooms": 1,
      "type": "villa",
      "status": "active",
      "unitStatus": "available",
      "featured": false,
      "finishing": "core-shell",
      "paymentPlans": [
        "cash",
        "3-years"
      ],
      "features": {
        "ar": [
          "موقف سيارات",
          "تكييف مركزي",
          "حديقة خاصة",
          "قريب من المواصلات",
          "حمام سباحة خاص",
          "إطلالة بحرية"
        ],
        "en": [
          "Sea View",
          "Premium Finish",
          "Private Elevator",
          "Gym",
          "Central AC",
          "Private Pool"
        ]
      },
      "images": [
        "/uploads/1766591419114-f09f133e-69aa-4e30-8fcd-8211d1567dd1.jpg"
      ],
      "buildingNumber": "27",
      "floor": "السادس",
      "unitNumber": "7473",
      "usableSpace": 349,
      "gardenShare": 82,
      "view": "",
      "projectId": "project-0027",
      "createdAt": "2025-12-27T03:44:53.627Z",
      "createdBy": "admin-001",
      "updatedAt": "2025-12-27T03:44:53.627Z"
    },
    {
      "id": "unit-000479",
      "title": {
        "ar": "توين هاوس 314 متر - العاصمة الإدارية",
        "en": "Twin House 314 sqm - New Capital"
      },
      "location": {
        "ar": "العاصمة الإدارية",
        "en": "New Capital"
      },
      "locationId": "new-capital",
      "description": {
        "ar": "<p>توين هاوس فاخرة بمساحة 314 متر مربع في العاصمة الإدارية. تتميز بتشطيبات عالية الجودة وموقع متميز.</p>",
        "en": "<p>Luxury twin house with 314 sqm in New Capital. Features high-quality finishes and prime location.</p>"
      },
      "price": 1000000,
      "area": 314,
      "bedrooms": 5,
      "bathrooms": 6,
      "type": "twin-house",
      "status": "active",
      "unitStatus": "available",
      "featured": false,
      "finishing": "finished",
      "paymentPlans": [
        "cash",
        "3-years",
        "6-years"
      ],
      "features": {
        "ar": [
          "غرفة خادمة",
          "تشطيب سوبر لوكس",
          "قريب من المواصلات",
          "تكييف مركزي",
          "حمام سباحة خاص",
          "نادي رياضي"
        ],
        "en": [
          "Sea View",
          "Gym",
          "Private Garden",
          "Maid Room",
          "Parking",
          "Private Elevator"
        ]
      },
      "images": [
        "/uploads/1766590847252-c1151886-0163-48e7-abe1-4dea0f2f3b68.jpg",
        "/uploads/1766644120503-b8a5285f-a6a2-47a5-832e-6c2ea840abef.jpg",
        "/uploads/1766591416272-7fe0dc19-e41e-4e0a-8f71-03f2430ee559.jpg"
      ],
      "buildingNumber": "27",
      "floor": "الثالث",
      "unitNumber": "5765",
      "usableSpace": 267,
      "gardenShare": 0,
      "view": "pool",
      "projectId": "project-0034",
      "createdAt": "2025-12-27T03:44:53.712Z",
      "createdBy": "admin-001",
      "updatedAt": "2025-12-27T03:44:53.712Z"
    },
    {
      "id": "unit-000483",
      "title": {
        "ar": "دوبلكس 115 متر - الساحل الشمالي",
        "en": "Duplex 115 sqm - North Coast"
      },
      "location": {
        "ar": "الساحل الشمالي",
        "en": "North Coast"
      },
      "locationId": "north-coast",
      "description": {
        "ar": "<p>دوبلكس فاخرة بمساحة 115 متر مربع في الساحل الشمالي. تتميز بتشطيبات عالية الجودة وموقع متميز.</p>",
        "en": "<p>Luxury duplex with 115 sqm in North Coast. Features high-quality finishes and prime location.</p>"
      },
      "price": 1800000,
      "area": 115,
      "bedrooms": 1,
      "bathrooms": 2,
      "type": "duplex",
      "status": "active",
      "unitStatus": "available",
      "featured": false,
      "finishing": "core-shell",
      "paymentPlans": [
        "6-years",
        "10-years",
        "3-years"
      ],
      "features": {
        "ar": [
          "تراس واسع",
          "حمام سباحة خاص",
          "حديقة خاصة",
          "تكييف مركزي"
        ],
        "en": [
          "Gym",
          "24/7 Security",
          "Large Terrace",
          "Private Elevator",
          "Sea View",
          "Central AC"
        ]
      },
      "images": [
        "/uploads/1766590847252-c1151886-0163-48e7-abe1-4dea0f2f3b68.jpg"
      ],
      "buildingNumber": "5",
      "floor": "الثالث",
      "unitNumber": "6733",
      "usableSpace": 98,
      "gardenShare": 0,
      "view": "golf",
      "projectId": "project-0007",
      "createdAt": "2025-12-27T03:44:53.755Z",
      "createdBy": "admin-001",
      "updatedAt": "2025-12-27T03:44:53.755Z"
    },
    {
      "id": "unit-000486",
      "title": {
        "ar": "دوبلكس 252 متر - مدينتي",
        "en": "Duplex 252 sqm - Madinaty"
      },
      "location": {
        "ar": "مدينتي",
        "en": "Madinaty"
      },
      "locationId": "madinaty",
      "description": {
        "ar": "<p>دوبلكس فاخرة بمساحة 252 متر مربع في مدينتي. تتميز بتشطيبات عالية الجودة وموقع متميز.</p>",
        "en": "<p>Luxury duplex with 252 sqm in Madinaty. Features high-quality finishes and prime location.</p>"
      },
      "price": 4300000,
      "area": 252,
      "bedrooms": 3,
      "bathrooms": 1,
      "type": "duplex",
      "status": "active",
      "unitStatus": "available",
      "featured": true,
      "finishing": "semi-finished",
      "paymentPlans": [
        "cash"
      ],
      "features": {
        "ar": [
          "أمن 24 ساعة",
          "تكييف مركزي",
          "قريب من المواصلات",
          "حديقة خاصة",
          "إطلالة بحرية"
        ],
        "en": [
          "Gym",
          "24/7 Security",
          "Large Terrace",
          "Maid Room"
        ]
      },
      "images": [
        "/uploads/1766644120510-25bcff8c-5212-43a2-b5e2-12fc8a3cf794.jpg",
        "/uploads/1766644120512-c9feca98-1331-4f41-bf53-a3825cddbb50.jpg"
      ],
      "buildingNumber": "8",
      "floor": "الخامس",
      "unitNumber": "5087",
      "usableSpace": 214,
      "gardenShare": 0,
      "view": "",
      "projectId": "project-0035",
      "createdAt": "2025-12-27T03:44:53.784Z",
      "createdBy": "admin-001",
      "updatedAt": "2025-12-27T03:44:53.784Z"
    },
    {
      "id": "unit-000490",
      "title": {
        "ar": "استوديو 339 متر - جولف بورتو مارينا",
        "en": "Studio 339 sqm - Golf Porto Marina"
      },
      "location": {
        "ar": "جولف بورتو مارينا",
        "en": "Golf Porto Marina"
      },
      "locationId": "golf-porto-marina",
      "description": {
        "ar": "<p>استوديو فاخرة بمساحة 339 متر مربع في جولف بورتو مارينا. تتميز بتشطيبات عالية الجودة وموقع متميز.</p>",
        "en": "<p>Luxury studio with 339 sqm in Golf Porto Marina. Features high-quality finishes and prime location.</p>"
      },
      "price": 5600000,
      "area": 339,
      "bedrooms": 3,
      "bathrooms": 1,
      "type": "studio",
      "status": "active",
      "unitStatus": "available",
      "featured": false,
      "finishing": "semi-finished",
      "paymentPlans": [
        "10-years",
        "8-years"
      ],
      "features": {
        "ar": [
          "تراس واسع",
          "تشطيب سوبر لوكس",
          "إطلالة بحرية",
          "موقف سيارات",
          "مصعد خاص",
          "أمن 24 ساعة"
        ],
        "en": [
          "Near Transportation",
          "Premium Finish",
          "Maid Room"
        ]
      },
      "images": [
        "/uploads/1766644120503-b8a5285f-a6a2-47a5-832e-6c2ea840abef.jpg",
        "/uploads/1766644392682-47488809-ee00-4602-a91f-846ed94e7627.jpg",
        "/uploads/1766591416272-7fe0dc19-e41e-4e0a-8f71-03f2430ee559.jpg"
      ],
      "buildingNumber": "32",
      "floor": "الأرضي",
      "unitNumber": "8157",
      "usableSpace": 288,
      "gardenShare": 0,
      "view": "landscape",
      "projectId": "project-0014",
      "createdAt": "2025-12-27T03:44:53.827Z",
      "createdBy": "admin-001",
      "updatedAt": "2025-12-27T03:44:53.827Z"
    }
  ],
  "total": 167,
  "page": 9,
  "limit": 20,
  "totalPages": 9,
  "hasNext": false,
  "hasPrev": true,
  "filter": {
    "unitStatus": "available"
  },
  "generatedAt": "2025-12-27T22:58:10.540Z"
}