{
  "data": [
    {
      "id": "news-0089",
      "title": {
        "ar": "تسليم وحدات المرحلة الأولى من مدينتي 89",
        "en": "Delivery of Phase One Units in Madinaty 89"
      },
      "content": {
        "ar": "<p>في خطوة جديدة تؤكد ريادة نيو سيتي في سوق العقارات المصري، أعلنت الشركة عن تسليم وحدات المرحلة الأولى من.</p><p>يأتي هذا في إطار استراتيجية الشركة للتوسع وتلبية احتياجات العملاء المتزايدة.</p><p>تتميز هذه الخطوة بعدة مزايا تشمل الموقع المتميز والتصاميم العصرية والأسعار التنافسية.</p>",
        "en": "<p>In a new step confirming New City's leadership in the Egyptian real estate market, the company announced Delivery of Phase One Units in.</p><p>This comes as part of the company's strategy to expand and meet growing customer needs.</p><p>This step features several advantages including prime location, modern designs, and competitive prices.</p>"
      },
      "excerpt": {
        "ar": "أعلنت شركة نيو سيتي عن تسليم وحدات المرحلة الأولى من في إطار استراتيجية التوسع...",
        "en": "New City announced Delivery of Phase One Units in as part of expansion strategy..."
      },
      "image": "/uploads/1766644120512-c9feca98-1331-4f41-bf53-a3825cddbb50.jpg",
      "category": "projects",
      "status": "published",
      "createdAt": "2025-12-27T03:44:54.144Z",
      "createdBy": "admin-001",
      "updatedAt": "2025-12-27T03:44:54.144Z"
    },
    {
      "id": "news-0093",
      "title": {
        "ar": "افتتاح مرحلة جديدة في مشروع المعادي 93",
        "en": "Opening of New Phase in Project Maadi 93"
      },
      "content": {
        "ar": "<p>في خطوة جديدة تؤكد ريادة نيو سيتي في سوق العقارات المصري، أعلنت الشركة عن افتتاح مرحلة جديدة في مشروع.</p><p>يأتي هذا في إطار استراتيجية الشركة للتوسع وتلبية احتياجات العملاء المتزايدة.</p><p>تتميز هذه الخطوة بعدة مزايا تشمل الموقع المتميز والتصاميم العصرية والأسعار التنافسية.</p>",
        "en": "<p>In a new step confirming New City's leadership in the Egyptian real estate market, the company announced Opening of New Phase in Project.</p><p>This comes as part of the company's strategy to expand and meet growing customer needs.</p><p>This step features several advantages including prime location, modern designs, and competitive prices.</p>"
      },
      "excerpt": {
        "ar": "أعلنت شركة نيو سيتي عن افتتاح مرحلة جديدة في مشروع في إطار استراتيجية التوسع...",
        "en": "New City announced Opening of New Phase in Project as part of expansion strategy..."
      },
      "image": "/uploads/1766644392683-f80be205-732f-4692-b953-5db73e48a436.jpg",
      "category": "projects",
      "status": "published",
      "createdAt": "2025-12-27T03:44:54.163Z",
      "createdBy": "admin-001",
      "updatedAt": "2025-12-27T03:44:54.163Z"
    },
    {
      "id": "news-0096",
      "title": {
        "ar": "إطلاق مشروع سكني جديد في العين السخنة 96",
        "en": "Launch of New Residential Project in Ain Sokhna 96"
      },
      "content": {
        "ar": "<p>في خطوة جديدة تؤكد ريادة نيو سيتي في سوق العقارات المصري، أعلنت الشركة عن إطلاق مشروع سكني جديد في.</p><p>يأتي هذا في إطار استراتيجية الشركة للتوسع وتلبية احتياجات العملاء المتزايدة.</p><p>تتميز هذه الخطوة بعدة مزايا تشمل الموقع المتميز والتصاميم العصرية والأسعار التنافسية.</p>",
        "en": "<p>In a new step confirming New City's leadership in the Egyptian real estate market, the company announced Launch of New Residential Project in.</p><p>This comes as part of the company's strategy to expand and meet growing customer needs.</p><p>This step features several advantages including prime location, modern designs, and competitive prices.</p>"
      },
      "excerpt": {
        "ar": "أعلنت شركة نيو سيتي عن إطلاق مشروع سكني جديد في في إطار استراتيجية التوسع...",
        "en": "New City announced Launch of New Residential Project in as part of expansion strategy..."
      },
      "image": "/uploads/1766644392683-f80be205-732f-4692-b953-5db73e48a436.jpg",
      "category": "projects",
      "status": "published",
      "createdAt": "2025-12-27T03:44:54.177Z",
      "createdBy": "admin-001",
      "updatedAt": "2025-12-27T03:44:54.177Z"
    },
    {
      "id": "news-0099",
      "title": {
        "ar": "تسليم وحدات المرحلة الأولى من الشيخ زايد 99",
        "en": "Delivery of Phase One Units in Sheikh Zayed 99"
      },
      "content": {
        "ar": "<p>في خطوة جديدة تؤكد ريادة نيو سيتي في سوق العقارات المصري، أعلنت الشركة عن تسليم وحدات المرحلة الأولى من.</p><p>يأتي هذا في إطار استراتيجية الشركة للتوسع وتلبية احتياجات العملاء المتزايدة.</p><p>تتميز هذه الخطوة بعدة مزايا تشمل الموقع المتميز والتصاميم العصرية والأسعار التنافسية.</p>",
        "en": "<p>In a new step confirming New City's leadership in the Egyptian real estate market, the company announced Delivery of Phase One Units in.</p><p>This comes as part of the company's strategy to expand and meet growing customer needs.</p><p>This step features several advantages including prime location, modern designs, and competitive prices.</p>"
      },
      "excerpt": {
        "ar": "أعلنت شركة نيو سيتي عن تسليم وحدات المرحلة الأولى من في إطار استراتيجية التوسع...",
        "en": "New City announced Delivery of Phase One Units in as part of expansion strategy..."
      },
      "image": "/uploads/1766797522158-3deae7a4-55db-4429-a74d-f12ab9c2a324.jpg",
      "category": "projects",
      "status": "published",
      "createdAt": "2025-12-27T03:44:54.192Z",
      "createdBy": "admin-001",
      "updatedAt": "2025-12-27T03:44:54.192Z"
    }
  ],
  "total": 24,
  "page": 2,
  "limit": 20,
  "totalPages": 2,
  "hasNext": false,
  "hasPrev": true,
  "filter": {
    "category": "projects"
  },
  "generatedAt": "2025-12-27T22:58:13.830Z"
}