{
  "data": [
    {
      "id": "news-0001",
      "title": {
        "ar": "تسليم وحدات المرحلة الأولى من العين السخنة 1",
        "en": "Delivery of Phase One Units in Ain Sokhna 1"
      },
      "content": {
        "ar": "<p>في خطوة جديدة تؤكد ريادة نيو سيتي في سوق العقارات المصري، أعلنت الشركة عن تسليم وحدات المرحلة الأولى من.</p><p>يأتي هذا في إطار استراتيجية الشركة للتوسع وتلبية احتياجات العملاء المتزايدة.</p><p>تتميز هذه الخطوة بعدة مزايا تشمل الموقع المتميز والتصاميم العصرية والأسعار التنافسية.</p>",
        "en": "<p>In a new step confirming New City's leadership in the Egyptian real estate market, the company announced Delivery of Phase One Units in.</p><p>This comes as part of the company's strategy to expand and meet growing customer needs.</p><p>This step features several advantages including prime location, modern designs, and competitive prices.</p>"
      },
      "excerpt": {
        "ar": "أعلنت شركة نيو سيتي عن تسليم وحدات المرحلة الأولى من في إطار استراتيجية التوسع...",
        "en": "New City announced Delivery of Phase One Units in as part of expansion strategy..."
      },
      "image": "/uploads/1766797503773-92c16a72-4bf7-4a70-88f6-21abc9415855.jpg",
      "category": "projects",
      "status": "published",
      "createdAt": "2025-12-27T03:44:53.943Z",
      "createdBy": "admin-001",
      "updatedAt": "2025-12-27T03:44:53.943Z"
    },
    {
      "id": "news-0005",
      "title": {
        "ar": "تسليم وحدات المرحلة الأولى من الساحل الشمالي 5",
        "en": "Delivery of Phase One Units in North Coast 5"
      },
      "content": {
        "ar": "<p>في خطوة جديدة تؤكد ريادة نيو سيتي في سوق العقارات المصري، أعلنت الشركة عن تسليم وحدات المرحلة الأولى من.</p><p>يأتي هذا في إطار استراتيجية الشركة للتوسع وتلبية احتياجات العملاء المتزايدة.</p><p>تتميز هذه الخطوة بعدة مزايا تشمل الموقع المتميز والتصاميم العصرية والأسعار التنافسية.</p>",
        "en": "<p>In a new step confirming New City's leadership in the Egyptian real estate market, the company announced Delivery of Phase One Units in.</p><p>This comes as part of the company's strategy to expand and meet growing customer needs.</p><p>This step features several advantages including prime location, modern designs, and competitive prices.</p>"
      },
      "excerpt": {
        "ar": "أعلنت شركة نيو سيتي عن تسليم وحدات المرحلة الأولى من في إطار استراتيجية التوسع...",
        "en": "New City announced Delivery of Phase One Units in as part of expansion strategy..."
      },
      "image": "/uploads/1766635937611-ba380479-d149-4335-a299-bb48282ccfd5.jpg",
      "category": "projects",
      "status": "published",
      "createdAt": "2025-12-27T03:44:53.944Z",
      "createdBy": "admin-001",
      "updatedAt": "2025-12-27T03:44:53.944Z"
    },
    {
      "id": "news-001",
      "title": {
        "ar": "افتتاح مرحلة جديدة في مشروع ميفيدا",
        "en": "Opening of New Phase in Mivida Project"
      },
      "content": {
        "ar": "<p>أعلنت شركة إعمار مصر عن افتتاح المرحلة الثالثة من مشروع ميفيدا في التجمع الخامس، والتي تضم وحدات سكنية متنوعة بتصاميم عصرية.</p><p>تتميز هذه المرحلة بموقعها المتميز بالقرب من المنطقة التجارية والخدمات الرئيسية.</p>",
        "en": ""
      },
      "excerpt": {
        "ar": "أعلنت شركة إعمار مصر عن افتتاح المرحلة الثالثة من مشروع ميفيدا...",
        "en": "أعلنت شركة إعمار مصر عن افتتاح المرحلة الثالثة من مشروع ميفيدا..."
      },
      "image": "/uploads/1766591416272-7fe0dc19-e41e-4e0a-8f71-03f2430ee559.jpg",
      "category": "projects",
      "status": "published",
      "createdAt": "2024-02-01T08:00:00.000Z",
      "createdBy": "admin-001",
      "updatedAt": "2025-12-24T15:50:45.248Z"
    },
    {
      "id": "news-0019",
      "title": {
        "ar": "افتتاح مرحلة جديدة في مشروع التجمع الخامس 19",
        "en": "Opening of New Phase in Project Fifth Settlement 19"
      },
      "content": {
        "ar": "<p>في خطوة جديدة تؤكد ريادة نيو سيتي في سوق العقارات المصري، أعلنت الشركة عن افتتاح مرحلة جديدة في مشروع.</p><p>يأتي هذا في إطار استراتيجية الشركة للتوسع وتلبية احتياجات العملاء المتزايدة.</p><p>تتميز هذه الخطوة بعدة مزايا تشمل الموقع المتميز والتصاميم العصرية والأسعار التنافسية.</p>",
        "en": "<p>In a new step confirming New City's leadership in the Egyptian real estate market, the company announced Opening of New Phase in Project.</p><p>This comes as part of the company's strategy to expand and meet growing customer needs.</p><p>This step features several advantages including prime location, modern designs, and competitive prices.</p>"
      },
      "excerpt": {
        "ar": "أعلنت شركة نيو سيتي عن افتتاح مرحلة جديدة في مشروع في إطار استراتيجية التوسع...",
        "en": "New City announced Opening of New Phase in Project as part of expansion strategy..."
      },
      "image": "/uploads/1766591416272-7fe0dc19-e41e-4e0a-8f71-03f2430ee559.jpg",
      "category": "projects",
      "status": "published",
      "createdAt": "2025-12-27T03:44:53.955Z",
      "createdBy": "admin-001",
      "updatedAt": "2025-12-27T03:44:53.955Z"
    },
    {
      "id": "news-0023",
      "title": {
        "ar": "افتتاح مرحلة جديدة في مشروع المعادي 23",
        "en": "Opening of New Phase in Project Maadi 23"
      },
      "content": {
        "ar": "<p>في خطوة جديدة تؤكد ريادة نيو سيتي في سوق العقارات المصري، أعلنت الشركة عن افتتاح مرحلة جديدة في مشروع.</p><p>يأتي هذا في إطار استراتيجية الشركة للتوسع وتلبية احتياجات العملاء المتزايدة.</p><p>تتميز هذه الخطوة بعدة مزايا تشمل الموقع المتميز والتصاميم العصرية والأسعار التنافسية.</p>",
        "en": "<p>In a new step confirming New City's leadership in the Egyptian real estate market, the company announced Opening of New Phase in Project.</p><p>This comes as part of the company's strategy to expand and meet growing customer needs.</p><p>This step features several advantages including prime location, modern designs, and competitive prices.</p>"
      },
      "excerpt": {
        "ar": "أعلنت شركة نيو سيتي عن افتتاح مرحلة جديدة في مشروع في إطار استراتيجية التوسع...",
        "en": "New City announced Opening of New Phase in Project as part of expansion strategy..."
      },
      "image": "/uploads/1766797503773-92c16a72-4bf7-4a70-88f6-21abc9415855.jpg",
      "category": "projects",
      "status": "published",
      "createdAt": "2025-12-27T03:44:53.961Z",
      "createdBy": "admin-001",
      "updatedAt": "2025-12-27T03:44:53.961Z"
    },
    {
      "id": "news-0032",
      "title": {
        "ar": "إطلاق مشروع سكني جديد في العين السخنة 32",
        "en": "Launch of New Residential Project in Ain Sokhna 32"
      },
      "content": {
        "ar": "<p>في خطوة جديدة تؤكد ريادة نيو سيتي في سوق العقارات المصري، أعلنت الشركة عن إطلاق مشروع سكني جديد في.</p><p>يأتي هذا في إطار استراتيجية الشركة للتوسع وتلبية احتياجات العملاء المتزايدة.</p><p>تتميز هذه الخطوة بعدة مزايا تشمل الموقع المتميز والتصاميم العصرية والأسعار التنافسية.</p>",
        "en": "<p>In a new step confirming New City's leadership in the Egyptian real estate market, the company announced Launch of New Residential Project in.</p><p>This comes as part of the company's strategy to expand and meet growing customer needs.</p><p>This step features several advantages including prime location, modern designs, and competitive prices.</p>"
      },
      "excerpt": {
        "ar": "أعلنت شركة نيو سيتي عن إطلاق مشروع سكني جديد في في إطار استراتيجية التوسع...",
        "en": "New City announced Launch of New Residential Project in as part of expansion strategy..."
      },
      "image": "/uploads/1766644392682-47488809-ee00-4602-a91f-846ed94e7627.jpg",
      "category": "projects",
      "status": "published",
      "createdAt": "2025-12-27T03:44:53.974Z",
      "createdBy": "admin-001",
      "updatedAt": "2025-12-27T03:44:53.974Z"
    },
    {
      "id": "news-0040",
      "title": {
        "ar": "افتتاح مرحلة جديدة في مشروع مدينتي 40",
        "en": "Opening of New Phase in Project Madinaty 40"
      },
      "content": {
        "ar": "<p>في خطوة جديدة تؤكد ريادة نيو سيتي في سوق العقارات المصري، أعلنت الشركة عن افتتاح مرحلة جديدة في مشروع.</p><p>يأتي هذا في إطار استراتيجية الشركة للتوسع وتلبية احتياجات العملاء المتزايدة.</p><p>تتميز هذه الخطوة بعدة مزايا تشمل الموقع المتميز والتصاميم العصرية والأسعار التنافسية.</p>",
        "en": "<p>In a new step confirming New City's leadership in the Egyptian real estate market, the company announced Opening of New Phase in Project.</p><p>This comes as part of the company's strategy to expand and meet growing customer needs.</p><p>This step features several advantages including prime location, modern designs, and competitive prices.</p>"
      },
      "excerpt": {
        "ar": "أعلنت شركة نيو سيتي عن افتتاح مرحلة جديدة في مشروع في إطار استراتيجية التوسع...",
        "en": "New City announced Opening of New Phase in Project as part of expansion strategy..."
      },
      "image": "/uploads/1766635937611-ba380479-d149-4335-a299-bb48282ccfd5.jpg",
      "category": "projects",
      "status": "published",
      "createdAt": "2025-12-27T03:44:53.988Z",
      "createdBy": "admin-001",
      "updatedAt": "2025-12-27T03:44:53.988Z"
    },
    {
      "id": "news-0041",
      "title": {
        "ar": "افتتاح مرحلة جديدة في مشروع الشيخ زايد 41",
        "en": "Opening of New Phase in Project Sheikh Zayed 41"
      },
      "content": {
        "ar": "<p>في خطوة جديدة تؤكد ريادة نيو سيتي في سوق العقارات المصري، أعلنت الشركة عن افتتاح مرحلة جديدة في مشروع.</p><p>يأتي هذا في إطار استراتيجية الشركة للتوسع وتلبية احتياجات العملاء المتزايدة.</p><p>تتميز هذه الخطوة بعدة مزايا تشمل الموقع المتميز والتصاميم العصرية والأسعار التنافسية.</p>",
        "en": "<p>In a new step confirming New City's leadership in the Egyptian real estate market, the company announced Opening of New Phase in Project.</p><p>This comes as part of the company's strategy to expand and meet growing customer needs.</p><p>This step features several advantages including prime location, modern designs, and competitive prices.</p>"
      },
      "excerpt": {
        "ar": "أعلنت شركة نيو سيتي عن افتتاح مرحلة جديدة في مشروع في إطار استراتيجية التوسع...",
        "en": "New City announced Opening of New Phase in Project as part of expansion strategy..."
      },
      "image": "/uploads/1766644392682-47488809-ee00-4602-a91f-846ed94e7627.jpg",
      "category": "projects",
      "status": "published",
      "createdAt": "2025-12-27T03:44:53.990Z",
      "createdBy": "admin-001",
      "updatedAt": "2025-12-27T03:44:53.990Z"
    },
    {
      "id": "news-0044",
      "title": {
        "ar": "افتتاح مرحلة جديدة في مشروع مدينتي 44",
        "en": "Opening of New Phase in Project Madinaty 44"
      },
      "content": {
        "ar": "<p>في خطوة جديدة تؤكد ريادة نيو سيتي في سوق العقارات المصري، أعلنت الشركة عن افتتاح مرحلة جديدة في مشروع.</p><p>يأتي هذا في إطار استراتيجية الشركة للتوسع وتلبية احتياجات العملاء المتزايدة.</p><p>تتميز هذه الخطوة بعدة مزايا تشمل الموقع المتميز والتصاميم العصرية والأسعار التنافسية.</p>",
        "en": "<p>In a new step confirming New City's leadership in the Egyptian real estate market, the company announced Opening of New Phase in Project.</p><p>This comes as part of the company's strategy to expand and meet growing customer needs.</p><p>This step features several advantages including prime location, modern designs, and competitive prices.</p>"
      },
      "excerpt": {
        "ar": "أعلنت شركة نيو سيتي عن افتتاح مرحلة جديدة في مشروع في إطار استراتيجية التوسع...",
        "en": "New City announced Opening of New Phase in Project as part of expansion strategy..."
      },
      "image": "/uploads/1766644392681-f8b78712-22c1-4daf-b8c6-353bcb2651d1.jpg",
      "category": "projects",
      "status": "published",
      "createdAt": "2025-12-27T03:44:53.997Z",
      "createdBy": "admin-001",
      "updatedAt": "2025-12-27T03:44:53.997Z"
    },
    {
      "id": "news-0048",
      "title": {
        "ar": "افتتاح مرحلة جديدة في مشروع مدينتي 48",
        "en": "Opening of New Phase in Project Madinaty 48"
      },
      "content": {
        "ar": "<p>في خطوة جديدة تؤكد ريادة نيو سيتي في سوق العقارات المصري، أعلنت الشركة عن افتتاح مرحلة جديدة في مشروع.</p><p>يأتي هذا في إطار استراتيجية الشركة للتوسع وتلبية احتياجات العملاء المتزايدة.</p><p>تتميز هذه الخطوة بعدة مزايا تشمل الموقع المتميز والتصاميم العصرية والأسعار التنافسية.</p>",
        "en": "<p>In a new step confirming New City's leadership in the Egyptian real estate market, the company announced Opening of New Phase in Project.</p><p>This comes as part of the company's strategy to expand and meet growing customer needs.</p><p>This step features several advantages including prime location, modern designs, and competitive prices.</p>"
      },
      "excerpt": {
        "ar": "أعلنت شركة نيو سيتي عن افتتاح مرحلة جديدة في مشروع في إطار استراتيجية التوسع...",
        "en": "New City announced Opening of New Phase in Project as part of expansion strategy..."
      },
      "image": "/uploads/1766591416272-7fe0dc19-e41e-4e0a-8f71-03f2430ee559.jpg",
      "category": "projects",
      "status": "published",
      "createdAt": "2025-12-27T03:44:54.005Z",
      "createdBy": "admin-001",
      "updatedAt": "2025-12-27T03:44:54.005Z"
    },
    {
      "id": "news-0050",
      "title": {
        "ar": "إطلاق مشروع سكني جديد في مدينتي 50",
        "en": "Launch of New Residential Project in Madinaty 50"
      },
      "content": {
        "ar": "<p>في خطوة جديدة تؤكد ريادة نيو سيتي في سوق العقارات المصري، أعلنت الشركة عن إطلاق مشروع سكني جديد في.</p><p>يأتي هذا في إطار استراتيجية الشركة للتوسع وتلبية احتياجات العملاء المتزايدة.</p><p>تتميز هذه الخطوة بعدة مزايا تشمل الموقع المتميز والتصاميم العصرية والأسعار التنافسية.</p>",
        "en": "<p>In a new step confirming New City's leadership in the Egyptian real estate market, the company announced Launch of New Residential Project in.</p><p>This comes as part of the company's strategy to expand and meet growing customer needs.</p><p>This step features several advantages including prime location, modern designs, and competitive prices.</p>"
      },
      "excerpt": {
        "ar": "أعلنت شركة نيو سيتي عن إطلاق مشروع سكني جديد في في إطار استراتيجية التوسع...",
        "en": "New City announced Launch of New Residential Project in as part of expansion strategy..."
      },
      "image": "/uploads/1766797522158-3deae7a4-55db-4429-a74d-f12ab9c2a324.jpg",
      "category": "projects",
      "status": "published",
      "createdAt": "2025-12-27T03:44:54.010Z",
      "createdBy": "admin-001",
      "updatedAt": "2025-12-27T03:44:54.010Z"
    },
    {
      "id": "news-0052",
      "title": {
        "ar": "تسليم وحدات المرحلة الأولى من العين السخنة 52",
        "en": "Delivery of Phase One Units in Ain Sokhna 52"
      },
      "content": {
        "ar": "<p>في خطوة جديدة تؤكد ريادة نيو سيتي في سوق العقارات المصري، أعلنت الشركة عن تسليم وحدات المرحلة الأولى من.</p><p>يأتي هذا في إطار استراتيجية الشركة للتوسع وتلبية احتياجات العملاء المتزايدة.</p><p>تتميز هذه الخطوة بعدة مزايا تشمل الموقع المتميز والتصاميم العصرية والأسعار التنافسية.</p>",
        "en": "<p>In a new step confirming New City's leadership in the Egyptian real estate market, the company announced Delivery of Phase One Units in.</p><p>This comes as part of the company's strategy to expand and meet growing customer needs.</p><p>This step features several advantages including prime location, modern designs, and competitive prices.</p>"
      },
      "excerpt": {
        "ar": "أعلنت شركة نيو سيتي عن تسليم وحدات المرحلة الأولى من في إطار استراتيجية التوسع...",
        "en": "New City announced Delivery of Phase One Units in as part of expansion strategy..."
      },
      "image": "/uploads/1766644120510-25bcff8c-5212-43a2-b5e2-12fc8a3cf794.jpg",
      "category": "projects",
      "status": "published",
      "createdAt": "2025-12-27T03:44:54.014Z",
      "createdBy": "admin-001",
      "updatedAt": "2025-12-27T03:44:54.014Z"
    },
    {
      "id": "news-0059",
      "title": {
        "ar": "تسليم وحدات المرحلة الأولى من العاصمة الإدارية 59",
        "en": "Delivery of Phase One Units in New Capital 59"
      },
      "content": {
        "ar": "<p>في خطوة جديدة تؤكد ريادة نيو سيتي في سوق العقارات المصري، أعلنت الشركة عن تسليم وحدات المرحلة الأولى من.</p><p>يأتي هذا في إطار استراتيجية الشركة للتوسع وتلبية احتياجات العملاء المتزايدة.</p><p>تتميز هذه الخطوة بعدة مزايا تشمل الموقع المتميز والتصاميم العصرية والأسعار التنافسية.</p>",
        "en": "<p>In a new step confirming New City's leadership in the Egyptian real estate market, the company announced Delivery of Phase One Units in.</p><p>This comes as part of the company's strategy to expand and meet growing customer needs.</p><p>This step features several advantages including prime location, modern designs, and competitive prices.</p>"
      },
      "excerpt": {
        "ar": "أعلنت شركة نيو سيتي عن تسليم وحدات المرحلة الأولى من في إطار استراتيجية التوسع...",
        "en": "New City announced Delivery of Phase One Units in as part of expansion strategy..."
      },
      "image": "/uploads/1766797503773-92c16a72-4bf7-4a70-88f6-21abc9415855.jpg",
      "category": "projects",
      "status": "published",
      "createdAt": "2025-12-27T03:44:54.032Z",
      "createdBy": "admin-001",
      "updatedAt": "2025-12-27T03:44:54.032Z"
    },
    {
      "id": "news-0067",
      "title": {
        "ar": "افتتاح مرحلة جديدة في مشروع الساحل الشمالي 67",
        "en": "Opening of New Phase in Project North Coast 67"
      },
      "content": {
        "ar": "<p>في خطوة جديدة تؤكد ريادة نيو سيتي في سوق العقارات المصري، أعلنت الشركة عن افتتاح مرحلة جديدة في مشروع.</p><p>يأتي هذا في إطار استراتيجية الشركة للتوسع وتلبية احتياجات العملاء المتزايدة.</p><p>تتميز هذه الخطوة بعدة مزايا تشمل الموقع المتميز والتصاميم العصرية والأسعار التنافسية.</p>",
        "en": "<p>In a new step confirming New City's leadership in the Egyptian real estate market, the company announced Opening of New Phase in Project.</p><p>This comes as part of the company's strategy to expand and meet growing customer needs.</p><p>This step features several advantages including prime location, modern designs, and competitive prices.</p>"
      },
      "excerpt": {
        "ar": "أعلنت شركة نيو سيتي عن افتتاح مرحلة جديدة في مشروع في إطار استراتيجية التوسع...",
        "en": "New City announced Opening of New Phase in Project as part of expansion strategy..."
      },
      "image": "/uploads/1766591416272-7fe0dc19-e41e-4e0a-8f71-03f2430ee559.jpg",
      "category": "projects",
      "status": "published",
      "createdAt": "2025-12-27T03:44:54.055Z",
      "createdBy": "admin-001",
      "updatedAt": "2025-12-27T03:44:54.055Z"
    },
    {
      "id": "news-0068",
      "title": {
        "ar": "إطلاق مشروع سكني جديد في المعادي 68",
        "en": "Launch of New Residential Project in Maadi 68"
      },
      "content": {
        "ar": "<p>في خطوة جديدة تؤكد ريادة نيو سيتي في سوق العقارات المصري، أعلنت الشركة عن إطلاق مشروع سكني جديد في.</p><p>يأتي هذا في إطار استراتيجية الشركة للتوسع وتلبية احتياجات العملاء المتزايدة.</p><p>تتميز هذه الخطوة بعدة مزايا تشمل الموقع المتميز والتصاميم العصرية والأسعار التنافسية.</p>",
        "en": "<p>In a new step confirming New City's leadership in the Egyptian real estate market, the company announced Launch of New Residential Project in.</p><p>This comes as part of the company's strategy to expand and meet growing customer needs.</p><p>This step features several advantages including prime location, modern designs, and competitive prices.</p>"
      },
      "excerpt": {
        "ar": "أعلنت شركة نيو سيتي عن إطلاق مشروع سكني جديد في في إطار استراتيجية التوسع...",
        "en": "New City announced Launch of New Residential Project in as part of expansion strategy..."
      },
      "image": "/uploads/1766644120512-c9feca98-1331-4f41-bf53-a3825cddbb50.jpg",
      "category": "projects",
      "status": "published",
      "createdAt": "2025-12-27T03:44:54.059Z",
      "createdBy": "admin-001",
      "updatedAt": "2025-12-27T03:44:54.059Z"
    },
    {
      "id": "news-0072",
      "title": {
        "ar": "افتتاح مرحلة جديدة في مشروع 6 أكتوبر 72",
        "en": "Opening of New Phase in Project 6th of October 72"
      },
      "content": {
        "ar": "<p>في خطوة جديدة تؤكد ريادة نيو سيتي في سوق العقارات المصري، أعلنت الشركة عن افتتاح مرحلة جديدة في مشروع.</p><p>يأتي هذا في إطار استراتيجية الشركة للتوسع وتلبية احتياجات العملاء المتزايدة.</p><p>تتميز هذه الخطوة بعدة مزايا تشمل الموقع المتميز والتصاميم العصرية والأسعار التنافسية.</p>",
        "en": "<p>In a new step confirming New City's leadership in the Egyptian real estate market, the company announced Opening of New Phase in Project.</p><p>This comes as part of the company's strategy to expand and meet growing customer needs.</p><p>This step features several advantages including prime location, modern designs, and competitive prices.</p>"
      },
      "excerpt": {
        "ar": "أعلنت شركة نيو سيتي عن افتتاح مرحلة جديدة في مشروع في إطار استراتيجية التوسع...",
        "en": "New City announced Opening of New Phase in Project as part of expansion strategy..."
      },
      "image": "/uploads/1766635934210-e6c031d1-fd60-4894-9a7d-083aa9b76af3.jpg",
      "category": "projects",
      "status": "published",
      "createdAt": "2025-12-27T03:44:54.071Z",
      "createdBy": "admin-001",
      "updatedAt": "2025-12-27T03:44:54.071Z"
    },
    {
      "id": "news-0081",
      "title": {
        "ar": "إطلاق مشروع سكني جديد في مدينتي 81",
        "en": "Launch of New Residential Project in Madinaty 81"
      },
      "content": {
        "ar": "<p>في خطوة جديدة تؤكد ريادة نيو سيتي في سوق العقارات المصري، أعلنت الشركة عن إطلاق مشروع سكني جديد في.</p><p>يأتي هذا في إطار استراتيجية الشركة للتوسع وتلبية احتياجات العملاء المتزايدة.</p><p>تتميز هذه الخطوة بعدة مزايا تشمل الموقع المتميز والتصاميم العصرية والأسعار التنافسية.</p>",
        "en": "<p>In a new step confirming New City's leadership in the Egyptian real estate market, the company announced Launch of New Residential Project in.</p><p>This comes as part of the company's strategy to expand and meet growing customer needs.</p><p>This step features several advantages including prime location, modern designs, and competitive prices.</p>"
      },
      "excerpt": {
        "ar": "أعلنت شركة نيو سيتي عن إطلاق مشروع سكني جديد في في إطار استراتيجية التوسع...",
        "en": "New City announced Launch of New Residential Project in as part of expansion strategy..."
      },
      "image": "/uploads/1766797503773-92c16a72-4bf7-4a70-88f6-21abc9415855.jpg",
      "category": "projects",
      "status": "published",
      "createdAt": "2025-12-27T03:44:54.106Z",
      "createdBy": "admin-001",
      "updatedAt": "2025-12-27T03:44:54.106Z"
    },
    {
      "id": "news-0083",
      "title": {
        "ar": "تسليم وحدات المرحلة الأولى من الشيخ زايد 83",
        "en": "Delivery of Phase One Units in Sheikh Zayed 83"
      },
      "content": {
        "ar": "<p>في خطوة جديدة تؤكد ريادة نيو سيتي في سوق العقارات المصري، أعلنت الشركة عن تسليم وحدات المرحلة الأولى من.</p><p>يأتي هذا في إطار استراتيجية الشركة للتوسع وتلبية احتياجات العملاء المتزايدة.</p><p>تتميز هذه الخطوة بعدة مزايا تشمل الموقع المتميز والتصاميم العصرية والأسعار التنافسية.</p>",
        "en": "<p>In a new step confirming New City's leadership in the Egyptian real estate market, the company announced Delivery of Phase One Units in.</p><p>This comes as part of the company's strategy to expand and meet growing customer needs.</p><p>This step features several advantages including prime location, modern designs, and competitive prices.</p>"
      },
      "excerpt": {
        "ar": "أعلنت شركة نيو سيتي عن تسليم وحدات المرحلة الأولى من في إطار استراتيجية التوسع...",
        "en": "New City announced Delivery of Phase One Units in as part of expansion strategy..."
      },
      "image": "/uploads/1766644392681-f8b78712-22c1-4daf-b8c6-353bcb2651d1.jpg",
      "category": "projects",
      "status": "published",
      "createdAt": "2025-12-27T03:44:54.115Z",
      "createdBy": "admin-001",
      "updatedAt": "2025-12-27T03:44:54.115Z"
    },
    {
      "id": "news-0084",
      "title": {
        "ar": "تسليم وحدات المرحلة الأولى من مدينتي 84",
        "en": "Delivery of Phase One Units in Madinaty 84"
      },
      "content": {
        "ar": "<p>في خطوة جديدة تؤكد ريادة نيو سيتي في سوق العقارات المصري، أعلنت الشركة عن تسليم وحدات المرحلة الأولى من.</p><p>يأتي هذا في إطار استراتيجية الشركة للتوسع وتلبية احتياجات العملاء المتزايدة.</p><p>تتميز هذه الخطوة بعدة مزايا تشمل الموقع المتميز والتصاميم العصرية والأسعار التنافسية.</p>",
        "en": "<p>In a new step confirming New City's leadership in the Egyptian real estate market, the company announced Delivery of Phase One Units in.</p><p>This comes as part of the company's strategy to expand and meet growing customer needs.</p><p>This step features several advantages including prime location, modern designs, and competitive prices.</p>"
      },
      "excerpt": {
        "ar": "أعلنت شركة نيو سيتي عن تسليم وحدات المرحلة الأولى من في إطار استراتيجية التوسع...",
        "en": "New City announced Delivery of Phase One Units in as part of expansion strategy..."
      },
      "image": "/uploads/1766644120503-b8a5285f-a6a2-47a5-832e-6c2ea840abef.jpg",
      "category": "projects",
      "status": "published",
      "createdAt": "2025-12-27T03:44:54.119Z",
      "createdBy": "admin-001",
      "updatedAt": "2025-12-27T03:44:54.119Z"
    },
    {
      "id": "news-0087",
      "title": {
        "ar": "إطلاق مشروع سكني جديد في العين السخنة 87",
        "en": "Launch of New Residential Project in Ain Sokhna 87"
      },
      "content": {
        "ar": "<p>في خطوة جديدة تؤكد ريادة نيو سيتي في سوق العقارات المصري، أعلنت الشركة عن إطلاق مشروع سكني جديد في.</p><p>يأتي هذا في إطار استراتيجية الشركة للتوسع وتلبية احتياجات العملاء المتزايدة.</p><p>تتميز هذه الخطوة بعدة مزايا تشمل الموقع المتميز والتصاميم العصرية والأسعار التنافسية.</p>",
        "en": "<p>In a new step confirming New City's leadership in the Egyptian real estate market, the company announced Launch of New Residential Project in.</p><p>This comes as part of the company's strategy to expand and meet growing customer needs.</p><p>This step features several advantages including prime location, modern designs, and competitive prices.</p>"
      },
      "excerpt": {
        "ar": "أعلنت شركة نيو سيتي عن إطلاق مشروع سكني جديد في في إطار استراتيجية التوسع...",
        "en": "New City announced Launch of New Residential Project in as part of expansion strategy..."
      },
      "image": "/uploads/1766644120510-25bcff8c-5212-43a2-b5e2-12fc8a3cf794.jpg",
      "category": "projects",
      "status": "published",
      "createdAt": "2025-12-27T03:44:54.135Z",
      "createdBy": "admin-001",
      "updatedAt": "2025-12-27T03:44:54.135Z"
    }
  ],
  "total": 24,
  "page": 1,
  "limit": 20,
  "totalPages": 2,
  "hasNext": true,
  "hasPrev": false,
  "filter": {
    "category": "projects"
  },
  "generatedAt": "2025-12-27T22:58:13.824Z"
}