{
  "data": [
    {
      "id": "unit-000470",
      "title": {
        "ar": "توين هاوس 266 متر - العين السخنة",
        "en": "Twin House 266 sqm - Ain Sokhna"
      },
      "location": {
        "ar": "العين السخنة",
        "en": "Ain Sokhna"
      },
      "locationId": "ain-sokhna",
      "description": {
        "ar": "<p>توين هاوس فاخرة بمساحة 266 متر مربع في العين السخنة. تتميز بتشطيبات عالية الجودة وموقع متميز.</p>",
        "en": "<p>Luxury twin house with 266 sqm in Ain Sokhna. Features high-quality finishes and prime location.</p>"
      },
      "price": 7300000,
      "area": 266,
      "bedrooms": 3,
      "bathrooms": 4,
      "type": "twin-house",
      "status": "active",
      "unitStatus": "reserved",
      "featured": true,
      "finishing": "semi-finished",
      "paymentPlans": [
        "6-years"
      ],
      "features": {
        "ar": [
          "غرفة خادمة",
          "مصعد خاص",
          "تشطيب سوبر لوكس",
          "حمام سباحة خاص",
          "حديقة خاصة",
          "تكييف مركزي"
        ],
        "en": [
          "Sea View",
          "Private Garden",
          "Maid Room",
          "Private Pool",
          "24/7 Security",
          "Private Elevator"
        ]
      },
      "images": [
        "/uploads/1766644120510-25bcff8c-5212-43a2-b5e2-12fc8a3cf794.jpg",
        "/uploads/1766644120512-c9feca98-1331-4f41-bf53-a3825cddbb50.jpg",
        "/uploads/1766590847252-c1151886-0163-48e7-abe1-4dea0f2f3b68.jpg",
        "/uploads/1766591416272-7fe0dc19-e41e-4e0a-8f71-03f2430ee559.jpg"
      ],
      "buildingNumber": "27",
      "floor": "الخامس",
      "unitNumber": "3823",
      "usableSpace": 226,
      "gardenShare": 0,
      "view": "pool",
      "projectId": "project-0017",
      "createdAt": "2025-12-27T03:44:53.617Z",
      "createdBy": "admin-001",
      "updatedAt": "2025-12-27T03:44:53.617Z"
    },
    {
      "id": "unit-000477",
      "title": {
        "ar": "توين هاوس 222 متر - 6 أكتوبر",
        "en": "Twin House 222 sqm - 6th of October"
      },
      "location": {
        "ar": "6 أكتوبر",
        "en": "6th of October"
      },
      "locationId": "october-6",
      "description": {
        "ar": "<p>توين هاوس فاخرة بمساحة 222 متر مربع في 6 أكتوبر. تتميز بتشطيبات عالية الجودة وموقع متميز.</p>",
        "en": "<p>Luxury twin house with 222 sqm in 6th of October. Features high-quality finishes and prime location.</p>"
      },
      "price": 1800000,
      "area": 222,
      "bedrooms": 2,
      "bathrooms": 3,
      "type": "twin-house",
      "status": "active",
      "unitStatus": "sold",
      "featured": false,
      "finishing": "finished",
      "paymentPlans": [
        "3-years"
      ],
      "features": {
        "ar": [
          "نادي رياضي",
          "إطلالة بحرية",
          "تكييف مركزي"
        ],
        "en": [
          "Premium Finish",
          "Private Elevator",
          "Private Pool",
          "24/7 Security",
          "Private Garden",
          "Large Terrace"
        ]
      },
      "images": [
        "/uploads/1766644392683-f80be205-732f-4692-b953-5db73e48a436.jpg",
        "/uploads/1766644120503-b8a5285f-a6a2-47a5-832e-6c2ea840abef.jpg"
      ],
      "buildingNumber": "37",
      "floor": "الأرضي",
      "unitNumber": "2833",
      "usableSpace": 189,
      "gardenShare": 0,
      "view": "street",
      "projectId": "project-0006",
      "createdAt": "2025-12-27T03:44:53.689Z",
      "createdBy": "admin-001",
      "updatedAt": "2025-12-27T03:44:53.689Z"
    },
    {
      "id": "unit-000479",
      "title": {
        "ar": "توين هاوس 314 متر - العاصمة الإدارية",
        "en": "Twin House 314 sqm - New Capital"
      },
      "location": {
        "ar": "العاصمة الإدارية",
        "en": "New Capital"
      },
      "locationId": "new-capital",
      "description": {
        "ar": "<p>توين هاوس فاخرة بمساحة 314 متر مربع في العاصمة الإدارية. تتميز بتشطيبات عالية الجودة وموقع متميز.</p>",
        "en": "<p>Luxury twin house with 314 sqm in New Capital. Features high-quality finishes and prime location.</p>"
      },
      "price": 1000000,
      "area": 314,
      "bedrooms": 5,
      "bathrooms": 6,
      "type": "twin-house",
      "status": "active",
      "unitStatus": "available",
      "featured": false,
      "finishing": "finished",
      "paymentPlans": [
        "cash",
        "3-years",
        "6-years"
      ],
      "features": {
        "ar": [
          "غرفة خادمة",
          "تشطيب سوبر لوكس",
          "قريب من المواصلات",
          "تكييف مركزي",
          "حمام سباحة خاص",
          "نادي رياضي"
        ],
        "en": [
          "Sea View",
          "Gym",
          "Private Garden",
          "Maid Room",
          "Parking",
          "Private Elevator"
        ]
      },
      "images": [
        "/uploads/1766590847252-c1151886-0163-48e7-abe1-4dea0f2f3b68.jpg",
        "/uploads/1766644120503-b8a5285f-a6a2-47a5-832e-6c2ea840abef.jpg",
        "/uploads/1766591416272-7fe0dc19-e41e-4e0a-8f71-03f2430ee559.jpg"
      ],
      "buildingNumber": "27",
      "floor": "الثالث",
      "unitNumber": "5765",
      "usableSpace": 267,
      "gardenShare": 0,
      "view": "pool",
      "projectId": "project-0034",
      "createdAt": "2025-12-27T03:44:53.712Z",
      "createdBy": "admin-001",
      "updatedAt": "2025-12-27T03:44:53.712Z"
    }
  ],
  "total": 63,
  "page": 4,
  "limit": 20,
  "totalPages": 4,
  "hasNext": false,
  "hasPrev": true,
  "filter": {
    "type": "twin-house"
  },
  "generatedAt": "2025-12-27T22:58:08.747Z"
}