{
  "data": [
    {
      "id": "news-0071",
      "title": {
        "ar": "توسعات جديدة لشركة نيو سيتي الرحاب 71",
        "en": "New City Announces Expansion Rehab City 71"
      },
      "content": {
        "ar": "<p>في خطوة جديدة تؤكد ريادة نيو سيتي في سوق العقارات المصري، أعلنت الشركة عن توسعات جديدة لشركة نيو سيتي.</p><p>يأتي هذا في إطار استراتيجية الشركة للتوسع وتلبية احتياجات العملاء المتزايدة.</p><p>تتميز هذه الخطوة بعدة مزايا تشمل الموقع المتميز والتصاميم العصرية والأسعار التنافسية.</p>",
        "en": "<p>In a new step confirming New City's leadership in the Egyptian real estate market, the company announced New City Announces Expansion.</p><p>This comes as part of the company's strategy to expand and meet growing customer needs.</p><p>This step features several advantages including prime location, modern designs, and competitive prices.</p>"
      },
      "excerpt": {
        "ar": "أعلنت شركة نيو سيتي عن توسعات جديدة لشركة نيو سيتي في إطار استراتيجية التوسع...",
        "en": "New City announced New City Announces Expansion as part of expansion strategy..."
      },
      "image": "/uploads/1766644392682-47488809-ee00-4602-a91f-846ed94e7627.jpg",
      "category": "company",
      "status": "published",
      "createdAt": "2025-12-27T03:44:54.068Z",
      "createdBy": "admin-001",
      "updatedAt": "2025-12-27T03:44:54.068Z"
    },
    {
      "id": "news-0073",
      "title": {
        "ar": "نيو سيتي تحقق رقماً قياسياً في المبيعات الشيخ زايد 73",
        "en": "New City Achieves Record Sales Sheikh Zayed 73"
      },
      "content": {
        "ar": "<p>في خطوة جديدة تؤكد ريادة نيو سيتي في سوق العقارات المصري، أعلنت الشركة عن نيو سيتي تحقق رقماً قياسياً في المبيعات.</p><p>يأتي هذا في إطار استراتيجية الشركة للتوسع وتلبية احتياجات العملاء المتزايدة.</p><p>تتميز هذه الخطوة بعدة مزايا تشمل الموقع المتميز والتصاميم العصرية والأسعار التنافسية.</p>",
        "en": "<p>In a new step confirming New City's leadership in the Egyptian real estate market, the company announced New City Achieves Record Sales.</p><p>This comes as part of the company's strategy to expand and meet growing customer needs.</p><p>This step features several advantages including prime location, modern designs, and competitive prices.</p>"
      },
      "excerpt": {
        "ar": "أعلنت شركة نيو سيتي عن نيو سيتي تحقق رقماً قياسياً في المبيعات في إطار استراتيجية التوسع...",
        "en": "New City announced New City Achieves Record Sales as part of expansion strategy..."
      },
      "image": "/uploads/1766635934210-e6c031d1-fd60-4894-9a7d-083aa9b76af3.jpg",
      "category": "company",
      "status": "published",
      "createdAt": "2025-12-27T03:44:54.074Z",
      "createdBy": "admin-001",
      "updatedAt": "2025-12-27T03:44:54.074Z"
    },
    {
      "id": "news-0075",
      "title": {
        "ar": "توسعات جديدة لشركة نيو سيتي الشيخ زايد 75",
        "en": "New City Announces Expansion Sheikh Zayed 75"
      },
      "content": {
        "ar": "<p>في خطوة جديدة تؤكد ريادة نيو سيتي في سوق العقارات المصري، أعلنت الشركة عن توسعات جديدة لشركة نيو سيتي.</p><p>يأتي هذا في إطار استراتيجية الشركة للتوسع وتلبية احتياجات العملاء المتزايدة.</p><p>تتميز هذه الخطوة بعدة مزايا تشمل الموقع المتميز والتصاميم العصرية والأسعار التنافسية.</p>",
        "en": "<p>In a new step confirming New City's leadership in the Egyptian real estate market, the company announced New City Announces Expansion.</p><p>This comes as part of the company's strategy to expand and meet growing customer needs.</p><p>This step features several advantages including prime location, modern designs, and competitive prices.</p>"
      },
      "excerpt": {
        "ar": "أعلنت شركة نيو سيتي عن توسعات جديدة لشركة نيو سيتي في إطار استراتيجية التوسع...",
        "en": "New City announced New City Announces Expansion as part of expansion strategy..."
      },
      "image": "/uploads/1766635937611-ba380479-d149-4335-a299-bb48282ccfd5.jpg",
      "category": "company",
      "status": "published",
      "createdAt": "2025-12-27T03:44:54.081Z",
      "createdBy": "admin-001",
      "updatedAt": "2025-12-27T03:44:54.081Z"
    },
    {
      "id": "news-0076",
      "title": {
        "ar": "شراكة استراتيجية جديدة الشيخ زايد 76",
        "en": "New Strategic Partnership Sheikh Zayed 76"
      },
      "content": {
        "ar": "<p>في خطوة جديدة تؤكد ريادة نيو سيتي في سوق العقارات المصري، أعلنت الشركة عن شراكة استراتيجية جديدة.</p><p>يأتي هذا في إطار استراتيجية الشركة للتوسع وتلبية احتياجات العملاء المتزايدة.</p><p>تتميز هذه الخطوة بعدة مزايا تشمل الموقع المتميز والتصاميم العصرية والأسعار التنافسية.</p>",
        "en": "<p>In a new step confirming New City's leadership in the Egyptian real estate market, the company announced New Strategic Partnership.</p><p>This comes as part of the company's strategy to expand and meet growing customer needs.</p><p>This step features several advantages including prime location, modern designs, and competitive prices.</p>"
      },
      "excerpt": {
        "ar": "أعلنت شركة نيو سيتي عن شراكة استراتيجية جديدة في إطار استراتيجية التوسع...",
        "en": "New City announced New Strategic Partnership as part of expansion strategy..."
      },
      "image": "/uploads/1766644120503-b8a5285f-a6a2-47a5-832e-6c2ea840abef.jpg",
      "category": "company",
      "status": "published",
      "createdAt": "2025-12-27T03:44:54.085Z",
      "createdBy": "admin-001",
      "updatedAt": "2025-12-27T03:44:54.085Z"
    },
    {
      "id": "news-0079",
      "title": {
        "ar": "توسعات جديدة لشركة نيو سيتي العاصمة الإدارية 79",
        "en": "New City Announces Expansion New Capital 79"
      },
      "content": {
        "ar": "<p>في خطوة جديدة تؤكد ريادة نيو سيتي في سوق العقارات المصري، أعلنت الشركة عن توسعات جديدة لشركة نيو سيتي.</p><p>يأتي هذا في إطار استراتيجية الشركة للتوسع وتلبية احتياجات العملاء المتزايدة.</p><p>تتميز هذه الخطوة بعدة مزايا تشمل الموقع المتميز والتصاميم العصرية والأسعار التنافسية.</p>",
        "en": "<p>In a new step confirming New City's leadership in the Egyptian real estate market, the company announced New City Announces Expansion.</p><p>This comes as part of the company's strategy to expand and meet growing customer needs.</p><p>This step features several advantages including prime location, modern designs, and competitive prices.</p>"
      },
      "excerpt": {
        "ar": "أعلنت شركة نيو سيتي عن توسعات جديدة لشركة نيو سيتي في إطار استراتيجية التوسع...",
        "en": "New City announced New City Announces Expansion as part of expansion strategy..."
      },
      "image": "/uploads/1766644392682-47488809-ee00-4602-a91f-846ed94e7627.jpg",
      "category": "company",
      "status": "published",
      "createdAt": "2025-12-27T03:44:54.097Z",
      "createdBy": "admin-001",
      "updatedAt": "2025-12-27T03:44:54.097Z"
    },
    {
      "id": "news-0080",
      "title": {
        "ar": "شراكة استراتيجية جديدة المعادي 80",
        "en": "New Strategic Partnership Maadi 80"
      },
      "content": {
        "ar": "<p>في خطوة جديدة تؤكد ريادة نيو سيتي في سوق العقارات المصري، أعلنت الشركة عن شراكة استراتيجية جديدة.</p><p>يأتي هذا في إطار استراتيجية الشركة للتوسع وتلبية احتياجات العملاء المتزايدة.</p><p>تتميز هذه الخطوة بعدة مزايا تشمل الموقع المتميز والتصاميم العصرية والأسعار التنافسية.</p>",
        "en": "<p>In a new step confirming New City's leadership in the Egyptian real estate market, the company announced New Strategic Partnership.</p><p>This comes as part of the company's strategy to expand and meet growing customer needs.</p><p>This step features several advantages including prime location, modern designs, and competitive prices.</p>"
      },
      "excerpt": {
        "ar": "أعلنت شركة نيو سيتي عن شراكة استراتيجية جديدة في إطار استراتيجية التوسع...",
        "en": "New City announced New Strategic Partnership as part of expansion strategy..."
      },
      "image": "/uploads/1766644120512-c9feca98-1331-4f41-bf53-a3825cddbb50.jpg",
      "category": "company",
      "status": "published",
      "createdAt": "2025-12-27T03:44:54.101Z",
      "createdBy": "admin-001",
      "updatedAt": "2025-12-27T03:44:54.101Z"
    },
    {
      "id": "news-0090",
      "title": {
        "ar": "شراكة استراتيجية جديدة مدينتي 90",
        "en": "New Strategic Partnership Madinaty 90"
      },
      "content": {
        "ar": "<p>في خطوة جديدة تؤكد ريادة نيو سيتي في سوق العقارات المصري، أعلنت الشركة عن شراكة استراتيجية جديدة.</p><p>يأتي هذا في إطار استراتيجية الشركة للتوسع وتلبية احتياجات العملاء المتزايدة.</p><p>تتميز هذه الخطوة بعدة مزايا تشمل الموقع المتميز والتصاميم العصرية والأسعار التنافسية.</p>",
        "en": "<p>In a new step confirming New City's leadership in the Egyptian real estate market, the company announced New Strategic Partnership.</p><p>This comes as part of the company's strategy to expand and meet growing customer needs.</p><p>This step features several advantages including prime location, modern designs, and competitive prices.</p>"
      },
      "excerpt": {
        "ar": "أعلنت شركة نيو سيتي عن شراكة استراتيجية جديدة في إطار استراتيجية التوسع...",
        "en": "New City announced New Strategic Partnership as part of expansion strategy..."
      },
      "image": "/uploads/1766644392681-f8b78712-22c1-4daf-b8c6-353bcb2651d1.jpg",
      "category": "company",
      "status": "published",
      "createdAt": "2025-12-27T03:44:54.148Z",
      "createdBy": "admin-001",
      "updatedAt": "2025-12-27T03:44:54.148Z"
    },
    {
      "id": "news-0098",
      "title": {
        "ar": "شراكة استراتيجية جديدة 6 أكتوبر 98",
        "en": "New Strategic Partnership 6th of October 98"
      },
      "content": {
        "ar": "<p>في خطوة جديدة تؤكد ريادة نيو سيتي في سوق العقارات المصري، أعلنت الشركة عن شراكة استراتيجية جديدة.</p><p>يأتي هذا في إطار استراتيجية الشركة للتوسع وتلبية احتياجات العملاء المتزايدة.</p><p>تتميز هذه الخطوة بعدة مزايا تشمل الموقع المتميز والتصاميم العصرية والأسعار التنافسية.</p>",
        "en": "<p>In a new step confirming New City's leadership in the Egyptian real estate market, the company announced New Strategic Partnership.</p><p>This comes as part of the company's strategy to expand and meet growing customer needs.</p><p>This step features several advantages including prime location, modern designs, and competitive prices.</p>"
      },
      "excerpt": {
        "ar": "أعلنت شركة نيو سيتي عن شراكة استراتيجية جديدة في إطار استراتيجية التوسع...",
        "en": "New City announced New Strategic Partnership as part of expansion strategy..."
      },
      "image": "/uploads/1766591416272-7fe0dc19-e41e-4e0a-8f71-03f2430ee559.jpg",
      "category": "company",
      "status": "published",
      "createdAt": "2025-12-27T03:44:54.187Z",
      "createdBy": "admin-001",
      "updatedAt": "2025-12-27T03:44:54.187Z"
    }
  ],
  "total": 28,
  "page": 2,
  "limit": 20,
  "totalPages": 2,
  "hasNext": false,
  "hasPrev": true,
  "filter": {
    "category": "company"
  },
  "generatedAt": "2025-12-27T22:58:13.904Z"
}